%FSTAX24Y24*%
%MOIN*%
%IN chainlock.topsilkscreen.ger *%
%ADD10C,0.0050*%
%ADD11C,0.0071*%
%ADD12C,0.0100*%
%ADD13C,0.0130*%
%ADD14C,0.0140*%
%ADD15C,0.0180*%
%ADD16C,0.0190*%
%ADD17C,0.0200*%
%ADD18C,0.0250*%
%ADD19C,0.0300*%
D10*X003563Y000368D02*G01X003413Y000518D01*X010763Y000368D02*
X010613Y000518D01*X012563Y000618D02*X012413Y000768D01*
X014363Y000368D02*X014213Y000518D01*X016163Y000368D02*
X016013Y000518D01*X003513Y000368D02*X003413Y000468D01*
X004913Y000718D02*X004813Y000818D01*X007113Y000368D02*
X007013Y000468D01*X007163Y000368D02*X007063Y000468D01*
X007313Y000718D02*X007213Y000818D01*X007363Y000718D02*
X007263Y000818D01*X007713Y000718D02*X007613Y000818D01*
X008363Y000368D02*X008263Y000468D01*X008513Y000718D02*
X008413Y000818D01*X008563Y000718D02*X008463Y000818D01*
X009113Y000718D02*X009013Y000818D01*X009563Y000718D02*
X009463Y000818D01*X010113Y000368D02*X010013Y000468D01*
X010163Y000368D02*X010063Y000468D01*X010313Y000718D02*
X010213Y000818D01*X010713Y000618D02*X010613Y000718D01*X010913D02*
X010813Y000818D01*X010963Y000718D02*X010863Y000818D01*
X012763Y000518D02*X012663Y000618D01*X012763Y000468D02*
X012663Y000568D01*X013113Y000368D02*X013013Y000468D01*
X013163Y000368D02*X013063Y000468D01*X013313Y000718D02*
X013213Y000818D01*X013363Y000718D02*X013263Y000818D01*
X014313Y000618D02*X014213Y000718D01*X014513D02*X014413Y000818D01*
X014563Y000718D02*X014463Y000818D01*X014963Y000718D02*
X014863Y000818D01*X016913Y000718D02*X016813Y000818D01*
X003413Y000768D02*X003363Y000818D01*X003413Y000518D02*
X003363Y000568D01*X003763Y000968D02*X003713Y001018D01*
X004213Y000768D02*X004163Y000818D01*X004263Y000968D02*
X004213Y001018D01*X004263Y000768D02*X004213Y000818D01*
X004263Y000368D02*X004213Y000418D01*X004663Y000468D02*
X004613Y000518D01*X004663Y000368D02*X004613Y000418D01*
X004713Y000368D02*X004663Y000418D01*X004913Y000568D02*
X004863Y000618D01*X004913Y000368D02*X004863Y000418D01*
X004963Y000768D02*X004913Y000818D01*X005313Y000768D02*
X005263Y000818D01*X005363Y000918D02*X005313Y000968D01*
X005363Y000368D02*X005313Y000418D01*X005413Y000818D02*
X005363Y000868D01*X005413Y000368D02*X005363Y000418D01*
X006413Y000968D02*X006363Y001018D01*X006413Y000368D02*
X006363Y000418D01*X006463Y000368D02*X006413Y000418D01*
X007063Y000668D02*X007013Y000718D01*X007363Y000468D02*
X007313Y000518D01*X007663Y000368D02*X007613Y000418D01*
X007913Y000768D02*X007863Y000818D01*X007963Y000768D02*
X007913Y000818D01*X007963Y000368D02*X007913Y000418D01*
X008263Y000968D02*X008213Y001018D01*X008263Y000368D02*
X008213Y000418D01*X008313Y000768D02*X008263Y000818D01*
X008363Y000368D02*X008313Y000418D01*X008563Y000468D02*
X008513Y000518D01*X008863Y000468D02*X008813Y000518D01*
X008863Y000368D02*X008813Y000418D01*X008913Y000368D02*
X008863Y000418D01*X009113Y000568D02*X009063Y000618D01*
X009113Y000368D02*X009063Y000418D01*X009163Y000768D02*
X009113Y000818D01*X009513Y000368D02*X009463Y000418D01*
X009763Y000768D02*X009713Y000818D01*X010063Y000668D02*
X010013Y000718D01*X010263Y000768D02*X010213Y000818D01*
X010313Y000368D02*X010263Y000418D01*X010363Y000968D02*
X010313Y001018D01*X010713Y000468D02*X010663Y000518D01*
X010763Y000368D02*X010713Y000418D01*X010963Y000618D02*
X010913Y000668D01*X011813Y000968D02*X011763Y001018D01*
X011813Y000368D02*X011763Y000418D01*X011863Y000718D02*
X011813Y000768D01*X011863Y000368D02*X011813Y000418D01*
X012463Y000618D02*X012413Y000668D01*X012463Y000368D02*
X012413Y000418D01*X012563Y000568D02*X012513Y000618D01*
X012713Y000768D02*X012663Y000818D01*X013063Y000668D02*
X013013Y000718D01*X013363Y000468D02*X013313Y000518D01*
X013713Y000768D02*X013663Y000818D01*X013763Y000918D02*
X013713Y000968D01*X013763Y000368D02*X013713Y000418D01*
X013813Y000818D02*X013763Y000868D01*X013813Y000368D02*
X013763Y000418D01*X014313Y000468D02*X014263Y000518D01*
X014363Y000368D02*X014313Y000418D01*X014563Y000618D02*
X014513Y000668D01*X014913Y000368D02*X014863Y000418D01*
X015163Y000768D02*X015113Y000818D01*X015613Y000768D02*
X015563Y000818D01*X015663Y000968D02*X015613Y001018D01*
X015663Y000768D02*X015613Y000818D01*X015663Y000368D02*
X015613Y000418D01*X016063Y000618D02*X016013Y000668D01*
X016113Y000718D02*X016063Y000768D01*X016113Y000468D02*
X016063Y000518D01*X016163Y000368D02*X016113Y000418D01*
X016363Y000768D02*X016313Y000818D01*X016663Y000468D02*
X016613Y000518D01*X016663Y000368D02*X016613Y000418D01*
X016713Y000368D02*X016663Y000418D01*X016913Y000568D02*
X016863Y000618D01*X016913Y000368D02*X016863Y000418D01*
X016963Y000768D02*X016913Y000818D01*X003413Y000868D02*
X003363Y000818D01*X003413Y000618D02*X003363Y000568D01*
X003513Y001018D02*X003413Y000918D01*X003563Y001018D02*
X003413Y000868D01*X003763Y000418D02*X003713Y000368D01*
X004263Y001018D02*X004213Y000968D01*X004263Y000818D02*
X004213Y000768D01*X004263Y000418D02*X004213Y000368D01*
X004663Y000818D02*X004613Y000768D01*X004663Y000468D02*
X004613Y000418D01*X004713Y000618D02*X004613Y000518D01*
X004763Y000618D02*X004663Y000518D01*X004863Y000418D02*
X004813Y000368D01*X004913Y000818D02*X004863Y000768D01*
X004913Y000668D02*X004863Y000618D01*X004913Y000468D02*
X004813Y000368D01*X004963Y000768D02*X004913Y000718D01*
X004963Y000418D02*X004913Y000368D01*X005313Y000868D02*
X005263Y000818D01*X005363Y000968D02*X005313Y000918D01*
X005363Y000468D02*X005313Y000418D01*X005413Y000818D02*
X005363Y000768D01*X005563Y000418D02*X005513Y000368D01*
X006413Y001018D02*X006363Y000968D01*X006413Y000418D02*
X006363Y000368D01*X007063Y000518D02*X007013Y000468D01*
X007113Y000818D02*X007013Y000718D01*X007163Y000818D02*
X007063Y000718D01*X007313Y000468D02*X007213Y000368D01*
X007363Y000718D02*X007313Y000668D01*X007363Y000468D02*
X007263Y000368D01*X007663Y000818D02*X007613Y000768D01*
X007663Y000418D02*X007613Y000368D01*X007813Y000818D02*
X007663Y000668D01*X007813Y000818D02*X007713Y000718D01*
X007963Y000768D02*X007913Y000718D01*X007963Y000418D02*
X007913Y000368D01*X008263Y001018D02*X008213Y000968D01*
X008313Y000418D02*X008263Y000368D01*X008363Y000818D02*
X008263Y000718D01*X008363Y000818D02*X008313Y000768D01*
X008513Y000468D02*X008413Y000368D01*X008563Y000718D02*
X008513Y000668D01*X008563Y000468D02*X008463Y000368D01*
X008863Y000818D02*X008813Y000768D01*X008863Y000468D02*
X008813Y000418D01*X008913Y000618D02*X008813Y000518D01*
X008963Y000618D02*X008863Y000518D01*X009063Y000418D02*
X009013Y000368D01*X009113Y000818D02*X009063Y000768D01*
X009113Y000668D02*X009063Y000618D01*X009113Y000468D02*
X009013Y000368D01*X009163Y000768D02*X009113Y000718D01*
X009163Y000418D02*X009113Y000368D01*X009513Y000818D02*
X009463Y000768D01*X009513Y000418D02*X009463Y000368D01*
X009663Y000818D02*X009563Y000718D01*X009663Y000818D02*
X009513Y000668D01*X010063Y000518D02*X010013Y000468D01*
X010113Y000818D02*X010013Y000718D01*X010163Y000818D02*
X010063Y000718D01*X010263Y000418D02*X010213Y000368D01*
X010313Y000818D02*X010263Y000768D01*X010313Y000468D02*
X010213Y000368D01*X010363Y001018D02*X010313Y000968D01*
X010363Y000418D02*X010313Y000368D01*X010713Y000818D02*
X010613Y000718D01*X010713Y000618D02*X010613Y000518D01*
X010713Y000468D02*X010663Y000418D01*X010763Y000818D02*
X010663Y000718D01*X010963D02*X010863Y000618D01*X010963Y000668D02*
X010913Y000618D01*X010963Y000418D02*X010913Y000368D01*
X011813Y001018D02*X011763Y000968D01*X011813Y000418D02*
X011763Y000368D01*X011863Y001018D02*X011813Y000968D01*
X011863Y000718D02*X011813Y000668D01*X012463Y000818D02*
X012413Y000768D01*X012463Y000718D02*X012413Y000668D01*
X012513Y000818D02*X012463Y000768D01*X012513Y000668D02*
X012463Y000618D01*X012613D02*X012563Y000568D01*X012663Y000618D02*
X012613Y000568D01*X012763Y000518D02*X012613Y000368D01*
X012763Y000468D02*X012663Y000368D01*X013063Y000518D02*
X013013Y000468D01*X013113Y000818D02*X013013Y000718D01*
X013163Y000818D02*X013063Y000718D01*X013313Y000468D02*
X013213Y000368D01*X013363Y000718D02*X013313Y000668D01*
X013363Y000468D02*X013263Y000368D01*X013713Y000868D02*
X013663Y000818D01*X013763Y000968D02*X013713Y000918D01*
X013763Y000468D02*X013713Y000418D01*X013813Y000818D02*
X013763Y000768D01*X013963Y000418D02*X013913Y000368D01*
X014313Y000818D02*X014213Y000718D01*X014313Y000618D02*
X014213Y000518D01*X014313Y000468D02*X014263Y000418D01*
X014363Y000818D02*X014263Y000718D01*X014563D02*X014463Y000618D01*
X014563Y000668D02*X014513Y000618D01*X014563Y000418D02*
X014513Y000368D01*X014913Y000818D02*X014863Y000768D01*
X014913Y000418D02*X014863Y000368D01*X015063Y000818D02*
X014963Y000718D01*X015063Y000818D02*X014913Y000668D01*
X015663Y001018D02*X015613Y000968D01*X015663Y000818D02*
X015613Y000768D01*X015663Y000418D02*X015613Y000368D01*
X016063Y000568D02*X016013Y000518D01*X016113Y000718D02*
X016063Y000668D01*X016113Y000468D02*X016063Y000418D01*
X016163Y000818D02*X016113Y000768D01*X016163Y000818D02*
X016013Y000668D01*X016363Y000418D02*X016313Y000368D01*
X016663Y000818D02*X016613Y000768D01*X016663Y000468D02*
X016613Y000418D01*X016713Y000618D02*X016613Y000518D01*
X016763Y000618D02*X016663Y000518D01*X016863Y000418D02*
X016813Y000368D01*X016913Y000818D02*X016863Y000768D01*
X016913Y000668D02*X016863Y000618D01*X016913Y000468D02*
X016813Y000368D01*X016963Y000768D02*X016913Y000718D01*
X016963Y000418D02*X016913Y000368D01*X011813Y001018D02*Y000368D01*
X011763Y001018D02*Y000368D01*X010363Y001018D02*Y000368D01*
X010313Y001018D02*Y000368D01*X008263Y001018D02*Y000368D01*
X008213Y001018D02*Y000368D01*X006413Y001018D02*Y000368D01*
X006363Y001018D02*Y000368D01*X013763Y000968D02*Y000368D01*
X005363Y000968D02*Y000368D01*X013713Y000968D02*Y000418D01*
X005313Y000968D02*Y000418D01*X016913Y000818D02*Y000368D01*
X015663Y000818D02*Y000368D01*X015613Y000818D02*Y000368D01*
X014913Y000818D02*Y000368D01*X014863Y000818D02*Y000368D01*
X009513Y000818D02*Y000368D01*X009463Y000818D02*Y000368D01*
X009113Y000818D02*Y000368D01*X007913Y000818D02*Y000368D01*
X007663Y000818D02*Y000368D01*X007613Y000818D02*Y000368D01*
X004913Y000818D02*Y000368D01*X004263Y000818D02*Y000368D01*
X004213Y000818D02*Y000368D01*X003413Y000918D02*Y000468D01*
X016963Y000768D02*Y000368D01*X011763D02*X012163D01*X011763Y000718D02*
X012163D01*X011763Y001018D02*X012163D01*X009163Y000768D02*Y000368D01*
X007963Y000768D02*Y000368D01*X006363D02*X006763D01*X004963Y000768D02*
Y000368D01*X016063Y000768D02*Y000418D01*X014263Y000768D02*Y000418D01*
X014213Y000618D02*X014563D01*X013313Y000768D02*Y000418D01*
X013063Y000768D02*Y000418D01*X010663Y000768D02*Y000418D01*
X010613Y000618D02*X010963D01*X010063Y000768D02*Y000418D01*
X008513Y000768D02*Y000418D01*X007313Y000768D02*Y000418D01*
X007063Y000768D02*Y000418D01*X013613Y000818D02*X013913D01*X005213D02*
X005513D01*X016713Y000618D02*X016963D01*X016663Y000818D02*X016913D01*
X013363Y000718D02*Y000468D01*X013013Y000718D02*Y000468D01*
X010013Y000718D02*Y000468D01*X008913Y000618D02*X009163D01*
X008863Y000818D02*X009113D01*X008563Y000718D02*Y000468D01*
X007363Y000718D02*Y000468D01*X007013Y000718D02*Y000468D01*
X005863Y000618D02*X006113D01*X004713D02*X004963D01*X004663Y000818D02*
X004913D01*X003363D02*Y000568D01*X016663D02*Y000368D01*
X015463Y000818D02*X015663D01*X014213Y000718D02*Y000518D01*
X012463Y000368D02*X012663D01*X012463Y000618D02*X012663D01*
X012463Y000818D02*Y000618D01*Y000818D02*X012663D01*X010613Y000718D02*
Y000518D01*X008863Y000568D02*Y000368D01*X004663Y000568D02*Y000368D01*
X004063Y000818D02*X004263D01*X003513Y000368D02*X003713D01*
X003513Y001018D02*X003713D01*X016663Y000368D02*X016813D01*X016163D02*
X016313D01*X016163Y000818D02*X016313D01*X016013Y000668D02*Y000518D01*
X014513Y000768D02*Y000618D01*X014363Y000368D02*X014513D01*
X014313Y000818D02*X014463D01*X013763Y000368D02*X013913D01*X013113D02*
X013263D01*X013113Y000818D02*X013263D01*X012713Y000568D02*Y000418D01*
X012563Y000568D02*X012713D01*X010913Y000768D02*Y000618D01*
X010763Y000368D02*X010913D01*X010713Y000818D02*X010863D01*
X008863Y000368D02*X009013D01*X007113D02*X007263D01*X007113Y000818D02*
X007263D01*X005363Y000368D02*X005513D01*X004663D02*X004813D01*
X016863Y000418D02*X016963D01*X016863Y000768D02*X016963D01*
X016613Y000518D02*Y000418D01*X014863Y000718D02*X014963D01*X014563D02*
Y000618D01*X012413Y000668D02*X012513D01*X012413Y000768D02*Y000668D01*
X010963Y000718D02*Y000618D01*X010263Y000418D02*X010363D01*
X010263Y000768D02*X010363D01*X010113Y000368D02*X010213D01*
X010113Y000818D02*X010213D01*X009463Y000718D02*X009563D01*
X009063Y000418D02*X009163D01*X009063Y000768D02*X009163D01*
X008813Y000518D02*Y000418D01*X008363Y000368D02*X008463D01*
X008363Y000818D02*X008463D01*X008213Y000418D02*X008313D01*
X008213Y000768D02*X008313D01*X007813Y000818D02*X007913D01*
X007613Y000718D02*X007713D01*X004863Y000418D02*X004963D01*
X004863Y000768D02*X004963D01*X004613Y000518D02*Y000418D01*
X016713Y000618D02*Y000568D01*X016113Y000468D02*Y000418D01*Y000768D02*
Y000718D01*X015663Y001018D02*Y000968D01*X015613D01*Y001018D02*
X015663D01*X015063Y000818D02*X015113D01*X014463Y000768D02*X014513D01*
X014313Y000468D02*Y000418D01*Y000818D02*Y000768D01*X013263Y000418D02*
X013313D01*X013263Y000768D02*X013313D01*X013113Y000418D02*Y000368D01*
Y000818D02*Y000768D01*X012763Y000518D02*Y000468D01*X012663Y000418D02*
X012713D01*X010863Y000768D02*X010913D01*X010713Y000468D02*Y000418D01*
Y000818D02*Y000768D01*X010113Y000418D02*Y000368D01*Y000818D02*
Y000768D01*X009663Y000818D02*X009713D01*X008913Y000618D02*Y000568D01*
X008463Y000418D02*Y000368D01*Y000768D02*X008513D01*X007263Y000418D02*
Y000368D01*Y000768D02*X007313D01*X007113Y000418D02*Y000368D01*
Y000818D02*Y000768D01*X004713Y000618D02*Y000568D01*X004263Y001018D02*
Y000968D01*X004213D01*Y001018D01*X003513Y000418D02*Y000368D01*
Y001018D02*Y000968D01*X003463Y000418D02*X003513D01*X003463Y000468D02*
Y000418D01*Y000968D02*Y000918D01*D12*X006943Y005534D02*
X006991Y005779D01*X008464Y005493D01*X008416Y005247D02*
X008654Y006474D01*X008668Y006642D01*X008644Y006808D01*
X008583Y006965D01*X008489Y007104D01*X008366Y007219D01*
X008221Y007303D01*X008061Y007354D01*X007894Y007367D01*
X007728Y007343D01*X007571Y007282D01*X007432Y007188D01*
X007317Y007066D01*X007232Y006921D01*X007182Y006761D01*
X006705Y004306D01*X006692Y004139D01*X006716Y003973D01*
X006776Y003816D01*X00687Y003677D01*X006993Y003562D01*X007138Y003477D01*
X007298Y003427D01*X007465Y003414D01*X007632Y003438D01*
X007788Y003499D01*X007927Y003592D01*X008042Y003715D01*X008127Y00386D01*
X008177Y00402D01*X008416Y005247D01*X006896Y005288D02*X008368Y005002D01*
X007086Y00627D02*X008559Y005984D01*X0068Y004797D02*X008273Y004511D01*
X002166Y015991D02*X001949Y016116D01*X002699Y017415D01*X002916Y01729D02*
X001833Y017915D01*X001679Y017982D01*X001514Y018014D01*
X001347Y018007D01*X001184Y017964D01*X001036Y017885D01*
X000909Y017776D01*X000809Y017641D01*X000742Y017487D01*X00071Y017322D01*
X000717Y017154D01*X00076Y016992D01*X000839Y016843D01*X000948Y016716D01*
X001083Y016616D01*X003248Y015366D01*X003402Y015299D01*
X003567Y015268D01*X003735Y015274D01*X003897Y015318D01*
X004046Y015396D01*X004173Y015506D01*X004273Y015641D01*X00434Y015795D01*
X004371Y01596D01*X004365Y016128D01*X004322Y01629D01*X004243Y016438D01*
X004134Y016566D01*X003998Y016665D01*X002916Y01729D01*X002382Y015866D02*
X003132Y017165D01*X001516Y016366D02*X002266Y017665D01*
X002815Y015616D02*X003565Y016915D01*X001489Y001795D02*X001047Y00203D01*
X001517Y002913D01*X001958Y002678D01*X002193Y003119D01*X003076Y00265D01*
X002841Y002208D01*X003283Y001974D01*X002813Y001091D01*
X002372Y001325D01*X002137Y000884D01*X001254Y001353D01*
X001489Y001795D01*X022295Y001898D02*X02281Y002056D01*X023167Y002438D01*
X023289Y002963D01*X02313Y003478D01*X022748Y003835D01*X022223Y003956D01*
X021708Y003798D01*X021402Y003678D01*X021457Y002119D01*
X021771Y002019D01*X022295Y001898D01*X02278Y003195D02*X022798Y002696D01*
X020157Y001774D02*X020672Y001932D01*X021029Y002315D01*X02115Y00284D01*
X020992Y003354D01*X02061Y003711D01*X020085Y003833D01*X01957Y003675D01*
X019264Y003554D01*X019319Y001995D01*X019632Y001896D01*
X020157Y001774D01*X020642Y003072D02*X020659Y002572D01*X01579Y018111D02*
X016681Y018565D01*X015773Y020347D01*X014882Y019893D01*X01579Y018111D01*
X01679Y018859D02*X017756Y019118D01*X017238Y021049D01*X016272Y020791D01*
X01679Y018859D01*X020317Y016453D02*Y017453D01*X020067D01*Y016453D01*
X022067D01*Y017453D01*X020067D01*X021718Y016313D02*X021666Y015315D01*
X021915Y015302D01*X021968Y0163D01*X01997Y016405D01*X019918Y015406D01*
X021915Y015302D01*X020852Y009762D02*X019877Y009987D01*
X019427Y008038D01*X020402Y007813D01*X020852Y009762D01*
X022468Y012746D02*X021483Y012572D01*X02183Y010603D01*X022815Y010777D01*
X022468Y012746D01*X023499Y008979D02*X022792Y009686D01*
X022438Y009332D01*X022359Y009229D01*X022309Y009108D01*
X022292Y008979D01*X022309Y008849D01*X022359Y008729D01*
X022438Y008625D01*X022542Y008546D01*X022663Y008496D01*
X022792Y008479D01*X022921Y008496D01*X023042Y008546D01*
X023146Y008625D01*X024206Y009686D01*X024286Y009789D01*X024336Y00991D01*
X024353Y010039D01*X024336Y010169D01*X024286Y010289D01*
X024206Y010393D01*X024103Y010472D01*X023982Y010522D01*
X023853Y010539D01*X023723Y010522D01*X023603Y010472D01*
X023499Y010393D01*X022438Y009332D01*X022969Y009863D02*
X023676Y009155D01*X023853Y009332D02*X023146Y010039D01*X0207Y005904D02*
X019993Y006611D01*X01964Y006257D01*X01956Y006154D01*X01951Y006033D01*
X019493Y005904D01*X01951Y005774D01*X01956Y005654D01*X01964Y00555D01*
X019743Y005471D01*X019864Y005421D01*X019993Y005404D01*
X020123Y005421D01*X020243Y005471D01*X020347Y00555D01*X021407Y006611D01*
X021487Y006714D01*X021537Y006835D01*X021554Y006964D01*
X021537Y007094D01*X021487Y007214D01*X021407Y007318D01*
X021304Y007397D01*X021183Y007447D01*X021054Y007464D01*
X020924Y007447D01*X020804Y007397D01*X0207Y007318D01*X01964Y006257D01*
X02017Y006787D02*X020877Y00608D01*X021054Y006257D02*X020347Y006964D01*
X011568Y028807D02*X01131Y027841D01*X011551Y027776D01*X01181Y028742D01*
X009878Y029259D01*X009619Y028294D01*X011551Y027776D01*
X015482Y027239D02*X015223Y026273D01*X015465Y026209D01*
X015724Y027175D01*X013792Y027692D01*X013533Y026726D01*
X015465Y026209D01*X01237Y022789D02*X012111Y021823D01*X012352Y021758D01*
X012611Y022724D01*X010679Y023242D01*X01042Y022276D01*X012352Y021758D01*
X02631Y002056D02*X026052Y003021D01*X02412Y002504D01*X024379Y001538D01*
X02631Y002056D01*X026681Y003536D02*X026422Y004502D01*X02449Y003984D01*
X024749Y003018D01*X026681Y003536D01*X032682Y003139D02*X03256Y004132D01*
X030575Y003888D01*X030697Y002895D01*X032682Y003139D01*X02821Y006326D02*
X029076Y005826D01*X030076Y007558D01*X02921Y008058D01*X02821Y006326D01*
X024919Y014773D02*X024449Y01389D01*X026215Y012951D01*X026685Y013834D01*
X024919Y014773D01*X024175Y013897D02*X023467Y01319D01*X024882Y011775D01*
X025589Y012483D01*X024175Y013897D01*X01795Y01564D02*X018949Y015588D01*
X019054Y017585D01*X018055Y017637D01*X01795Y01564D01*X02003Y012029D02*
X021018Y011873D01*X021331Y013848D01*X020343Y014005D01*X02003Y012029D01*
X016596Y026604D02*X017596D01*Y028604D01*X016596D01*Y026604D01*
X021142Y019502D02*X022137Y019606D01*X021928Y021595D01*
X020933Y021491D01*X021142Y019502D01*X02233Y020143D02*X023329Y020195D01*
X023224Y022192D01*X022226Y02214D01*X02233Y020143D01*X025093Y017193D02*
X025335Y018164D01*X023394Y018647D01*X023152Y017677D01*
X025093Y017193D01*X034647Y015549D02*X035177Y016397D01*
X033481Y017457D01*X032951Y016609D01*X034647Y015549D01*
X026162Y015549D02*X026404Y016519D01*X024463Y017003D01*
X024221Y016032D01*X026162Y015549D01*X031195Y011793D02*
X031915Y011099D01*X033304Y012537D01*X032585Y013232D01*
X031195Y011793D01*X03143Y01556D02*X032427Y01563D01*X032288Y017625D01*
X03129Y017555D01*X03143Y01556D01*X026203Y01751D02*X027173Y017752D01*
X026689Y019693D01*X025719Y019451D01*X026203Y01751D01*X019388Y028389D02*
X018431Y028681D01*X017846Y026769D01*X018803Y026476D01*
X019388Y028389D01*X023541Y024568D02*X02368Y025558D01*X021699Y025836D01*
X02156Y024846D01*X023541Y024568D01*X030536Y008344D02*X031487Y008035D01*
X032105Y009937D01*X031154Y010246D01*X030536Y008344D01*
X033164Y007221D02*X03403Y006721D01*X03503Y008453D01*X034164Y008953D01*
X033164Y007221D01*X032935Y011161D02*X033818Y010692D01*
X034756Y012458D01*X033874Y012927D01*X032935Y011161D01*X034208Y01419D02*
X033915Y015146D01*X032003Y014561D01*X032295Y013605D01*X034208Y01419D01*
X024118Y026652D02*Y025652D01*X026118D01*Y026652D01*X024118D01*
X030885Y026089D02*X030627Y025123D01*X032558Y024605D01*
X032817Y025571D01*X030885Y026089D01*X02373Y024212D02*X023471Y023246D01*
X025403Y022729D01*X025662Y023694D01*X02373Y024212D01*X035092Y013113D02*
X036058Y012854D01*X036576Y014786D01*X03561Y015045D01*X035092Y013113D01*
X037623Y022888D02*X037281Y023828D01*X035402Y023144D01*
X035744Y022204D01*X037623Y022888D01*X036216Y018689D02*
X036804Y019498D01*X035186Y020673D01*X034598Y019864D01*
X036216Y018689D01*X030979Y006412D02*X030479Y005546D01*
X032212Y004546D01*X032712Y005412D01*X030979Y006412D01*
X019102Y006126D02*X018102D01*Y004126D01*X019102D01*Y006126D01*
X026598Y004769D02*X026339Y005735D01*X024408Y005218D01*
X024666Y004252D01*X026598Y004769D01*X036137Y004596D02*
X036437Y005043D01*X036474Y005565D01*X036238Y006049D01*X035791Y00635D01*
X035269Y006386D01*X034785Y006151D01*X034484Y005704D01*
X034323Y005417D01*X035346Y00424D01*X035652Y00436D01*X036137Y004596D01*
X035697Y00591D02*X036025Y005532D01*X028414Y002249D02*X028941Y002362D01*
X029329Y002712D01*X029496Y003224D01*X029384Y003751D01*X029034Y00414D01*
X028522Y004307D01*X027995Y004194D01*X02768Y0041D01*X027598Y002542D01*
X027902Y002416D01*X028414Y002249D01*X02901Y0035D02*X028984Y003001D01*
X030028Y011135D02*X025078Y006185D01*X023664Y007599D01*
X028614Y012549D01*X030028Y011135D01*X029498Y011665D02*
X029321Y011488D01*X028967Y011842D01*X029144Y012019D01*
X015345Y023122D02*X008583Y024933D01*X009101Y026865D01*
X015862Y025053D01*X015345Y023122D01*X015539Y023846D02*
X015297Y023911D01*X015427Y024394D01*X015668Y024329D01*
X011729Y005368D02*X008229Y01143D01*X009961Y01243D01*X013461Y006368D01*
X011729Y005368D01*X012378Y005743D02*X012253Y00596D01*X012686Y00621D01*
X012811Y005993D01*X032968Y018795D02*X032978Y018256D01*
X033247Y017808D01*X033718Y017546D01*X034256Y017556D01*
X034705Y017826D01*X034967Y018296D01*X034957Y018835D01*
X034925Y019162D01*X033411Y019539D01*X033229Y019265D01*
X032968Y018795D01*X034045Y018031D02*X033657Y018128D01*
X033899Y018274D02*X033803Y017886D01*X034317Y022819D02*
X034855Y022857D01*X035288Y02315D01*X035525Y023633D01*X035487Y02417D01*
X035194Y024604D01*X034711Y024841D01*X034173Y024803D01*
X033848Y024754D01*X03355Y023222D01*X033834Y023055D01*X034317Y022819D01*
X035023Y023935D02*X034947Y023542D01*X034789Y023776D02*X035181Y0237D01*
X031122Y022476D02*X031225Y021948D01*X031568Y021553D01*
X032077Y021377D01*X032606Y02148D01*X033001Y021824D01*X033177Y022333D01*
X033073Y022861D01*X032985Y023178D01*X031429Y023287D01*
X031298Y022985D01*X031122Y022476D01*X032315Y021912D02*
X031916Y021939D01*X03213Y022125D02*X032102Y021726D01*X019706Y0232D02*
X020023Y022765D01*X020501Y022552D01*X021037Y022608D01*
X021472Y022925D01*X021685Y023403D01*X021629Y023939D01*
X021312Y024374D01*X021098Y024624D01*X019642Y024065D01*X01965Y023736D01*
X019706Y0232D01*X021026Y023193D02*X020653Y02305D01*X020768Y023308D02*
X020911Y022935D01*X019299Y024733D02*X019836Y024687D01*X02031Y024908D01*
X020619Y025349D01*X020666Y025886D01*X020445Y02636D01*X020004Y026669D01*
X019467Y026716D01*X019138Y026718D01*X018605Y025252D01*
X018858Y025043D01*X019299Y024733D01*X020171Y025725D02*
X020034Y025349D01*X019915Y025606D02*X020291Y025469D01*
X017731Y021458D02*X018Y020992D01*X018454Y02073D01*X018992Y020729D01*
X019458Y020999D01*X01972Y021452D01*X01972Y021991D01*X019451Y022457D01*
X019264Y022728D01*X017757Y022324D01*X017731Y021996D01*
X017731Y021458D01*X019043Y021312D02*X018657Y021209D01*
X018798Y021454D02*X018902Y021067D01*X004606Y004177D02*Y004677D01*
X005606D01*Y004177D01*X006106D01*Y003177D01*X005606D01*Y002677D01*
X004606D01*Y003177D01*X004106D01*Y004177D01*X004606D01*
X004356Y004927D02*Y004427D01*X003856D01*Y002927D01*X004356D01*
Y002427D01*X005856D01*Y002927D01*X006356D01*Y004427D01*X005856D01*
Y004927D01*X004356D01*X020586Y020044D02*X020301Y020501D01*
X019839Y020746D01*X0193Y020728D01*X018844Y020442D01*X018598Y01998D01*
X018616Y019442D01*X018902Y018986D01*X019098Y018722D01*X02059Y019178D01*
X020605Y019506D01*X020586Y020044D01*X019207Y020177D02*
X019686Y020323D01*X032432Y026368D02*X032799Y026762D01*
X032917Y027272D01*X03276Y027787D01*X032366Y028154D01*X031856Y028272D01*
X031341Y028115D01*X030974Y02772D01*X030769Y027463D01*X031596Y02614D01*
X031917Y026211D01*X032432Y026368D01*X032203Y027734D02*X032468Y02731D01*
X038965Y024246D02*X039105Y025237D01*X037124Y025515D01*
X036985Y024525D01*X038965Y024246D01*X030201Y024962D02*
X029942Y023996D01*X031874Y023478D01*X032133Y024444D01*
X030201Y024962D01*X036318Y02811D02*X036818Y027244D01*X03855Y028244D01*
X03805Y02911D01*X036318Y02811D01*X023613Y029783D02*Y029283D01*
X024613Y027783D02*Y028283D01*X024113Y029283D02*X024613Y029783D01*
Y029283D02*X025113D01*X024613Y028783D02*X025113Y028283D01*X024113D02*
X023613Y027783D01*Y028283D02*X023113D01*X023613Y028783D02*
X023113Y029283D01*X022394Y00715D02*X022613Y007599D01*X022843Y006931D01*
X023512Y007161D01*X023292Y006711D01*X023742Y006492D01*
X023073Y006262D01*X023303Y005593D01*X022854Y005813D01*
X022635Y005363D01*X022405Y006032D01*X021736Y005802D01*
X021955Y006251D01*X021506Y00647D01*X022174Y0067D01*X021944Y007369D01*
X022394Y00715D01*D17*X007863Y026609D02*X007464Y024693D01*D12*
X007221Y02475D01*X007671Y026698D01*X007221Y02475D02*X006003Y025031D01*
D17*X006521Y026996D01*D12*X007005Y028737D01*X007717Y029283D01*D17*
X007464Y024693D02*X007408Y02445D01*D19*X005947Y024787D01*D17*
X006003Y025031D01*D12*X007864Y026654D02*X008172Y028481D01*
X007746Y029288D01*X006223Y024994D02*X006716Y026896D01*
X007795Y023311D02*X007915Y023262D01*X008019Y023182D01*
X008098Y023078D01*X008148Y022958D01*X008165Y022828D01*
X008148Y022699D01*X008098Y022578D01*X008019Y022475D01*
X007915Y022395D01*X007795Y022346D01*X007665Y022328D01*
X007536Y022346D01*X007415Y022395D01*X007312Y022475D01*
X007232Y022578D01*X007182Y022699D01*X007165Y022828D01*
X007182Y022958D01*X007232Y023078D01*X007312Y023182D01*
X007415Y023262D01*X007536Y023311D01*X007665Y023328D01*
X007795Y023311D01*X009114Y02244D02*X009045Y022257D01*X008942Y02209D01*
X008808Y021947D01*X008648Y021833D01*X00847Y021752D01*X008279Y021708D01*
X008083Y021701D01*X007889Y021733D01*X007706Y021802D01*
X007539Y021906D01*X007396Y02204D01*X007282Y022199D01*X007201Y022378D01*
X007157Y022569D01*X00715Y022764D01*X007182Y022958D01*X007251Y023141D01*
X007355Y023308D01*X007489Y023451D01*X007648Y023565D01*
X007827Y023646D01*X008018Y023691D01*X008214Y023697D01*
X008407Y023665D01*X008591Y023596D01*X008757Y023492D01*X0089Y023358D01*
X009014Y023199D01*X009095Y023021D01*X00914Y02283D01*X009146Y022634D01*
X009114Y02244D01*X038698Y020993D02*X038231Y020814D01*X038052Y02128D01*
X037585Y021101D01*X037764Y020635D01*X037297Y020455D01*
X037118Y020922D01*X036651Y020743D01*X036831Y020276D01*
X036364Y020097D01*X03606Y021587D01*X035881Y022054D01*X037748Y02277D01*
X037927Y022304D01*X03606Y021587D01*X037927Y022304D02*X038698Y020993D01*
X028204Y013836D02*Y021836D01*X030204D01*Y013836D01*X028204D01*
X028954D02*Y014086D01*X029454D01*Y013836D01*X027584Y023054D02*
X026605Y023262D01*X026501Y022773D01*X026491Y022643D01*
X026515Y022515D01*X026571Y022397D01*X026656Y022298D01*
X026764Y022224D01*X026887Y02218D01*X027017Y02217D01*X027145Y022194D01*
X027263Y02225D01*X027362Y022335D01*X027436Y022442D01*X02748Y022565D01*
X027791Y024032D01*X027802Y024163D01*X027778Y024291D01*
X027722Y024409D01*X027637Y024508D01*X027529Y024582D01*
X027406Y024625D01*X027276Y024636D01*X027148Y024612D01*X02703Y024556D01*
X026931Y024471D01*X026857Y024363D01*X026813Y02424D01*X026501Y022773D01*
X027688Y023543D02*X026709Y023751D01*X026657Y023507D02*
X026902Y023455D01*X027391Y023351D02*X027636Y023299D01*
X036791Y009414D02*X03583Y00969D01*X035279Y007767D01*X03624Y007492D01*
X036791Y009414D01*X016834Y016389D02*X017206Y016723D01*X01572Y015385D02*
X016091Y01572D01*X01754Y016352D02*X017169Y016017D01*X016871Y017095D02*
X0165Y01676D01*X017169Y016017D01*X015385Y015757D02*X0165Y01676D01*
X016054Y015014D02*X017169Y016017D01*X015757Y016091D02*
X016426Y015348D01*X017482Y011084D02*X018891Y013733D01*
X019773Y013263D01*X01998Y012587D01*X019304Y01238D01*X019511Y011704D01*
X018835Y011497D01*X019041Y010821D01*X018365Y010614D01*
X017482Y011084D01*X039172Y015399D02*X036523Y016808D01*
X036992Y017691D01*X037669Y017898D01*X037875Y017221D01*
X038552Y017428D01*X038758Y016752D01*X039435Y016959D01*
X039641Y016282D01*X039172Y015399D01*X038256Y011878D02*
X038126Y011895D01*X038006Y011945D01*X037902Y012024D01*
X037823Y012128D01*X037773Y012248D01*X037756Y012378D01*
X037773Y012507D01*X037823Y012628D01*X037902Y012731D01*
X038006Y012811D01*X038126Y012861D01*X038256Y012878D01*
X038385Y012861D01*X038506Y012811D01*X038609Y012731D01*
X038689Y012628D01*X038739Y012507D01*X038756Y012378D01*
X038739Y012248D01*X038689Y012128D01*X038609Y012024D01*
X038506Y011945D01*X038385Y011895D01*X038256Y011878D01*
X036756Y012378D02*X036775Y012573D01*X036832Y01276D01*X036924Y012933D01*
X037048Y013085D01*X0372Y013209D01*X037373Y013302D01*X03756Y013358D01*
X037756Y013378D01*X037951Y013358D01*X038138Y013302D01*
X038311Y013209D01*X038463Y013085D01*X038587Y012933D01*X038679Y01276D01*
X038736Y012573D01*X038756Y012378D01*X038736Y012183D01*
X038679Y011995D01*X038587Y011822D01*X038463Y011671D01*
X038311Y011546D01*X038138Y011454D01*X037951Y011397D01*
X037756Y011378D01*X03756Y011397D01*X037373Y011454D01*X0372Y011546D01*
X037048Y011671D01*X036924Y011822D01*X036832Y011995D01*
X036775Y012183D01*X036756Y012378D01*X03255Y019686D02*X031559Y019547D01*
X031629Y019052D01*X031664Y018926D01*X03173Y018814D01*X031823Y018722D01*
X031937Y018658D01*X032063Y018625D01*X032194Y018626D01*X03232Y018661D01*
X032432Y018728D01*X032524Y018821D01*X032588Y018934D01*X03262Y019061D01*
X032619Y019191D01*X032411Y020677D01*X032376Y020802D01*
X032309Y020915D01*X032216Y021006D01*X032103Y021071D01*
X031976Y021103D01*X031846Y021102D01*X03172Y021067D01*X031608Y021001D01*
X031516Y020908D01*X031452Y020794D01*X031419Y020668D01*X03142Y020537D01*
X031629Y019052D01*X03248Y020181D02*X03149Y020042D01*X031525Y019795D02*
X031772Y019829D01*X032267Y019899D02*X032515Y019934D01*D18*
X037987Y000794D02*X038423Y000792D01*D16*X038783Y000961D01*D13*
X038916Y001211D01*D18*X037871Y001083D02*X037674Y001238D01*D16*
X03754Y001554D01*D13*X037537Y002203D01*D18*X037935Y00081D02*
X037891Y000538D01*X037926Y001012D02*X037938Y000821D01*
X037935Y001093D02*X038023Y00173D01*D17*X038026Y001742D02*
X038164Y002202D01*D15*X03822Y00233D02*X038172Y002235D01*
X038244Y002335D02*X038497Y002308D01*D14*X038555Y002305D02*
X038999Y00243D01*X038985Y002469D02*X039162Y002849D01*X039143Y002865D02*
X039115Y003179D01*D12*X039109Y003204D02*X039006Y0035D01*
X038984Y003506D02*X038854Y003597D01*D15*X0382Y002346D02*
X037956Y002596D01*D14*X037934Y002601D02*X03785Y002928D01*
X037817Y002937D02*X037919Y003347D01*D12*X037922Y003358D02*
X038069Y003522D01*X012811Y00364D02*X012279Y003555D01*X011873Y003226D01*
X011679Y002723D01*X011764Y002192D01*X012093Y001785D01*
X012596Y001591D01*X013128Y001676D01*X013447Y001753D01*X01361Y003305D01*
X013314Y003446D01*X012811Y00364D01*X012205Y002467D02*X012247Y002865D01*
X012425Y002645D02*X012027Y002687D01*X004073Y013943D02*
X003607Y014212D01*X003083D01*X002617Y013943D01*X002348Y013477D01*
Y012953D01*X002617Y012487D01*X003083Y012218D01*X00338Y012077D01*
X004483Y01318D01*X004342Y013477D01*X004073Y013943D01*X002864Y013413D02*
X003147Y013696D01*Y013413D02*X002864Y013696D01*X006862Y017687D02*
X007328Y017418D01*X007851D01*X008318Y017687D01*X008587Y018154D01*
Y018677D01*X008318Y019144D01*X007851Y019412D01*X007554Y019554D01*
X006451Y018451D01*X006593Y018154D01*X006862Y017687D01*
X008071Y018217D02*X007788Y017935D01*Y018217D02*X008071Y017935D01*
X009062Y018246D02*X009332Y01778D01*X009785Y017518D01*X010324Y017517D01*
X01079Y017787D01*X011052Y01824D01*X011052Y018779D01*X010782Y019245D01*
X010596Y019516D01*X009089Y019112D01*X009063Y018784D01*
X009062Y018246D01*X010375Y0181D02*X009988Y017997D01*X01013Y018242D02*
X010233Y017856D01*X012035Y017208D02*X011042Y01733D01*X010799Y015345D01*
X011791Y015223D01*X012035Y017208D01*X007756Y021419D02*
X007497Y020453D01*X009429Y019935D01*X009688Y020901D01*
X007756Y021419D01*X012978Y018579D02*X013685Y019286D01*X012271Y0207D01*
X011564Y019993D01*X012978Y018579D01*X008127Y015819D02*
X007328Y015217D01*X008532Y01362D01*X009331Y014222D01*X008127Y015819D01*
X005989Y014491D02*X005191Y013889D01*X006394Y012292D01*
X007193Y012894D01*X005989Y014491D01*X006024Y019445D02*
X005034Y019584D01*X004756Y017603D01*X005746Y017464D01*
X006024Y019445D01*X003852Y006314D02*X004194Y005375D01*
X006074Y006059D01*X005732Y006998D01*X003852Y006314D01*
X017225Y000906D02*X017242Y001906D01*X015242Y00194D01*X015225Y000941D01*
X017225Y000906D01*X017279Y002153D02*X017296Y003152D01*
X015297Y003187D01*X015279Y002187D01*X017279Y002153D01*
X001378Y007871D02*X001704Y006925D01*X003595Y007577D01*
X003269Y008522D01*X001378Y007871D01*X009243Y002656D02*
X010239Y002569D01*X010414Y004561D01*X009417Y004649D01*
X009243Y002656D01*X015436Y004728D02*X015349Y005724D01*X013357Y00555D01*
X013444Y004554D01*X015436Y004728D01*X003447Y009794D02*X00444Y009672D01*
X004684Y011657D01*X003691Y011779D01*X003447Y009794D01*X00306Y005889D02*
X00209Y006131D01*X001606Y00419D01*X002576Y003949D01*X00306Y005889D01*
X002235Y01038D02*X002904Y011123D01*X001418Y012461D01*X000749Y011718D01*
X002235Y01038D01*X007555Y012763D02*X008374Y013336D01*X007227Y014975D01*
X006408Y014401D01*X007555Y012763D01*X004508Y007828D02*X0055Y007707D01*
X005744Y009692D01*X004751Y009814D01*X004508Y007828D01*
X006828Y009317D02*X007626Y009919D01*X006423Y011516D01*
X005624Y010914D01*X006828Y009317D01*X00923Y016432D02*X008431Y01583D01*
X009635Y014233D01*X010434Y014834D01*X00923Y016432D01*X015747Y007965D02*
X01504Y007258D01*X016454Y005844D01*X017161Y006551D01*X015747Y007965D01*
X01305Y011011D02*X012211Y010467D01*X013301Y008789D01*X014139Y009334D01*
X01305Y011011D01*X016761Y011477D02*X016174Y012286D01*X014556Y01111D01*
X015143Y010301D01*X016761Y011477D01*X01437Y013317D02*X01387Y014183D01*
X012138Y013183D01*X012638Y012317D01*X01437Y013317D01*X01318Y018173D02*
X012537Y017407D01*X01407Y016121D01*X014712Y016887D01*X01318Y018173D01*
X014872Y017508D02*X015711Y018053D01*X014622Y01973D01*X013783Y019186D01*
X014872Y017508D01*X038318Y006381D02*X038503Y006214D01*X0375Y005099D01*
X037314Y005267D02*X038243Y00443D01*X038379Y004333D01*X038534Y004268D01*
X0387Y004239D01*X038868Y004248D01*X039029Y004294D01*X039176Y004374D01*
X039302Y004486D01*X0394Y004622D01*X039465Y004777D01*X039493Y004943D01*
X039485Y00511D01*X039439Y005272D01*X039358Y005419D01*X039246Y005545D01*
X037389Y007218D01*X037252Y007316D01*X037097Y00738D01*X036932Y007409D01*
X036764Y0074D01*X036602Y007354D01*X036455Y007274D01*X036329Y007162D01*
X036232Y007026D01*X036167Y006871D01*X036138Y006705D01*
X036147Y006538D01*X036193Y006376D01*X036273Y006229D01*
X036385Y006103D01*X037314Y005267D01*X038132Y006549D02*
X037128Y005434D01*X038875Y00588D02*X037871Y004765D01*X03776Y006883D02*
X036756Y005769D01*X015724Y014549D02*X015918Y014707D01*
X016862Y013541D01*X016668Y013384D02*X017639Y01417D01*X017757Y01429D01*
X017845Y014433D01*X0179Y014592D01*X017917Y014759D01*X017897Y014925D01*
X01784Y015084D01*X01775Y015225D01*X01763Y015343D01*X017487Y015431D01*
X017329Y015485D01*X017162Y015503D01*X016995Y015483D01*
X016837Y015426D01*X016695Y015336D01*X014752Y013763D01*
X014634Y013643D01*X014546Y0135D01*X014492Y013341D01*X014474Y013174D01*
X014494Y013007D01*X014551Y012849D01*X014641Y012708D01*X014761Y01259D01*
X014904Y012502D01*X015063Y012447D01*X01523Y01243D01*X015397Y01245D01*
X015555Y012506D01*X015696Y012597D01*X016668Y013384D01*
X015529Y014392D02*X016473Y013226D01*X016307Y015021D02*
X017251Y013856D01*X015141Y014077D02*X016085Y012912D01*
X017998Y007523D02*X017894Y007602D01*X017815Y007706D01*
X017765Y007827D01*X017748Y007956D01*X017765Y008085D01*
X017815Y008206D01*X017894Y00831D01*X017998Y008389D01*X018118Y008439D01*
X018248Y008456D01*X018377Y008439D01*X018498Y008389D01*X018601Y00831D01*
X018681Y008206D01*X018731Y008085D01*X018748Y007956D01*
X018731Y007827D01*X018681Y007706D01*X018601Y007602D01*
X018498Y007523D01*X018377Y007473D01*X018248Y007456D01*
X018118Y007473D01*X017998Y007523D01*X016949Y008706D02*
X017063Y008865D01*X017206Y008999D01*X017372Y009103D01*
X017556Y009172D01*X017749Y009204D01*X017945Y009197D01*
X018136Y009153D01*X018315Y009072D01*X018474Y008958D01*
X018608Y008815D01*X018711Y008648D01*X01878Y008465D01*X018812Y008271D01*
X018806Y008076D01*X018762Y007885D01*X018681Y007706D01*
X018566Y007547D01*X018423Y007413D01*X018257Y007309D01*X018073Y00724D01*
X01788Y007208D01*X017684Y007215D01*X017493Y007259D01*X017315Y00734D01*
X017155Y007454D01*X017021Y007597D01*X016918Y007764D01*
X016849Y007947D01*X016817Y008141D01*X016823Y008337D01*
X016868Y008527D01*X016949Y008706D01*X013075Y014097D02*
X012575Y014963D01*X012142Y014713D01*X012038Y014634D01*X011959Y01453D01*
X011909Y01441D01*X011892Y01428D01*X011909Y014151D01*X011959Y01403D01*
X012038Y013927D01*X012142Y013847D01*X012262Y013797D01*X012392Y01378D01*
X012521Y013797D01*X012642Y013847D01*X013941Y014597D01*
X014044Y014677D01*X014124Y01478D01*X014174Y014901D01*X014191Y01503D01*
X014174Y01516D01*X014124Y01528D01*X014044Y015384D01*X013941Y015463D01*
X01382Y015513D01*X013691Y01553D01*X013561Y015513D01*X013441Y015463D01*
X012142Y014713D01*X012791Y015088D02*X013291Y014222D01*
X013508Y014347D02*X013008Y015213D01*D10*X039195Y014955D02*
X039133Y015158D01*X037606Y0158D02*X037564Y015936D01*X037903Y016039D02*
X037861Y016174D01*X037947Y016015D02*X037905Y016151D01*
X037424Y015671D02*X037403Y015738D01*X037749Y016177D02*
X037729Y016245D01*X037606Y0158D02*X037585Y015868D01*X037829Y015795D02*
X037809Y015862D01*X038367Y015848D02*X038347Y015916D01*
X038505Y016001D02*X038485Y016069D01*X038412Y015825D02*
X038391Y015892D01*X038224Y015472D02*X038203Y015539D01*
X038809Y015614D02*X038788Y015681D01*X038923Y015723D02*X038903Y01579D01*
X038665Y015237D02*X038645Y015305D01*X038921Y015611D02*X0389Y015678D01*
X038709Y015213D02*X038689Y015281D01*X039224Y015223D02*
X039203Y015291D01*X039315Y015288D02*X039295Y015355D01*
X039198Y015067D02*X039177Y015135D01*X039195Y014955D02*
X039174Y015023D01*X039559Y015215D02*X039539Y015282D01*X039918Y01525D02*
X039898Y015318D01*X039637Y014721D02*X039616Y014788D01*
X039845Y015006D02*X039824Y015074D01*X040045Y014956D02*
X040024Y015024D01*X040089Y014933D02*X040069Y015D01*X039901Y01458D02*
X039881Y014647D01*X037729Y016245D02*X037661Y016224D01*
X037447Y015715D02*X037379Y015694D01*X037585Y015868D02*
X037517Y015847D01*X037817Y016198D02*X037749Y016177D01*
X037817Y016198D02*X037682Y016156D01*X037785Y015818D02*X03765Y015777D01*
X037947Y016015D02*X037879Y015995D01*X037829Y015795D02*
X037694Y015753D01*X038529Y016046D02*X038461Y016025D01*
X038435Y015869D02*X038367Y015848D01*X038247Y015516D02*X03818Y015495D01*
X038856Y015702D02*X038788Y015681D01*X038947Y015767D02*
X038879Y015746D01*X038712Y015325D02*X038645Y015305D01*
X038921Y015611D02*X038853Y01559D01*X038865Y015187D02*X038798Y015167D01*
X039201Y015179D02*X039133Y015158D01*X039315Y015288D02*
X039248Y015267D01*X039198Y015067D02*X03913Y015046D01*X039406Y015353D02*
X039339Y015332D01*X039406Y015353D02*X039203Y015291D01*
X039395Y014906D02*X039327Y014885D01*X039942Y015294D02*
X039874Y015274D01*X03966Y014765D02*X039592Y014744D01*X03998Y015047D02*
X039777Y014985D01*X03998Y015047D02*X039845Y015006D01*X040089Y014933D02*
X040022Y014912D01*X039925Y014624D02*X039857Y014603D01*
X039942Y015294D02*X039637Y014721D01*X039898Y015318D02*
X039592Y014744D01*X037729Y016245D02*X037424Y015671D01*
X037685Y016268D02*X037379Y015694D01*X038947Y015767D02*
X038665Y015237D01*X038903Y01579D02*X038645Y015305D01*X040069Y015D02*
X039857Y014603D01*X038435Y015869D02*X038224Y015472D01*
X038391Y015892D02*X03818Y015495D01*X040089Y014933D02*X039901Y01458D01*
X039295Y015355D02*X03913Y015046D01*X037926Y016083D02*X037762Y015774D01*
X038744Y015705D02*X039009Y015564D01*X037947Y016015D02*
X037829Y015795D01*X038258Y015963D02*X038435Y015869D01*
X039195Y014955D02*X039327Y014885D01*X039406Y015353D02*
X039539Y015282D01*X039203Y015291D02*X039133Y015158D01*
X038665Y015237D02*X038798Y015167D01*X03998Y015047D02*X040069Y015D01*
X039757Y015053D02*X039845Y015006D01*X037606Y0158D02*X037694Y015753D01*
X037817Y016198D02*X037905Y016151D01*X037497Y015915D02*
X037585Y015868D01*X037661Y016224D02*X037749Y016177D01*
X039198Y015067D02*X039174Y015023D01*X039339Y015332D02*
X039315Y015288D01*X038529Y016046D02*X038505Y016001D01*
X038461Y016025D01*X038485Y016069D02*X038529Y016046D01*
X037718Y015798D02*X037762Y015774D01*X037882Y016107D02*
X037926Y016083D01*X017488Y012177D02*X017686Y012253D01*
X018784Y014227D02*X018916Y014278D01*X018479Y013542D02*
X018611Y013593D01*X018317Y013177D02*X018449Y013227D01*X017935Y01269D02*
X018068Y01274D01*X01757Y012852D02*X017702Y012903D01*X017915Y012644D02*
X018047Y012695D01*X017539Y012538D02*X017671Y012588D01*
X017737Y012121D02*X017869Y012172D01*X017747Y011898D02*
X017879Y011948D01*X017727Y011852D02*X017859Y011903D01*
X018485Y014415D02*X018551Y014441D01*X018749Y014024D02*X018815Y01405D01*
X018353Y013872D02*X018419Y013898D01*X018261Y013913D02*
X018327Y013938D01*X018241Y013867D02*X018307Y013893D01*
X018342Y013603D02*X018408Y013629D01*X01816Y013685D02*X018226Y01371D01*
X018505Y013476D02*X018571Y013501D01*X018017Y013365D02*X018083Y01339D01*
X018281Y012974D02*X018347Y012999D01*X018261Y012928D02*
X018327Y012953D01*X017895Y013091D02*X017961Y013116D01*
X018093Y012674D02*X018159Y0127D01*X017773Y012817D02*X017839Y012842D01*
X01759Y012898D02*X017656Y012923D01*X017798Y012751D02*X017864Y012776D01*
X018057Y012471D02*X018123Y012497D01*X018037Y012426D02*
X018103Y012451D01*X017945Y012466D02*X018011Y012492D01*
X017631Y012497D02*X017697Y012522D01*X0176Y012182D02*X017666Y012208D01*
X017488Y012177D02*X017554Y012203D01*X017635Y011893D02*
X017701Y011918D01*X018896Y014232D02*X018871Y014298D01*
X018531Y014395D02*X018505Y014461D01*X018835Y014095D02*
X018759Y014293D01*X018835Y014095D02*X018784Y014227D01*X018672Y01373D02*
X018647Y013796D01*X018353Y013872D02*X018327Y013938D01*
X018469Y013766D02*X018419Y013898D01*X018449Y01372D02*X018398Y013852D01*
X018226Y01371D02*X0182Y013776D01*X018571Y013501D02*X018545Y013568D01*
X018434Y013562D02*X018408Y013629D01*X018251Y013644D02*X0182Y013776D01*
X018505Y013476D02*X018479Y013542D01*X018185Y013619D02*X01816Y013685D01*
X018428Y013182D02*X018403Y013248D01*X018063Y013344D02*X018037Y01341D01*
X018367Y013045D02*X018317Y013177D01*X018367Y013045D02*
X018291Y013243D01*X018261Y012928D02*X018235Y012994D01*X017941Y01307D02*
X017915Y013136D01*X018184Y012634D02*X018159Y0127D01*X018093Y012674D02*
X018068Y01274D01*X017864Y012776D02*X017839Y012842D01*X017727Y012837D02*
X017702Y012903D01*X017682Y012857D02*X017656Y012923D01*
X018164Y012588D02*X018139Y012654D01*X017935Y01269D02*X017885Y012822D01*
X017935Y01269D02*X01791Y012756D01*X017798Y012751D02*X017773Y012817D01*
X017753Y012771D02*X017727Y012837D01*X017966Y012512D02*
X017915Y012644D01*X018083Y012405D02*X018057Y012471D01*
X017945Y012466D02*X017895Y012598D01*X018062Y01236D02*X018037Y012426D01*
X017697Y012522D02*X017671Y012588D01*X01756Y012583D02*X017509Y012715D01*
X017631Y012497D02*X017605Y012563D01*X017539Y012538D02*X017489Y01267D01*
X01792Y01204D02*X017869Y012172D01*X017737Y012121D02*X017686Y012253D01*
X0176Y012182D02*X017575Y012248D01*X017899Y011994D02*X017849Y012126D01*
X017727Y011852D02*X017676Y011984D01*X017681Y011872D02*
X017656Y011938D01*X017453Y011974D02*X017427Y01204D01*X018327Y012953D02*
X017915Y013136D01*X018428Y013182D02*X018017Y013365D01*
X018449Y013227D02*X018037Y01341D01*X018571Y013501D02*X01816Y013685D01*
X018896Y014232D02*X018485Y014415D01*X018916Y014278D02*
X018505Y014461D01*X018261Y012928D02*X017895Y013091D01*
X018505Y013476D02*X018139Y013639D01*X017894Y012106D02*
X017575Y012248D01*X017778Y012213D02*X017635Y011893D01*
X017773Y012817D02*X017631Y012497D01*X01791Y012756D02*X01759Y012898D01*
X018184Y012634D02*X018042Y012314D01*X017839Y012842D02*
X017697Y012522D01*X01759Y012898D02*X017489Y01267D01*X018469Y013766D02*
X018368Y013537D01*X018672Y01373D02*X018571Y013501D01*X017869Y012172D02*
X017686Y012253D01*X017697Y012522D02*X017514Y012604D01*
X018103Y012451D02*X01792Y012532D01*X018184Y012634D02*X018001Y012715D01*
X018444Y013832D02*X018261Y013913D01*X017793Y011877D02*
X017656Y011938D01*X017488Y012177D02*X017427Y01204D01*X01792Y01204D02*
X017859Y011903D01*X018083Y012405D02*X017945Y012466D01*
X018261Y013913D02*X0182Y013776D01*X017727Y011852D02*X017635Y011893D01*
X017631Y012497D02*X017539Y012538D01*X017935Y01269D02*X017895Y012598D01*
X018159Y0127D02*X018068Y01274D01*X018367Y013045D02*X018327Y012953D01*
X018357Y013268D02*X018317Y013177D01*X018226Y01371D02*X018185Y013619D01*
X018545Y013568D02*X018505Y013476D01*X018419Y013898D02*
X018327Y013938D01*X018825Y014319D02*X018784Y014227D01*
X017813Y011923D02*X017793Y011877D01*X0176Y012182D02*X017554Y012203D01*
X01792Y01204D02*X017874Y01206D01*X017534Y012649D02*X017489Y01267D01*
X01794Y012578D02*X017895Y012598D01*X017981Y012669D02*X017935Y01269D01*
X017656Y012923D02*X017636Y012878D01*X017702Y012903D02*
X017656Y012923D01*X017885Y012822D02*X017864Y012776D01*
X018469Y013766D02*X018424Y013786D01*X018835Y014095D02*X018815Y01405D01*
D12*X001959Y025563D02*X002017Y025448D01*X002053Y025347D01*
X002061Y02524D01*X002039Y025134D01*X00199Y025038D01*X001918Y024959D01*
X001826Y024902D01*X001792Y024886D01*X001677Y02487D01*X001563Y024888D01*
X001459Y024938D01*X001373Y025015D01*X001081Y025368D01*X00102Y025467D01*
X000991Y02558D01*X000995Y025695D01*X001032Y025805D01*X001099Y0259D01*
X001119Y025921D01*X001203Y025988D01*X001302Y02603D01*X001408Y026045D01*
X001514Y02603D01*X001613Y025988D01*X001697Y025922D01*X001934Y025675D01*
X002031Y025734D02*X002089Y025619D01*X002125Y025518D01*X002132Y02541D01*
X002111Y025305D01*X002062Y025209D01*X001989Y02513D01*X001898Y025073D01*
X001864Y025057D01*X001749Y025041D01*X001635Y025059D01*
X001531Y025109D01*X001445Y025186D01*X001153Y025539D01*
X001092Y025638D01*X001063Y02575D01*X001067Y025866D01*X001104Y025976D01*
X001171Y026071D01*X001191Y026091D01*X001275Y026159D01*
X001374Y026201D01*X00148Y026215D01*X001586Y026201D01*X001685Y026159D01*
X001769Y026092D01*X002006Y025846D01*X001069Y026478D02*
X001156Y025738D01*X001299Y025888D01*X001359Y026976D01*
X001239Y027226D01*X001097Y026566D01*X001133Y026562D02*X00122Y025823D01*
X001363Y025972D01*X001423Y027061D01*X001303Y027311D01*
X001161Y026651D01*X001654Y027249D02*X001592Y027137D01*X001528Y02705D01*
X001443Y026984D01*X001343Y026943D01*X001237Y02693D01*X00113Y026946D01*
X001032Y026989D01*X000999Y027009D01*X000923Y027095D01*X000873Y0272D01*
X000856Y027314D01*X000873Y027429D01*X001002Y027869D01*X00105Y027974D01*
X001127Y028061D01*X001225Y028122D01*X001337Y028153D01*X001453Y02815D01*
X001481Y028145D01*X001584Y028113D01*X001674Y028055D01*
X001745Y027975D01*X001793Y027879D01*X001813Y027774D01*
X001805Y027667D01*X001733Y027332D01*X001836Y027285D02*
X001774Y027173D01*X00171Y027086D01*X001625Y02702D01*X001525Y026979D01*
X001418Y026966D01*X001312Y026982D01*X001214Y027025D01*
X001181Y027045D01*X001104Y027131D01*X001055Y027236D01*X001038Y02735D01*
X001054Y027465D01*X001184Y027904D01*X001232Y02801D01*X001309Y028097D01*
X001407Y028158D01*X001519Y028189D01*X001634Y028186D01*
X001663Y028181D01*X001765Y028149D01*X001856Y028091D01*
X001927Y028011D01*X001975Y027915D01*X001995Y02781D01*X001987Y027703D01*
X001915Y027368D01*X001915Y028498D02*X001351Y028013D01*
X001554Y027977D01*X002491Y028537D01*X002631Y028776D01*
X002004Y028525D01*X002021Y028493D02*X001456Y028007D01*X00166Y027972D01*
X002596Y028531D01*X002737Y02877D01*X002109Y028519D01*X002855Y028332D02*
X002728Y028352D01*X002625Y028383D01*X002533Y02844D01*X002461Y028519D01*
X002412Y028615D01*X00239Y028721D01*X002398Y028828D01*X002405Y028865D01*
X00246Y028967D01*X002542Y029049D01*X002643Y029104D01*X002756Y029128D01*
X003214Y029157D01*X003329Y029147D01*X003437Y029105D01*
X003528Y029034D01*X003595Y028939D01*X003632Y02883D01*X003638Y028801D01*
X003643Y028694D01*X003619Y028589D01*X003568Y028495D01*
X003494Y028417D01*X003402Y028362D01*X003299Y028333D01*X00296Y028286D01*
X002951Y028174D02*X002824Y028193D01*X002721Y028224D01*
X002629Y028281D01*X002557Y028361D01*X002508Y028456D01*
X002486Y028562D01*X002494Y028669D01*X002501Y028706D01*
X002556Y028808D01*X002638Y02889D01*X002739Y028945D01*X002852Y028969D01*
X00331Y028998D01*X003425Y028989D01*X003533Y028947D01*X003624Y028875D01*
X003691Y028781D01*X003728Y028671D01*X003734Y028642D01*
X003739Y028535D01*X003715Y028431D01*X003664Y028336D01*X00359Y028258D01*
X003498Y028203D01*X003395Y028174D01*X003056Y028128D01*
X004118Y028514D02*X003469Y028878D01*X003505Y028675D01*
X004351Y027986D01*X004623Y027936D01*X004173Y02844D01*X004149Y028413D02*
X0035Y028777D01*X003536Y028574D01*X004382Y027885D01*X004654Y027835D01*
X004204Y028339D01*X004303Y027579D02*X004263Y027701D01*
X004244Y027807D01*X004254Y027914D01*X004291Y028015D01*
X004355Y028102D01*X004439Y028169D01*X004538Y028211D01*
X004574Y028221D01*X00469Y028219D01*X0048Y028183D01*X004895Y028118D01*
X004968Y028028D01*X005201Y027634D01*X005245Y027526D01*
X005257Y027411D01*X005234Y027297D01*X005181Y027195D01*X0051Y027112D01*
X005077Y027094D01*X004984Y027041D01*X004879Y027015D01*
X004772Y027017D01*X004669Y027048D01*X004578Y027105D01*
X004506Y027184D01*X00431Y027465D01*X004206Y027422D02*X004166Y027544D01*
X004146Y02765D01*X004156Y027757D01*X004194Y027857D01*X004257Y027945D01*
X004341Y028012D01*X00444Y028054D01*X004477Y028064D01*X004592Y028061D01*
X004702Y028026D01*X004797Y027961D01*X00487Y027871D01*X005103Y027476D01*
X005147Y027369D01*X005159Y027254D01*X005137Y02714D01*X005083Y027037D01*
X005002Y026954D01*X004979Y026937D01*X004886Y026884D01*
X004782Y026857D01*X004674Y02686D01*X004572Y02689D01*X004481Y026947D01*
X004408Y027026D01*X004213Y027307D01*X005039Y026536D02*X005069Y02728D01*
X004904Y027155D01*X004675Y026089D01*X004754Y025823D01*
X004998Y026453D01*X004963Y026463D02*X004993Y027207D01*
X004828Y027082D01*X004599Y026015D01*X004678Y02575D01*X004922Y02638D01*
X004301Y025908D02*X004402Y025987D01*X004494Y026041D01*
X004598Y026069D01*X004706Y026068D01*X004809Y026038D01*
X004901Y025982D01*X004975Y025904D01*X004997Y025873D01*
X005034Y025763D01*X005038Y025648D01*X005009Y025536D01*X00495Y025437D01*
X004659Y025082D01*X004573Y025004D01*X004469Y024954D01*
X004354Y024936D01*X004239Y024952D01*X004134Y024999D01*X00411Y025015D01*
X004028Y025084D01*X003967Y025173D01*X003933Y025275D01*
X003926Y025382D01*X003949Y025487D01*X003998Y025582D01*
X004195Y025862D01*X004119Y025946D02*X00422Y026025D01*X004313Y026079D01*
X004417Y026107D01*X004525Y026106D01*X004628Y026076D01*X00472Y02602D01*
X004793Y025942D01*X004815Y025911D01*X004852Y025801D01*
X004857Y025686D01*X004828Y025574D01*X004768Y025475D01*X004477Y02512D01*
X004392Y025042D01*X004287Y024992D01*X004173Y024974D01*X004058Y02499D01*
X003952Y025037D01*X003928Y025053D01*X003846Y025122D01*
X003786Y025211D01*X003751Y025313D01*X003745Y02542D01*X003767Y025525D01*
X003817Y02562D01*X004014Y0259D01*X003572Y02486D02*X004281Y025086D01*
X004108Y025198D01*X003027Y025049D01*X002805Y024884D01*X00348Y02487D01*
X003477Y024906D02*X004186Y025132D01*X004012Y025245D01*
X002932Y025095D01*X00271Y02493D01*X003385Y024916D01*X002368Y024814D02*
X003111Y024771D01*X002989Y024938D01*X001927Y025186D01*X00166Y025111D01*
X002286Y024856D01*X002296Y024891D02*X003039Y024848D01*
X002917Y025015D01*X001855Y025263D01*X001588Y025189D01*
X002213Y024934D01*X003674Y023941D02*X003667Y024489D01*
X003646Y024681D01*X003589Y024865D01*X003497Y025035D01*
X003417Y025132D01*X003322Y025228D01*X003231Y025302D01*
X003119Y025377D01*X002995Y02543D01*X002966Y025436D01*X002918Y025444D01*
X002845Y025454D01*X002747Y025453D01*X002693Y025449D01*
X002586Y025424D01*X002506Y025399D01*X00244Y02537D01*X002322Y025285D01*
X002223Y025178D01*X002149Y025052D01*X002103Y024914D01*
X002086Y024769D01*X002076Y023868D01*X003876Y023967D02*
X003869Y024515D01*X003849Y024707D01*X003791Y024891D01*
X003699Y025061D01*X00362Y025158D01*X003524Y025253D01*X003434Y025328D01*
X003322Y025403D01*X003197Y025456D01*X003168Y025462D01*X00312Y02547D01*
X003047Y02548D01*X00295Y025479D01*X002895Y025475D01*X002789Y02545D01*
X002709Y025425D01*X002643Y025396D01*X002524Y025311D01*
X002426Y025203D01*X002352Y025078D01*X002305Y02494D01*X002289Y024795D01*
X002278Y023894D01*X001616Y02389D02*X004266Y023945D01*X004248Y023981D02*
Y022365D01*X001598Y022311D01*X001616Y022274D02*X001598Y023836D01*
X002705Y022746D02*X002832Y022928D01*X002705Y023345D01*
X002669Y023364D02*X002868Y023509D01*X002886D02*X003068Y023527D01*
X003286Y023418D01*X003268D02*X003141Y022928D01*X003286Y022746D01*
Y022728D02*X002669Y02271D01*X004139Y023945D02*Y022329D01*
X001489Y022274D01*X001507Y023854D02*X004157Y023908D01*
X001507Y022238D02*X001489Y023799D01*X001959Y025563D02*
X002017Y025448D01*X002053Y025347D01*X002061Y02524D01*X002039Y025134D01*
X00199Y025038D01*X001918Y024959D01*X001826Y024902D01*X001792Y024886D01*
X001677Y02487D01*X001563Y024888D01*X001459Y024938D01*X001373Y025015D01*
X001081Y025368D01*X00102Y025467D01*X000991Y02558D01*X000995Y025695D01*
X001032Y025805D01*X001099Y0259D01*X001119Y025921D01*X001203Y025988D01*
X001302Y02603D01*X001408Y026045D01*X001514Y02603D01*X001613Y025988D01*
X001697Y025922D01*X001934Y025675D01*X002031Y025734D02*
X002089Y025619D01*X002125Y025518D01*X002132Y02541D01*X002111Y025305D01*
X002062Y025209D01*X001989Y02513D01*X001898Y025073D01*X001864Y025057D01*
X001749Y025041D01*X001635Y025059D01*X001531Y025109D01*
X001445Y025186D01*X001153Y025539D01*X001092Y025638D01*X001063Y02575D01*
X001067Y025866D01*X001104Y025976D01*X001171Y026071D01*
X001191Y026091D01*X001275Y026159D01*X001374Y026201D01*X00148Y026215D01*
X001586Y026201D01*X001685Y026159D01*X001769Y026092D01*
X002006Y025846D01*X001069Y026478D02*X001156Y025738D01*
X001299Y025888D01*X001359Y026976D01*X001239Y027226D01*
X001097Y026566D01*X001133Y026562D02*X00122Y025823D01*X001363Y025972D01*
X001423Y027061D01*X001303Y027311D01*X001161Y026651D01*
X001654Y027249D02*X001592Y027137D01*X001528Y02705D01*X001443Y026984D01*
X001343Y026943D01*X001237Y02693D01*X00113Y026946D01*X001032Y026989D01*
X000999Y027009D01*X000923Y027095D01*X000873Y0272D01*X000856Y027314D01*
X000873Y027429D01*X001002Y027869D01*X00105Y027974D01*X001127Y028061D01*
X001225Y028122D01*X001337Y028153D01*X001453Y02815D01*X001481Y028145D01*
X001584Y028113D01*X001674Y028055D01*X001745Y027975D01*
X001793Y027879D01*X001813Y027774D01*X001805Y027667D01*
X001733Y027332D01*X001836Y027285D02*X001774Y027173D01*X00171Y027086D01*
X001625Y02702D01*X001525Y026979D01*X001418Y026966D01*X001312Y026982D01*
X001214Y027025D01*X001181Y027045D01*X001104Y027131D01*
X001055Y027236D01*X001038Y02735D01*X001054Y027465D01*X001184Y027904D01*
X001232Y02801D01*X001309Y028097D01*X001407Y028158D01*X001519Y028189D01*
X001634Y028186D01*X001663Y028181D01*X001765Y028149D01*
X001856Y028091D01*X001927Y028011D01*X001975Y027915D01*X001995Y02781D01*
X001987Y027703D01*X001915Y027368D01*X001915Y028498D02*
X001351Y028013D01*X001554Y027977D01*X002491Y028537D01*
X002631Y028776D01*X002004Y028525D01*X002021Y028493D02*
X001456Y028007D01*X00166Y027972D01*X002596Y028531D01*X002737Y02877D01*
X002109Y028519D01*X002855Y028332D02*X002728Y028352D01*
X002625Y028383D01*X002533Y02844D01*X002461Y028519D01*X002412Y028615D01*
X00239Y028721D01*X002398Y028828D01*X002405Y028865D01*X00246Y028967D01*
X002542Y029049D01*X002643Y029104D01*X002756Y029128D01*
X003214Y029157D01*X003329Y029147D01*X003437Y029105D01*
X003528Y029034D01*X003595Y028939D01*X003632Y02883D01*X003638Y028801D01*
X003643Y028694D01*X003619Y028589D01*X003568Y028495D01*
X003494Y028417D01*X003402Y028362D01*X003299Y028333D01*X00296Y028286D01*
X002951Y028174D02*X002824Y028193D01*X002721Y028224D01*
X002629Y028281D01*X002557Y028361D01*X002508Y028456D01*
X002486Y028562D01*X002494Y028669D01*X002501Y028706D01*
X002556Y028808D01*X002638Y02889D01*X002739Y028945D01*X002852Y028969D01*
X00331Y028998D01*X003425Y028989D01*X003533Y028947D01*X003624Y028875D01*
X003691Y028781D01*X003728Y028671D01*X003734Y028642D01*
X003739Y028535D01*X003715Y028431D01*X003664Y028336D01*X00359Y028258D01*
X003498Y028203D01*X003395Y028174D01*X003056Y028128D01*
X004118Y028514D02*X003469Y028878D01*X003505Y028675D01*
X004351Y027986D01*X004623Y027936D01*X004173Y02844D01*X004149Y028413D02*
X0035Y028777D01*X003536Y028574D01*X004382Y027885D01*X004654Y027835D01*
X004204Y028339D01*X004303Y027579D02*X004263Y027701D01*
X004244Y027807D01*X004254Y027914D01*X004291Y028015D01*
X004355Y028102D01*X004439Y028169D01*X004538Y028211D01*
X004574Y028221D01*X00469Y028219D01*X0048Y028183D01*X004895Y028118D01*
X004968Y028028D01*X005201Y027634D01*X005245Y027526D01*
X005257Y027411D01*X005234Y027297D01*X005181Y027195D01*X0051Y027112D01*
X005077Y027094D01*X004984Y027041D01*X004879Y027015D01*
X004772Y027017D01*X004669Y027048D01*X004578Y027105D01*
X004506Y027184D01*X00431Y027465D01*X004206Y027422D02*X004166Y027544D01*
X004146Y02765D01*X004156Y027757D01*X004194Y027857D01*X004257Y027945D01*
X004341Y028012D01*X00444Y028054D01*X004477Y028064D01*X004592Y028061D01*
X004702Y028026D01*X004797Y027961D01*X00487Y027871D01*X005103Y027476D01*
X005147Y027369D01*X005159Y027254D01*X005137Y02714D01*X005083Y027037D01*
X005002Y026954D01*X004979Y026937D01*X004886Y026884D01*
X004782Y026857D01*X004674Y02686D01*X004572Y02689D01*X004481Y026947D01*
X004408Y027026D01*X004213Y027307D01*X005039Y026536D02*X005069Y02728D01*
X004904Y027155D01*X004675Y026089D01*X004754Y025823D01*
X004998Y026453D01*X004963Y026463D02*X004993Y027207D01*
X004828Y027082D01*X004599Y026015D01*X004678Y02575D01*X004922Y02638D01*
X004301Y025908D02*X004402Y025987D01*X004494Y026041D01*
X004598Y026069D01*X004706Y026068D01*X004809Y026038D01*
X004901Y025982D01*X004975Y025904D01*X004997Y025873D01*
X005034Y025763D01*X005038Y025648D01*X005009Y025536D01*X00495Y025437D01*
X004659Y025082D01*X004573Y025004D01*X004469Y024954D01*
X004354Y024936D01*X004239Y024952D01*X004134Y024999D01*X00411Y025015D01*
X004028Y025084D01*X003967Y025173D01*X003933Y025275D01*
X003926Y025382D01*X003949Y025487D01*X003998Y025582D01*
X004195Y025862D01*X004119Y025946D02*X00422Y026025D01*X004313Y026079D01*
X004417Y026107D01*X004525Y026106D01*X004628Y026076D01*X00472Y02602D01*
X004793Y025942D01*X004815Y025911D01*X004852Y025801D01*
X004857Y025686D01*X004828Y025574D01*X004768Y025475D01*X004477Y02512D01*
X004392Y025042D01*X004287Y024992D01*X004173Y024974D01*X004058Y02499D01*
X003952Y025037D01*X003928Y025053D01*X003846Y025122D01*
X003786Y025211D01*X003751Y025313D01*X003745Y02542D01*X003767Y025525D01*
X003817Y02562D01*X004014Y0259D01*X003572Y02486D02*X004281Y025086D01*
X004108Y025198D01*X003027Y025049D01*X002805Y024884D01*X00348Y02487D01*
X003477Y024906D02*X004186Y025132D01*X004012Y025245D01*
X002932Y025095D01*X00271Y02493D01*X003385Y024916D01*X002368Y024814D02*
X003111Y024771D01*X002989Y024938D01*X001927Y025186D01*X00166Y025111D01*
X002286Y024856D01*X002296Y024891D02*X003039Y024848D01*
X002917Y025015D01*X001855Y025263D01*X001588Y025189D01*
X002213Y024934D01*X003674Y023941D02*X003667Y024489D01*
X003646Y024681D01*X003589Y024865D01*X003497Y025035D01*
X003417Y025132D01*X003322Y025228D01*X003231Y025302D01*
X003119Y025377D01*X002995Y02543D01*X002966Y025436D01*X002918Y025444D01*
X002845Y025454D01*X002747Y025453D01*X002693Y025449D01*
X002586Y025424D01*X002506Y025399D01*X00244Y02537D01*X002322Y025285D01*
X002223Y025178D01*X002149Y025052D01*X002103Y024914D01*
X002086Y024769D01*X002076Y023868D01*X003876Y023967D02*
X003869Y024515D01*X003849Y024707D01*X003791Y024891D01*
X003699Y025061D01*X00362Y025158D01*X003524Y025253D01*X003434Y025328D01*
X003322Y025403D01*X003197Y025456D01*X003168Y025462D01*X00312Y02547D01*
X003047Y02548D01*X00295Y025479D01*X002895Y025475D01*X002789Y02545D01*
X002709Y025425D01*X002643Y025396D01*X002524Y025311D01*
X002426Y025203D01*X002352Y025078D01*X002305Y02494D01*X002289Y024795D01*
X002278Y023894D01*X001616Y02389D02*X004266Y023945D01*X004248Y023981D02*
Y022365D01*X001598Y022311D01*X001616Y022274D02*X001598Y023836D01*
X002705Y022746D02*X002832Y022928D01*X002705Y023345D01*
X002669Y023364D02*X002868Y023509D01*X002886D02*X003068Y023527D01*
X003286Y023418D01*X003268D02*X003141Y022928D01*X003286Y022746D01*
Y022728D02*X002669Y02271D01*X004139Y023945D02*Y022329D01*
X001489Y022274D01*X001507Y023854D02*X004157Y023908D01*
X001507Y022238D02*X001489Y023799D01*D11*X015994Y018576D02*
X015898Y018607D01*X015833Y018734D01*X015865Y01883D01*X015928Y018863D01*
X016024Y018832D01*X016249Y018705D01*X016313Y018738D01*
X016183Y018992D01*X016069Y019215D02*X016053Y019247D01*
X016021Y019231D01*X016038Y019199D01*X016069Y019215D01*
X015605Y019339D02*X015509Y019371D01*X015444Y019498D01*
X015475Y019594D01*X015539Y019626D01*X015635Y019595D01*X01586Y019469D01*
X015923Y019502D01*X015794Y019756D01*X015668Y020003D02*
X015493Y019914D01*X015384Y019933D01*X015432Y020033D01*
X015607Y020122D01*X015554Y019794D02*X015444Y019813D01*
X015493Y019913D01*X015442Y019738D02*X015729Y019883D01*
X017086Y019271D02*X016999Y019321D01*X016962Y019459D01*
X017012Y019547D01*X017081Y019565D01*X017169Y019515D01*
X017362Y019345D01*X017431Y019363D01*X017357Y019639D01*
X017292Y019881D02*X017283Y019915D01*X017249Y019906D01*
X017258Y019872D01*X017292Y019881D01*X016864Y020099D02*
X016777Y020149D01*X01674Y020287D01*X01679Y020375D01*X016859Y020393D01*
X016947Y020343D01*X01714Y020173D01*X017209Y020191D01*X017135Y020467D01*
X017064Y020735D02*X016874Y020684D01*X016771Y020725D01*
X016839Y020813D01*X017029Y020864D01*X016909Y020554D02*
X016806Y020596D01*X016874Y020684D01*X016788Y020522D02*
X017098Y020605D01*X02Y009409D02*X020418Y009312D01*X020222Y009577D01*
X020158Y009299D01*X02037Y009104D02*X020305Y008825D01*X019936Y00913D01*
X020265Y008651D02*X019848Y008748D01*X019952Y008724D02*
X020113Y008467D01*X019799Y008539D02*X019992Y008659D01*
X022066Y012349D02*X022076Y012296D01*X021825Y012071D01*
X021834Y012018D01*X022116Y012068D02*X021785Y012299D01*
X025599Y002641D02*X02571Y002227D01*X025852Y002524D01*X025576Y00245D01*
X025288Y002558D02*X025254Y002549D01*X025263Y002514D01*
X025298Y002524D01*X025288Y002558D01*X025089Y002061D02*
X024813Y001987D01*X024909Y002456D01*X02464Y001941D02*X02453Y002355D01*
X024557Y002251D02*X024406Y001989D01*X024323Y002299D02*
X024519Y002186D01*X026269Y003832D02*X026218Y003744D01*X02608Y003707D01*
X025993Y003758D01*X025974Y003827D01*X026025Y003914D01*
X026195Y004108D01*X026176Y004177D01*X0259Y004103D01*X025855Y003721D02*
X025804Y003634D01*X025666Y003597D01*X025579Y003647D01*X02556Y003716D01*
X025611Y003804D01*X025781Y003997D01*X025762Y004066D01*
X025486Y003992D01*X025165Y003536D02*X025252Y003486D01*X02539Y003523D01*
X025441Y00361D01*X025367Y003886D01*X025279Y003937D01*X025141Y0039D01*
X025091Y003812D01*X025165Y003536D01*X025284Y003642D02*X025247Y00378D01*
X025011Y003421D02*X0249Y003835D01*X024927Y003731D02*X024776Y003469D01*
X024693Y003779D02*X02489Y003666D01*X032244Y003481D02*X032182Y003401D01*
X03213Y003827D01*X032059Y003818D01*X03213Y003827D02*X032201Y003836D01*
X031606Y003403D02*X031686Y00334D01*X031827Y003358D01*X03189Y003438D01*
X031855Y003721D01*X031775Y003783D01*X031633Y003766D01*
X031571Y003686D01*X031606Y003403D01*X031739Y003491D02*
X031722Y003633D01*X031437Y00331D02*X031385Y003735D01*X031398Y003629D02*
X031212Y00339D01*X031173Y003709D02*X031352Y003569D01*X029128Y006415D02*
X028756Y006629D01*X028866Y006319D01*X029009Y006566D01*
X028864Y006815D02*X029006Y007062D01*X02927Y006662D01*X029096Y007217D02*
X029467Y007003D01*X029374Y007056D02*X029296Y007349D01*
X029574Y007188D02*X029355Y007129D01*X02504Y013859D02*X025241Y014238D01*
X024934Y014117D01*X025186Y013983D01*X02543Y014137D02*X025682Y014003D01*
X025292Y013725D01*X02584Y013919D02*X025639Y013541D01*X025689Y013635D02*
X025979Y013724D01*X025828Y01344D02*X025761Y013657D01*X024023Y012988D02*
X024326Y013291D01*X023998Y013265D01*X0242Y013063D01*X024478Y013139D02*
X02468Y012937D01*X024225Y012786D01*X024806Y012811D02*X024503Y012508D01*
X024579Y012584D02*X024882Y012584D01*X024654Y012356D02*Y012584D01*
X018727Y016136D02*X018299Y016158D01*X018538Y015931D01*
X018553Y016217D01*X018744Y016457D02*X018746Y016493D01*X01871Y016494D01*
X018709Y016459D01*X018744Y016457D01*X018333Y0168D02*X018348Y017086D01*
X018765Y016849D01*X018357Y017264D02*X018785Y017241D01*
X018678Y017247D02*X018476Y017472D01*X018797Y017455D02*
X018628Y017303D01*X020469Y012285D02*X020409Y012367D01*
X020432Y012508D01*X020513Y012567D01*X020584Y012556D01*
X020643Y012474D01*X020751Y012241D01*X020822Y012229D01*
X020866Y012512D01*X020536Y012708D02*X020476Y01279D01*X020499Y012931D01*
X020581Y012991D01*X020651Y01298D01*X02071Y012898D01*X020818Y012664D01*
X020889Y012653D01*X020933Y012935D01*X020648Y013414D02*
X020566Y013355D01*X020543Y013214D01*X020603Y013132D01*
X020885Y013087D01*X020967Y013146D01*X020989Y013288D01*X02093Y013369D01*
X020648Y013414D01*X020696Y013262D02*X020837Y013239D01*
X020605Y013602D02*X021028Y013534D01*X020922Y013551D02*
X020744Y013796D01*X021062Y013746D02*X020878Y013613D01*
X016989Y026925D02*X016917Y026996D01*Y027139D01*X016989Y027211D01*
X01706D01*X017132Y027139D01*X017275Y026925D01*X017346D01*Y027211D01*
Y027461D02*Y027496D01*X01731D01*Y027461D01*X017346D01*
X016989Y027782D02*X016917Y027854D01*Y027996D01*X016989Y028068D01*
X01706D01*X017132Y027996D01*X017275Y027782D01*X017346D01*Y028068D01*
Y028345D02*X01715D01*X017061Y028411D01*X01715Y028479D01*X017346D01*
X01715Y028211D02*X017061Y028277D01*X01715Y028344D01*X017025Y028211D02*
X017346D01*X021492Y019933D02*X021413Y019997D01*X021839Y020042D01*
X021832Y020113D01*X021839Y020042D02*X021847Y019971D01*
X021424Y020573D02*X021361Y020494D01*X021376Y020352D01*
X021454Y020289D01*X021738Y020319D01*X021802Y020397D01*
X021787Y020539D01*X021709Y020603D01*X021424Y020573D01*X02151Y020438D02*
X021653Y020453D01*X02138Y020999D02*X021316Y020921D01*X021331Y020778D01*
X02141Y020715D01*X021694Y020745D01*X021757Y020823D01*X021742Y020965D01*
X021664Y021029D01*X02138Y020999D01*X021466Y020864D02*X021608Y020879D01*
X02129Y021169D02*X021716Y021214D01*X02161Y021203D02*X021374Y021393D01*
X021694Y021427D02*X021551Y02125D01*X023051Y020717D02*X022623Y020694D01*
X022884Y020494D01*X022869Y020779D01*X023034Y021038D02*
X023033Y021073D01*X022997Y021072D01*X022999Y021036D01*
X023034Y021038D01*X02259Y021336D02*X022575Y021622D01*X023014Y02143D01*
X022565Y0218D02*X022993Y021822D01*X022886Y021817D02*X022661Y02202D01*
X022982Y022036D02*X02283Y021868D01*X024754Y018051D02*X024651Y017635D01*
X024919Y017825D01*X024642Y017895D01*X024443Y017687D02*
X024166Y017756D01*X024477Y01812D01*X023992Y017799D02*X024096Y018215D01*
X02407Y018111D02*X02381Y017955D01*X023888Y018267D02*X024005Y018072D01*
X03459Y016469D02*X034363Y016105D01*X034677Y016204D01*X034435Y016355D01*
X034181Y016219D02*X033939Y01637D01*X034348Y01662D01*X033787Y016465D02*
X034015Y016828D01*X033958Y016737D02*X033662Y016669D01*
X033833Y016942D02*X033884Y01672D01*X025823Y016406D02*X02572Y01599D01*
X025988Y016181D01*X025711Y01625D01*X025512Y016042D02*X025235Y016111D01*
X025546Y016475D01*X025061Y016154D02*X025165Y01657D01*X025139Y016466D02*
X024879Y01631D01*X024957Y016622D02*X025074Y016427D01*X032107Y011658D02*
X031799Y011955D01*X03183Y011627D01*X032028Y011833D01*X031948Y012109D02*
X032146Y012315D01*X032305Y011863D01*X03227Y012443D02*X032578Y012146D01*
X032501Y01222D02*X032496Y012523D01*X032727Y0123D02*X0325Y012296D01*
X031794Y015979D02*X031718Y016045D01*X032145Y016075D01*X03214Y016147D01*
X032145Y016075D02*X03215Y016004D01*X031749Y01662D02*X031683Y016544D01*
X031693Y016402D01*X031769Y016335D01*X032054Y016355D01*X03212Y016432D01*
X03211Y016574D01*X032034Y01664D01*X031749Y01662D01*X03183Y016483D02*
X031973Y016493D01*X031665Y016794D02*X032093Y016824D01*
X031986Y016816D02*X031757Y017015D01*X032078Y017037D02*
X031929Y016866D01*X026489Y017987D02*X026402Y018039D01*
X026818Y018142D01*X026801Y018212D01*X026818Y018142D02*
X026836Y018073D01*X026334Y01861D02*X026281Y018524D01*X026316Y018385D01*
X026403Y018333D01*X02668Y018402D01*X026732Y018489D01*X026697Y018628D01*
X026611Y01868D01*X026334Y01861D01*X026437Y018489D02*X026576Y018524D01*
X026221Y018766D02*X026637Y01887D01*X026533Y018844D02*X026273Y019D01*
X026585Y019078D02*X026468Y018883D01*X018897Y028128D02*
X018944Y028039D01*X018535Y028164D01*X018514Y028096D01*
X018535Y028164D02*X018555Y028232D01*X018709Y027513D02*
X018798Y027561D01*X01884Y027697D01*X018793Y027786D01*X018519Y02787D01*
X01843Y027823D01*X018388Y027686D01*X018436Y027597D01*X018709Y027513D01*
X018682Y027671D02*X018546Y027712D01*X018584Y027103D02*
X018673Y027151D01*X018715Y027287D01*X018667Y027377D01*X018394Y02746D01*
X018305Y027413D01*X018263Y027276D01*X01831Y027187D01*X018584Y027103D01*
X018557Y027261D02*X018421Y027303D01*X0186Y026912D02*X01819Y027037D01*
X018292Y027006D02*X018435Y026738D01*X018127Y026832D02*
X018328Y026939D01*X023115Y025385D02*X023055Y024961D01*
X023302Y025178D01*X023019Y025218D01*X022796Y02543D02*X022761Y025435D01*
X022756Y025399D01*X022791Y025394D01*X022796Y02543D01*X022418Y02505D02*
X022135Y02509D01*X022407Y025484D01*X021959Y025115D02*X022018Y025539D01*
X022003Y025433D02*X021761Y025251D01*X021806Y025569D02*
X021943Y025387D01*X031415Y008622D02*X031007Y008754D01*
X031179Y008473D01*X031267Y008745D01*X031074Y008958D02*X031162Y00923D01*
X031503Y008894D01*X031217Y0094D02*X031625Y009267D01*X031523Y0093D02*
X031385Y00957D01*X031691Y009471D02*X031488Y009368D01*X033665Y007303D02*
X033639Y0074D01*X03371Y007524D01*X033808Y00755D01*X033869Y007514D01*
X033896Y007417D01*X033912Y00716D01*X033974Y007124D01*X034117Y007372D01*
X033879Y007674D02*X033853Y007771D01*X033924Y007895D01*
X034022Y007921D01*X034084Y007886D01*X03411Y007788D01*X034126Y007531D01*
X034188Y007495D01*X034331Y007743D01*X034049Y008112D02*X03442Y007897D01*
X034328Y007951D02*X034249Y008244D01*X034528Y008083D02*
X034308Y008024D01*X033848Y011282D02*X03347Y011483D01*X03359Y011177D01*
X033724Y011429D01*X033999Y011566D02*X034016Y011597D01*
X033984Y011614D01*X033968Y011583D01*X033999Y011566D01*
X033772Y012051D02*X033906Y012303D01*X034184Y011913D01*X03399Y012461D02*
X034368Y01226D01*X034273Y01231D02*X034185Y0126D01*X034469Y012449D02*
X034251Y012382D01*X033785Y014472D02*X033738Y014382D01*
X033601Y014341D01*X033512Y014388D01*X033491Y014456D01*
X033539Y014546D01*X033702Y014745D01*X033681Y014813D01*X033408Y01473D01*
X033376Y014346D02*X033328Y014257D01*X033191Y014215D01*
X033102Y014263D01*X033081Y014331D01*X033129Y01442D01*X033292Y014619D01*
X033271Y014688D01*X032998Y014604D01*X032952Y014142D02*
X032827Y014552D01*X032858Y01445D02*X032716Y014182D01*X032622Y014489D02*
X032823Y014383D01*X02444Y02626D02*X024511Y026331D01*X024654D01*
X024726Y02626D01*Y026188D01*X024654Y026117D01*X02444Y025974D01*
Y025902D01*X024726D01*X024868Y02626D02*X02494Y026331D01*X025083D01*
X025154Y02626D01*Y026188D01*X025083Y026117D01*X024868Y025974D01*
Y025902D01*X025154D01*X025333Y026331D02*Y025902D01*Y02601D02*
X025547Y026224D01*Y025902D02*X025386Y026063D01*X031094Y025626D02*
X031182Y025677D01*X03132Y02564D01*X03137Y025552D01*X031352Y025483D01*
X031264Y025433D01*X03102Y02535D01*X031002Y025281D01*X031278Y025207D01*
X031508Y025515D02*X031596Y025566D01*X031734Y025529D01*
X031784Y025441D01*X031766Y025372D01*X031678Y025322D01*
X031434Y025239D01*X031416Y02517D01*X031692Y025096D01*X031975Y025464D02*
X031864Y02505D01*X031892Y025153D02*X032154Y025305D01*X032071Y024994D02*
X031958Y025191D01*X023939Y023749D02*X024026Y0238D01*X024164Y023763D01*
X024215Y023675D01*X024196Y023606D01*X024109Y023556D01*
X023865Y023473D01*X023846Y023404D01*X024122Y02333D01*X024353Y023638D02*
X02444Y023689D01*X024578Y023652D01*X024629Y023565D01*X02461Y023496D01*
X024523Y023445D01*X024279Y023363D01*X02426Y023294D01*X024536Y02322D01*
X02482Y023587D02*X024709Y023173D01*X024736Y023277D02*X024999Y023428D01*
X024916Y023118D02*X024802Y023315D01*X035955Y013436D02*
X035541Y013547D01*X035727Y013275D01*X035801Y013551D01*
X036038Y013747D02*X036048Y013781D01*X036013Y01379D01*X036004Y013756D01*
X036038Y013747D01*X035708Y014168D02*X035782Y014444D01*X03614Y014126D01*
X035828Y014616D02*X036242Y014506D01*X036138Y014533D02*
X035987Y014796D01*X036297Y014713D02*X0361Y014599D01*X036863Y02341D02*
X03701Y023007D01*X037126Y023315D01*X036857Y023218D01*X036809Y022934D02*
X03654Y022836D01*X036595Y023312D01*X036372Y022775D02*X036226Y023178D01*
X036262Y023077D02*X036134Y022802D01*X036024Y023104D02*X03623Y023008D01*
X036224Y019611D02*X035972Y019264D01*X036292Y01934D01*X036061Y019508D01*
X035798Y01939D02*X035567Y019558D01*X035993Y019778D01*X035423Y019663D02*
X035675Y020009D01*X035612Y019923D02*X035312Y019875D01*
X035501Y020135D02*X035537Y019911D01*X031061Y005911D02*
X031159Y005937D01*X031283Y005866D01*X031309Y005768D01*
X031273Y005706D01*X031176Y00568D01*X030919Y005663D01*X030883Y005602D01*
X03113Y005459D01*X031433Y005697D02*X03153Y005723D01*X031654Y005651D01*
X03168Y005554D01*X031644Y005492D01*X031547Y005466D01*X03129Y005449D01*
X031254Y005387D01*X031501Y005244D01*X032051Y005339D02*
X032025Y005437D01*X031901Y005508D01*X031804Y005482D01*
X031661Y005235D01*X031687Y005137D01*X031811Y005066D01*
X031908Y005092D01*X032051Y005339D01*X031892Y005349D02*X03182Y005225D01*
X032242Y005312D02*X032027Y004941D01*X032081Y005034D02*
X032374Y005112D01*X032213Y004834D02*X032154Y005053D01*
X018709Y005518D02*X01878Y00559D01*Y005733D01*X018709Y005804D01*
X018423D01*X018352Y005733D01*Y00559D01*X018423Y005518D01*X018709D01*
X018637Y005661D02*X018494D01*X028791Y01116D02*X028892D01*
X028993Y011261D01*Y011362D01*X028791Y011564D01*X02869D01*
X028589Y011463D01*Y011362D01*X028791Y01116D01*X028841Y011311D02*
X02874Y011412D01*X028488Y010857D02*X028589Y010857D01*X02869Y010958D01*
Y011059D01*X028488Y011261D01*X028387D01*X028286Y01116D01*
X028286Y011059D01*X028361Y010983D01*X028462Y010983D01*
X028563Y011084D01*Y011185D01*X027983Y010857D02*X028286Y010554D01*
X02826Y010882D01*X028058Y01068D01*X014909Y024532D02*X014798Y024118D01*
X01507Y024304D01*X014794Y024378D01*X014334Y024317D02*X014384Y024229D01*
X014522Y024192D01*X01461Y024243D01*X014684Y024519D01*X014633Y024606D01*
X014495Y024643D01*X014408Y024593D01*X014334Y024317D01*X01449Y024349D02*
X014527Y024487D01*X014127Y024372D02*X014039Y024322D01*X01415Y024736D01*
X014081Y024754D01*X01415Y024736D02*X014219Y024717D01*X013782Y024465D02*
X013694Y024414D01*X013556Y024451D01*X013506Y024539D01*
X013524Y024608D01*X013612Y024658D01*X013561Y024746D01*X01358Y024815D01*
X013667Y024865D01*X013805Y024828D01*X013856Y024741D01*
X013612Y024658D02*X013681Y02464D01*X012073Y006557D02*X012047Y006459D01*
X012119Y006336D01*X012216Y006309D01*X012464Y006452D01*X01249Y00655D01*
X012418Y006674D01*X012321Y0067D01*X012073Y006557D01*X012207Y006469D02*
X01233Y00654D01*X011859Y006928D02*X011833Y00683D01*X011904Y006707D01*
X012002Y006681D01*X012249Y006823D01*X012276Y006921D01*
X012204Y007045D01*X012107Y007071D01*X012014Y007017D01*X011988Y00692D01*
X012059Y006796D01*X012157Y00677D01*X01199Y007416D02*X011619Y007202D01*
X011942Y007141D01*X011799Y007388D01*X038702Y02468D02*X038621Y024619D01*
X03848Y024639D01*X038419Y02472D01*X038429Y024791D01*X038509Y024852D01*
X038742Y024963D01*X038751Y025034D01*X038469Y025074D01*X038277Y02474D02*
X038197Y024679D01*X038055Y024699D01*X037994Y02478D01*X038004Y02485D01*
X038085Y024911D01*X038317Y025023D01*X038327Y025094D01*
X038044Y025133D01*X03757Y024839D02*X037631Y024759D01*X037772Y024739D01*
X037853Y0248D01*X037893Y025082D01*X037832Y025163D01*X03769Y025183D01*
X03761Y025122D01*X03757Y024839D01*X037721Y02489D02*X037741Y025032D01*
X037383Y024793D02*X037443Y025218D01*X037428Y025112D02*
X037186Y024929D01*X037231Y025248D02*X037367Y025066D01*X03041Y024499D02*
X030497Y024549D01*X030635Y024512D01*X030686Y024425D01*
X030667Y024356D01*X03058Y024305D01*X030336Y024223D01*X030317Y024154D01*
X030593Y02408D01*X030835Y024015D02*X030869Y024006D01*X030879Y02404D01*
X030844Y02405D01*X030835Y024015D01*X031238Y024277D02*X031325Y024328D01*
X031463Y024291D01*X031514Y024203D01*X031495Y024134D01*
X031408Y024084D01*X031164Y024001D01*X031145Y023932D01*
X031421Y023858D01*X031689Y023786D02*X03174Y023976D01*X031827Y024045D01*
X031869Y023942D01*X031818Y023752D01*X03161Y024011D02*X031698Y024079D01*
X031739Y023976D01*X031643Y024132D02*X031559Y023821D01*
X037157Y027728D02*X036943Y028099D01*X036882Y027775D01*X03713Y027918D01*
X037436Y027889D02*X037466Y027907D01*X037449Y027937D01*X037418Y02792D01*
X037436Y027889D01*X0375Y028421D02*X037747Y028563D01*X037776Y028085D01*
X037902Y028653D02*X038116Y028282D01*X038062Y028374D02*
X038141Y028667D01*X038302Y028389D02*X038082Y028447D01*
X029097Y014479D02*X029026Y01455D01*X029454D01*Y014621D01*Y01455D02*
Y014479D01*X029097Y014836D02*X029026Y014907D01*Y01505D01*
X029097Y015121D01*X029169D01*X02924Y01505D01*X029311Y015121D01*
X029383D01*X029454Y01505D01*Y014907D01*X029383Y014836D01*
X02924Y01505D02*Y014979D01*X029026Y015264D02*Y01555D01*
X029454Y015336D01*X029097Y015979D02*X029026Y015907D01*Y015764D01*
X029097Y015693D01*X029383D01*X029454Y015764D01*Y015907D01*
X029383Y015979D01*X029097D01*X029169Y015836D02*X029311D01*
X029097Y016407D02*X029026Y016336D01*Y016193D01*X029097Y016121D01*
X029383D01*X029454Y016193D01*Y016336D01*X029383Y016407D01*X029097D01*
X029169Y016264D02*X029311D01*X036325Y009213D02*X036374Y009125D01*
X036335Y008988D01*X036246Y008939D01*X036178Y008959D01*
X036129Y009047D01*X03605Y009292D01*X035982Y009312D01*X035903Y009037D01*
X036207Y008801D02*X036256Y008713D01*X036216Y008576D01*
X036128Y008527D01*X036059Y008547D01*X036011Y008635D01*X035932Y00888D01*
X035864Y0089D01*X035785Y008625D01*X036148Y008336D02*X035736Y008454D01*
X035839Y008424D02*X035986Y008159D01*X035677Y008248D02*
X035875Y008358D01*X011606Y016937D02*X011668Y016858D01*X01165Y016716D01*
X011571Y016654D01*X0115Y016662D01*X011438Y016742D01*X011322Y016972D01*
X011251Y016981D01*X011216Y016697D01*X011553Y016512D02*
X011616Y016432D01*X011598Y01629D01*X011519Y016228D01*X011448Y016237D01*
X011386Y016316D01*X01127Y016547D01*X011199Y016555D01*X011164Y016272D01*
X011568Y016042D02*X011142Y016094D01*X011249Y016081D02*
X011435Y015843D01*X011116Y015882D02*X011295Y016022D01*
X007965Y020956D02*X008052Y021007D01*X00819Y02097D01*X008241Y020882D01*
X008222Y020813D01*X008135Y020763D01*X007891Y02068D01*X007872Y020611D01*
X008148Y020537D01*X008379Y020845D02*X008466Y020896D01*
X008604Y020859D01*X008655Y020771D01*X008636Y020702D01*
X008549Y020652D01*X008305Y020569D01*X008286Y0205D01*X008562Y020426D01*
X008846Y020794D02*X008735Y02038D01*X008763Y020483D02*X009025Y020635D01*
X008942Y020325D02*X008828Y020521D01*X013029Y019084D02*X012928D01*
X012827Y019185D01*Y019286D01*X012877Y019337D01*X012978Y019337D01*
X013231Y019286D01*X013281Y019337D01*X013079Y019539D01*
X012726Y019387D02*X012625D01*X012524Y019488D01*X012524Y019589D01*
X012574Y01964D01*X012675D01*X012928Y019589D01*X012978Y01964D01*
X012776Y019842D01*X012347Y019665D02*X01265Y019968D01*X012574Y019892D02*
X012271Y019892D01*X012499Y020119D02*Y019892D01*X008007Y015326D02*
X008107Y015312D01*X008193Y015198D01*X008179Y015098D01*
X008122Y015055D01*X008022Y015069D01*X007778Y015154D01*
X007721Y015111D01*X007893Y014883D01*X008265Y014984D02*X008365Y01497D01*
X008451Y014855D01*X008437Y014755D01*X008379Y014712D01*
X008279Y014726D01*X008036Y014812D01*X007979Y014769D01*X008151Y01454D01*
X008601Y014656D02*X008259Y014398D01*X008344Y014462D02*X008644Y01442D01*
X008388Y014227D02*X008419Y014452D01*X005869Y013998D02*
X005969Y013984D01*X006055Y01387D01*X006041Y013769D01*X005984Y013727D01*
X005884Y013741D01*X005641Y013826D01*X005584Y013783D01*
X005756Y013555D01*X006127Y013655D02*X006227Y013641D01*
X006313Y013527D01*X006299Y013427D01*X006242Y013384D01*
X006142Y013398D01*X005899Y013483D01*X005842Y01344D01*X006014Y013212D01*
X006557Y013085D02*X006571Y013185D01*X006485Y013299D01*
X006385Y013313D01*X006157Y013141D01*X006143Y013041D01*
X006229Y012927D01*X006329Y012913D01*X006557Y013085D01*
X006414Y013156D02*X0063Y01307D01*X006721Y012985D02*X006379Y012727D01*
X006465Y012792D02*X006765Y01275D01*X006508Y012556D02*X00654Y012781D01*
X005581Y01911D02*X005641Y01903D01*X005217Y019089D01*X005207Y019019D01*
X005217Y019089D02*X005227Y01916D01*X005491Y018474D02*X005572Y018535D01*
X005592Y018676D01*X005531Y018757D01*X005248Y018796D01*
X005167Y018736D01*X005147Y018594D01*X005208Y018514D01*
X005491Y018474D01*X00544Y018625D02*X005299Y018645D01*X005099Y018249D02*
X005294Y018222D01*X005372Y018144D01*X005275Y018089D01*X00508Y018117D01*
X005312Y018355D02*X005391Y018276D01*X005293Y018222D01*
X005436Y018337D02*X005118Y018382D01*X004612Y005793D02*
X004466Y006195D01*X00435Y005887D01*X004618Y005985D01*X004667Y006269D02*
X004936Y006366D01*X004881Y00589D01*X005103Y006428D02*X00525Y006025D01*
X005213Y006125D02*X005341Y0064D01*X005451Y006098D02*X005245Y006194D01*
X016702Y001665D02*X016695Y001236D01*X016913Y001483D01*
X016627Y001488D01*X016381Y001671D02*X016345Y001671D01*
X016344Y001635D01*X01638Y001635D01*X016381Y001671D01*X016052Y001248D02*
X015766Y001253D01*X015988Y001677D01*X015588Y001256D02*
X015595Y001684D01*X015593Y001577D02*X015375Y001367D01*
X015381Y001688D02*X015539Y001524D01*X016964Y002551D02*
X016892Y002481D01*X016749Y002483D01*X016679Y002556D01*X01668Y002627D01*
X016752Y002697D01*X016969Y002837D01*X01697Y002908D01*X016685Y002913D01*
X016536Y002558D02*X016463Y002488D01*X01632Y002491D01*X01625Y002563D01*
X016251Y002635D01*X016324Y002705D01*X016541Y002844D01*
X016542Y002915D01*X016256Y00292D01*X015822Y002571D02*X015892Y002498D01*
X016035Y002496D01*X016107Y002566D01*X016112Y002852D01*
X016042Y002924D01*X015899Y002927D01*X015827Y002857D01*
X015822Y002571D01*X015966Y00264D02*X015968Y002783D01*X015642Y002503D02*
X015649Y002931D01*X015647Y002824D02*X015429Y002613D01*
X015435Y002935D02*X015593Y002771D01*X002129Y007336D02*
X001989Y007741D01*X001868Y007435D01*X002138Y007528D01*
X002192Y007811D02*X002462Y007904D01*X002399Y007429D01*X00289Y007976D02*
X0028Y008021D01*X002665Y007974D01*X00262Y007883D01*X002713Y007613D01*
X002804Y007569D01*X002939Y007615D01*X002984Y007706D01*X00289Y007976D01*
X002779Y007862D02*X002825Y007727D01*X003036Y008102D02*
X003176Y007697D01*X003141Y007798D02*X003274Y00807D01*X003378Y007766D02*
X003174Y007866D01*X009669Y003013D02*X009604Y003091D01*
X010031Y003053D01*X010037Y003124D01*X010031Y003053D02*
X010025Y002982D01*X009725Y003654D02*X009647Y003589D01*
X009635Y003446D01*X0097Y003369D01*X009985Y003344D01*X010062Y003409D01*
X010074Y003551D01*X010009Y003629D01*X009725Y003654D01*
X009784Y003505D02*X009926Y003493D01*X009669Y003838D02*X010096Y0038D01*
X009989Y00381D02*X009795Y004042D01*X010115Y004014D02*X009941Y003868D01*
X015082Y005091D02*X015017Y005014D01*X014875Y005002D01*
X014797Y005066D01*X014791Y005138D01*X014856Y005215D01*
X015057Y005376D01*X015051Y005447D01*X014766Y005422D01*
X014655Y005054D02*X01459Y004977D01*X014448Y004964D01*X01437Y005029D01*
X014364Y0051D01*X014429Y005178D01*X01463Y005339D01*X014624Y00541D01*
X014339Y005385D01*X014199Y004942D02*X014161Y005369D01*
X014171Y005263D02*X013976Y00503D01*X013948Y005351D02*X014122Y005205D01*
X003877Y010065D02*X003814Y010145D01*X003832Y010286D01*
X003911Y010349D01*X003982Y01034D01*X004044Y01026D01*X00416Y01003D01*
X004231Y010021D01*X004266Y010305D01*X003929Y01049D02*X003867Y01057D01*
X003884Y010712D01*X003964Y010774D01*X004035Y010765D01*
X004097Y010686D01*X004212Y010456D01*X004283Y010447D01*X004318Y01073D01*
X003915Y01096D02*X00434Y010908D01*X004234Y010921D02*X004047Y01116D01*
X004366Y01112D02*X004187Y01098D01*X002584Y005603D02*X002636Y005516D01*
X00222Y00562D01*X002203Y005551D01*X00222Y00562D02*X002238Y005689D01*
X002429Y004979D02*X002515Y005031D01*X00255Y00517D01*X002498Y005256D01*
X00222Y005326D01*X002134Y005274D01*X002099Y005135D01*X002151Y005048D01*
X002429Y004979D01*X002394Y005135D02*X002255Y00517D01*X002455Y004789D02*
X002039Y004892D01*X002143Y004866D02*X002299Y004607D01*
X001987Y004684D02*X002182Y004801D01*X002259Y010887D02*
X002158Y010882D01*X002052Y010977D01*X002047Y011078D01*
X002095Y011131D01*X002195Y011136D01*X00245Y011099D01*X002498Y011152D01*
X002286Y011343D01*X001941Y011174D02*X00184Y011168D01*X001734Y011264D01*
X001728Y011365D01*X001776Y011418D01*X001877Y011423D01*
X002132Y011386D01*X00218Y011439D01*X001967Y01163D01*X001548Y011431D02*
X001835Y01175D01*X001763Y01167D02*X00146Y011654D01*X001675Y011893D02*
X001687Y011666D01*X007692Y013251D02*X007593Y013269D01*
X007511Y013386D01*X007528Y013485D01*X007587Y013526D01*
X007686Y013509D01*X007926Y013415D01*X007985Y013456D01*X007821Y01369D01*
X007446Y013602D02*X007347Y01362D01*X007265Y013737D01*X007282Y013836D01*
X007341Y013877D01*X00744Y01386D01*X00768Y013766D01*X007739Y013807D01*
X007575Y014041D01*X007122Y013942D02*X007473Y014188D01*
X007385Y014126D02*X007086Y014179D01*X00735Y014363D02*X00731Y014139D01*
X004945Y008171D02*X004883Y00825D01*X005309Y008198D01*X005317Y008269D01*
X005309Y008198D02*X0053Y008127D01*X005024Y008809D02*X004944Y008746D01*
X004927Y008605D01*X004989Y008525D01*X005272Y00849D01*X005352Y008552D01*
X005369Y008694D01*X005307Y008774D01*X005024Y008809D01*
X005077Y008658D02*X005219Y008641D01*X004975Y008995D02*X0054Y008942D01*
X005294Y008955D02*X005107Y009194D01*X005426Y009155D02*
X005247Y009015D01*X006948Y00981D02*X006848Y009824D01*X006762Y009938D01*
X006776Y010038D01*X006833Y010081D01*X006933Y010067D01*
X007176Y009982D01*X007233Y010025D01*X007061Y010253D01*X00669Y010152D02*
X00659Y010166D01*X006504Y010281D01*X006518Y010381D01*X006575Y010424D01*
X006675Y01041D01*X006918Y010324D01*X006975Y010367D01*X006803Y010596D01*
X006354Y01048D02*X006696Y010738D01*X00661Y010674D02*X00631Y010716D01*
X006567Y010909D02*X006535Y010684D01*X009153Y015882D02*
X009253Y015868D01*X00891Y01561D01*X008953Y015553D01*X00891Y01561D02*
X008867Y015667D01*X009539Y015368D02*X009554Y015468D01*
X009468Y015582D01*X009368Y015596D01*X009139Y015424D01*
X009125Y015324D01*X009211Y01521D01*X009311Y015196D01*X009539Y015368D01*
X009396Y015439D02*X009282Y015353D01*X009704Y015269D02*
X009362Y015011D01*X009447Y015075D02*X009747Y015033D01*
X009491Y014839D02*X009522Y015065D01*X015696Y00746D02*X015797D01*
X015898Y007359D01*Y007258D01*X015848Y007207D01*X015747Y007208D01*
X015494Y007258D01*X015444Y007207D01*X015646Y007005D01*
X015999Y007157D02*X0161D01*X016201Y007056D01*X016201Y006955D01*
X016151Y006904D01*X01605D01*X015797Y006955D01*X015747Y006904D01*
X015949Y006702D01*X016378Y006879D02*X016075Y006576D01*
X016151Y006652D02*X016454Y006652D01*X016227Y006425D02*Y006652D01*
X012934Y010468D02*X013033Y010447D01*X012674Y010213D01*
X012713Y010153D01*X012674Y010213D02*X012635Y010273D01*
X012902Y009861D02*X013067Y009968D01*X013178Y009961D01*X01314Y009856D01*
X012975Y009749D01*X012994Y010081D02*X013105Y010073D01*
X013067Y009969D01*X013099Y010149D02*X012829Y009974D01*X01627Y011606D02*
X016255Y011506D01*X016139Y011422D01*X016039Y011438D01*
X015997Y011496D01*X016013Y011595D01*X016102Y011837D01*X01606Y011895D01*
X015829Y011727D01*X015924Y011354D02*X015908Y011254D01*X015792Y01117D01*
X015693Y011186D01*X015651Y011244D01*X015666Y011343D01*
X015756Y011585D01*X015714Y011643D01*X015483Y011475D01*X01559Y011023D02*
X015338Y01137D01*X015401Y011283D02*X015354Y010984D01*X015165Y011244D02*
X015389Y011208D01*X013859Y013559D02*X013828Y013541D01*
X013577Y013726D01*X013627Y013425D02*X013609Y013456D01*
X013559Y013901D01*X01359Y013919D01*X013174Y017665D02*X013275Y017674D01*
X013384Y017582D01*X013393Y017482D01*X013347Y017427D01*
X013246Y017418D01*X01299Y017446D01*X012944Y017392D01*X013163Y017208D01*
X013502Y01739D02*X013603Y017399D01*X013712Y017307D01*X013721Y017206D01*
X013675Y017151D01*X013575Y017143D01*X013319Y017171D01*
X013273Y017116D01*X013492Y016933D01*X013904Y017146D02*
X013628Y016818D01*X013697Y0169D02*X013999Y016926D01*X013792Y01668D02*
X013773Y016906D01*X014988Y018052D02*X014889Y018073D01*
X015248Y018306D01*X01521Y018366D01*X015248Y018306D02*X015287Y018246D01*
X014638Y018591D02*X014617Y018492D01*X014695Y018372D01*
X014793Y018351D01*X015033Y018507D01*X015054Y018606D01*
X014976Y018726D01*X014877Y018747D01*X014638Y018591D01*X014775Y01851D02*
X014895Y018588D01*X014481Y018702D02*X01484Y018935D01*X01475Y018877D02*
X014454Y01894D01*X014723Y019115D02*X014676Y018893D01*
M02*