%FSTAX24Y24*%
%MOIN*%
%IN deerhorn_moon.bottomlayer.ger *%
%AMRECT*21,1,$1,$2,0.0,0.0,$3*%
%ADD10C,0.0100*%
%ADD11C,0.0200*%
%ADD12C,0.0600*%
%ADD13C,0.0690*%
%ADD14C,0.0800*%
%ADD15C,0.1000*%
%ADD16RECT,0.0600X0.0600X63.0000*%
D12*X145436Y012391D03*X146054Y015579D03*D14*X143869Y01425D02*
G01X143931Y01406D01*D12*X096209Y015538D03*D14*X096685Y016805D02*
X096657Y017003D01*D12*X099075Y015135D03*X09433Y014854D03*
X094664Y013079D03*X100395Y024504D03*X102894Y025881D03*
X105617Y026426D03*X148711Y031792D03*X143709Y028358D03*D14*
X096268Y019776D02*X09624Y019974D01*D12*X095717Y021636D03*
X098031Y022657D03*X148429Y025811D03*X150068Y022025D03*X146016Y01911D03*
X143968Y018467D03*X145486Y019958D03*X146968Y021486D03*
X153032Y027591D03*X153054Y025564D03*X152323Y023102D03*
X150845Y021396D03*X149014Y019291D03*X080489Y019879D03*
X080186Y017395D03*X081481Y017091D03*X079342Y015773D03*
X079507Y019688D03*X080225Y021848D03*X077107Y018369D03*
X077288Y016618D03*X074873Y016196D03*X073484Y016014D03*
X078919Y014867D03*D14*X135211Y019022D03*X134882Y021337D02*
X134854Y021535D01*D12*X134353Y025978D03*D14*X134465Y024308D02*
X134437Y024506D01*D13*X137523Y019137D03*D12*X137395Y021883D03*
X120514Y018962D03*X126585Y018395D03*X129493Y01821D03*X131435Y020553D03*
X118515Y018892D03*X118272Y02315D03*X113182Y020433D03*X110065Y019567D03*
X122617Y016034D03*X124243Y016191D03*X123503Y014819D03*
X121535Y012555D03*X120593Y01413D03*X121618Y015999D03*X118106Y012453D03*
X118619Y015894D03*X116516Y018823D03*X114626Y019131D03*
X125389Y019483D03*X123699Y021739D03*X122512Y019032D03*X12042Y022341D03*
X11762Y021266D03*X117515Y018858D03*X116303Y021618D03*X112352Y015129D03*
X111336Y018218D03*X113308Y015421D03*X113716Y013394D03*
X112973Y017441D03*X114265Y015713D03*X11762Y015859D03*X11665Y014018D03*
X116621Y015824D03*X110345Y022117D03*X107088Y01863D03*X11045Y023112D03*
X108523Y022534D03*X107733Y021455D03*X108732Y025172D03*
X104308Y019805D03*D13*X101617Y021601D03*D12*X097178Y025238D03*
X109677Y025498D03*X108501Y027253D03*X106516Y024763D03*
X110623Y025824D03*X111949Y024229D03*X110554Y024106D03*
X111545Y021211D03*X112778Y02367D03*X114983Y02555D03*X114313Y026293D03*
X120898Y020664D03*X121513Y018997D03*X124139Y019189D03*
X126951Y015417D03*X125389Y016483D03*X120618Y015964D03*
X128584Y016374D03*X127908Y021864D03*X127859Y019285D03*
X131864Y022512D03*X129438Y02033D03*X129811Y02506D03*X131994Y025968D03*
X125608Y025693D03*X128411Y024523D03*X125752Y02406D03*X126908Y021864D03*
X083281Y022715D03*X084281Y025715D03*X083281D03*X087882Y023905D03*
X074608Y021393D03*X085281Y022715D03*X085369Y021474D03*
X087934Y026905D03*X095633Y02781D03*X090828Y025855D03*X086281Y025715D03*
X089287Y022032D03*X090585Y02387D03*X014923Y026908D03*X014304Y02372D03*
D14*X016489Y025049D02*X016428Y025239D01*D12*X064149Y023761D03*D14*
X063673Y022494D02*X063701Y022296D01*D12*X061283Y024164D03*
X066028Y024445D03*X065694Y02622D03*X060222Y014648D03*X057633Y013418D03*
X054741Y012873D03*X011647Y007507D03*X016649Y010941D03*D14*
X064091Y019523D02*X064119Y019325D01*D12*X064783Y017266D03*
X062343Y016769D03*D15*X008933Y029662D03*D12*X009698Y025568D03*D14*
X010486Y022073D02*X01063Y022211D01*D12*X013623Y022384D03*
X015293Y021855D03*X020069Y026098D03*X008004Y02189D03*X008736Y018532D03*
X011929Y013488D03*X010291Y017274D03*X014343Y020189D03*X01639Y020832D03*
X014873Y019341D03*X01339Y017813D03*X007326Y011708D03*X007304Y013735D03*
X008035Y016197D03*X009514Y017903D03*X011344Y020007D03*
X019029Y019996D03*D14*X017417Y022196D02*X017355Y022386D01*
X017379Y019707D02*X017441Y019517D01*D12*X016178Y017107D03*
X020104Y017195D03*X020995Y015152D03*X018657Y01317D03*D14*
X025055Y020302D03*X025383Y017986D02*X025411Y017788D01*D12*
X025912Y013345D03*D14*X025801Y015015D02*X025829Y014817D01*D13*
X022836Y020162D03*D12*X022963Y017416D03*X039845Y020337D03*
X033773Y020904D03*X030865Y021089D03*X028924Y018746D03*
X041844Y020407D03*X042087Y016149D03*X047176Y018866D03*
X050294Y019732D03*X037741Y023265D03*X036115Y023108D03*
X036856Y024479D03*X038824Y026744D03*X039765Y025169D03*X038741Y0233D03*
X042252Y026846D03*X041739Y023405D03*X043842Y020476D03*
X045733Y020168D03*X034969Y019815D03*X03666Y017559D03*X037846Y020267D03*
X039938Y016958D03*X042739Y018033D03*X042843Y020441D03*
X044055Y017681D03*X048006Y02417D03*X049022Y021081D03*X04705Y023878D03*
X046643Y025905D03*X047386Y021858D03*X046094Y023585D03*X042738Y02344D03*
X043708Y025281D03*X043738Y023474D03*X050013Y017182D03*X05327Y020669D03*
X049908Y016187D03*X051835Y016765D03*X052625Y017844D03*
X051626Y014127D03*X05605Y019494D03*D13*X058741Y017698D03*D12*
X062615Y013961D03*X050681Y013801D03*X051858Y012046D03*
X053842Y014536D03*X049735Y013475D03*X04841Y01507D03*X049804Y015193D03*
X048813Y018088D03*X047581Y015629D03*X045376Y013749D03*
X046045Y013006D03*X03946Y018635D03*X038845Y020302D03*X03622Y02011D03*
X033407Y023881D03*X034969Y022815D03*X03974Y023335D03*X031774Y022925D03*
X03245Y017435D03*X0325Y020014D03*X028495Y016787D03*X030921Y018969D03*
X030547Y014239D03*X028364Y013331D03*X03475Y013606D03*X031947Y014776D03*
X034606Y015239D03*X03345Y017435D03*X064462Y011597D03*X073484Y018611D03*
X069014Y020089D03*X07055Y022485D03*X055123Y022347D03*X052002Y023388D03*
X062694Y02622D03*X059789Y024295D03*X014713Y0299D03*D15*
X011537Y028557D03*D12*X011147Y025956D03*D14*X012644Y024156D02*
X012788Y024295D01*D15*X010038Y032265D03*D14*X024689Y023279D03*
X018306Y016854D02*X018368Y016664D01*D12*X016515Y015646D03*
X015403Y018493D03*X013641Y010496D03*X011473Y008491D03*
X010633Y014697D03*X00982Y012101D03*X029693Y02385D03*X029115Y021365D03*
X028017Y019169D03*X027497Y016857D03*X040739Y02337D03*X091358Y012572D03*
X094242Y011746D03*X145645Y009399D03*X145436Y012391D03*
X141702Y026129D03*X143709Y028358D03*X144181Y022192D03*
X143843Y023653D03*X140289Y013201D03*X137831Y01148D03*X096209Y015538D03*
X09527Y015196D03*X09433Y014854D03*X097664Y013079D03*X094664D03*
X095717Y021636D03*X095042Y024559D03*X098031Y022657D03*
X100395Y024504D03*X148538Y032777D03*X148885Y030808D03*
X148711Y031792D03*D14*X096685Y016805D02*X096657Y017003D01*
X096268Y019776D02*X09624Y019974D01*D15*X15032Y007034D03*
X148822Y010742D03*X151425Y009637D03*D12*X150661Y013731D03*D14*
X149872Y017226D02*X149728Y017087D01*D12*X146735Y016915D03*
X145065Y017444D03*X140289Y013201D03*X145065Y017444D03*
X146735Y016915D03*X152355Y017409D03*X151622Y020767D03*D14*
X149872Y017226D02*X149728Y017087D01*D12*X150661Y013731D03*D15*
X151425Y009637D03*D12*X152355Y017409D03*X151622Y020767D03*
X093433Y019583D03*X09436Y01673D03*D14*X14298Y019592D02*
X142918Y019782D01*X142052Y022445D02*X141991Y022635D01*
X142942Y017103D02*X143004Y016913D01*X143869Y01425D02*X143931Y01406D01*
D12*X144956Y020806D03*X148429Y025811D03*X150068Y022025D03*
X146016Y01911D03*D14*X147714Y015142D02*X14757Y015004D01*D12*
X146054Y015579D03*X149212Y013343D03*X143968Y018467D03*
X145486Y019958D03*X146968Y021486D03*X152205Y030475D03*
X153032Y027591D03*X153054Y025564D03*X152323Y023102D03*
X150845Y021396D03*X149014Y019291D03*X150538Y027198D03*
X149725Y024602D03*D15*X087803Y015648D03*X091781Y015229D03*D12*
X081471Y02007D03*X080489Y019879D03*X080186Y017395D03*X081481Y017091D03*
X078496Y013961D03*X079342Y015773D03*X079507Y019688D03*
X080225Y021848D03*X079101Y024629D03*D14*X084712Y01624D02*
X084841Y016393D01*D12*X085803Y014263D03*X081455Y015592D03*
X075497Y01913D03*X077107Y018369D03*X077288Y016618D03*X074873Y016196D03*
X073484Y016014D03*X078919Y014867D03*X100569Y015004D03*
X099075Y015135D03*X141329Y019303D03*X140254Y022104D03*D14*
X135576Y016044D03*X135211Y019022D03*X134882Y021337D02*
X134854Y021535D01*D12*X134353Y025978D03*D14*X134465Y024308D02*
X134437Y024506D01*D12*X146717Y028803D03*X139363Y024147D03*D13*
X137523Y019137D03*D12*X137395Y021883D03*X122512Y019032D03*
X121513Y018997D03*X120514Y018962D03*X119514Y018927D03*
X118515Y018892D03*X117515Y018858D03*X116516Y018823D03*
X116621Y015824D03*X11762Y015859D03*X118619Y015894D03*X119619Y015929D03*
X120618Y015964D03*X121618Y015999D03*X122617Y016034D03*
X117699Y026095D03*X118272Y02315D03*X129493Y01821D03*X130665Y015449D03*
X131435Y020553D03*X132341Y02013D03*X105617Y026426D03*X108501Y027253D03*
X121535Y012555D03*X123503Y014819D03*X118106Y012453D03*X120593Y01413D03*
X124243Y016191D03*X124139Y019189D03*X125389Y016483D03*Y019483D03*
X11762Y021266D03*X12042Y022341D03*X112352Y015129D03*X113308Y015421D03*
X114265Y015713D03*X113182Y020433D03*X112973Y017441D03*X11665Y014018D03*
X113716Y013394D03*X111949Y024229D03*X112778Y02367D03*X113607Y023111D03*
X114313Y026293D03*X114983Y02555D03*X115652Y024807D03*X110345Y022117D03*
X11045Y023112D03*X110554Y024106D03*X108732Y025172D03*X109677Y025498D03*
X110623Y025824D03*X104308Y019805D03*X105235Y016952D03*X107088Y01863D03*
X108356Y015911D03*X110065Y019567D03*X107733Y021455D03*
X106516Y024763D03*X108523Y022534D03*X111545Y021211D03*
X111336Y018218D03*X116303Y021618D03*X114626Y019131D03*
X123699Y021739D03*X120898Y020664D03*X126951Y015417D03*
X126585Y018395D03*X127859Y019285D03*X128584Y016374D03*
X127908Y021864D03*X126908D03*X125908D03*X128411Y024523D03*
X129811Y02506D03*X125752Y02406D03*X122757Y023903D03*X125608Y025693D03*
X122608D03*X129438Y02033D03*X131243Y017934D03*X131864Y022512D03*
X132861Y022442D03*X102894Y025881D03*D13*X101617Y021601D03*D12*
X131994Y025968D03*X097178Y025238D03*X083281Y022715D03*X086281D03*
X085281Y025715D03*X084281D03*X083281D03*X072397Y020121D03*
X07055Y022485D03*X087882Y023905D03*X074608Y021393D03*X085281Y022715D03*
X085369Y021474D03*X087934Y026905D03*X095633Y02781D03*X073484Y018611D03*
X082001Y0225D03*X08174Y025489D03*X090828Y025855D03*X086281Y025715D03*
X091538Y020419D03*X091313Y019445D03*D16*X088833Y021141D03*D12*
X089287Y022032D03*X090585Y02387D03*X085682Y01849D03*X014713Y0299D03*
X014923Y026908D03*X018657Y01317D03*X016649Y010941D03*X016178Y017107D03*
X016515Y015646D03*X020069Y026098D03*X022527Y027819D03*
X064149Y023761D03*X065089Y024103D03*X066028Y024445D03*X062694Y02622D03*
X065694D03*X064783Y017266D03*X065458Y014343D03*X062343Y016769D03*
X060222Y014648D03*X011821Y006522D03*X011473Y008491D03*
X011647Y007507D03*D14*X063673Y022494D02*X063701Y022296D01*
X064091Y019523D02*X064119Y019325D01*D15*X010038Y032265D03*
X011537Y028557D03*X008933Y029662D03*D12*X066925Y019716D03*
X065998Y022569D03*D14*X017379Y019707D02*X017441Y019517D01*
X018306Y016854D02*X018368Y016664D01*X017417Y022196D02*
X017355Y022386D01*X016489Y025049D02*X016428Y025239D01*D12*
X015403Y018493D03*X014873Y019341D03*X014343Y020189D03*
X008736Y018532D03*X009514Y017903D03*X010291Y017274D03*
X010952Y010652D03*X011929Y013488D03*X01339Y017813D03*X011344Y020007D03*
D14*X010486Y022073D02*X01063Y022211D01*X012644Y024156D02*
X012788Y024295D01*D12*X014304Y02372D03*X013623Y022384D03*
X011147Y025956D03*X009698Y025568D03*X01639Y020832D03*X015293Y021855D03*
X008153Y008824D03*X007326Y011708D03*X007304Y013735D03*X00982Y012101D03*
X010633Y014697D03*X008035Y016197D03*X059789Y024295D03*
X061283Y024164D03*X019029Y019996D03*X020104Y017195D03*D14*
X024689Y023279D03*X025055Y020302D03*D12*X025912Y013345D03*
X026638Y010434D03*X014716Y007695D03*X013641Y010496D03*
X022963Y017416D03*X020995Y015152D03*D13*X022836Y020162D03*D12*
X037846Y020267D03*X038845Y020302D03*X039845Y020337D03*
X040844Y020372D03*X041844Y020407D03*X042843Y020441D03*
X043842Y020476D03*X043738Y023474D03*X042738Y02344D03*X041739Y023405D03*
X040739Y02337D03*X03974Y023335D03*X038741Y0233D03*X037741Y023265D03*
X042659Y013204D03*X042087Y016149D03*X030865Y021089D03*X029693Y02385D03*
X028924Y018746D03*X028017Y019169D03*X054741Y012873D03*
X051858Y012046D03*X038824Y026744D03*X036856Y024479D03*
X042252Y026846D03*X039765Y025169D03*X036115Y023108D03*X03622Y02011D03*
X034969Y022815D03*Y019815D03*X042739Y018033D03*X039938Y016958D03*
X048006Y02417D03*X04705Y023878D03*X046094Y023585D03*X047176Y018866D03*
X047386Y021858D03*X043708Y025281D03*X046643Y025905D03*X04841Y01507D03*
X047581Y015629D03*X046752Y016188D03*X046045Y013006D03*
X045376Y013749D03*X044707Y014492D03*X050013Y017182D03*
X049908Y016187D03*X049804Y015193D03*X051626Y014127D03*
X050681Y013801D03*X049735Y013475D03*X05605Y019494D03*X055123Y022347D03*
X05327Y020669D03*X052002Y023388D03*X050294Y019732D03*X052625Y017844D03*
X053842Y014536D03*X051835Y016765D03*X048813Y018088D03*
X049022Y021081D03*X044055Y017681D03*X045733Y020168D03*X03666Y017559D03*
X03946Y018635D03*X033407Y023881D03*X033773Y020904D03*X0325Y020014D03*
X031774Y022925D03*X03245Y017435D03*X03345D03*X03445D03*
X031947Y014776D03*X030547Y014239D03*X034606Y015239D03*
X037602Y015396D03*X03475Y013606D03*X03775D03*X030921Y018969D03*
X029115Y021365D03*X028495Y016787D03*X027497Y016857D03*
X057633Y013418D03*D13*X058741Y017698D03*D12*X028364Y013331D03*
X062615Y013961D03*X064462Y011597D03*X069499Y019215D03*
X069014Y020089D03*D14*X025383Y017986D02*X025411Y017788D01*
X025801Y015015D02*X025829Y014817D01*D12*X008004Y02189D03*
X137831Y01148D03*X094242Y011746D03*X09527Y015196D03*X09436Y01673D03*
X022527Y027819D03*X065089Y024103D03*X065998Y022569D03*X08174Y025489D03*
X097664Y013079D03*X100569Y015004D03*X145645Y009399D03*D15*
X148822Y010742D03*D12*X149212Y013343D03*D14*X147714Y015142D02*
X14757Y015004D01*D15*X15032Y007034D03*D14*X135576Y016044D03*
X142052Y022445D02*X141991Y022635D01*D12*X143843Y023653D03*
X144956Y020806D03*X146717Y028803D03*X148885Y030808D03*
X149725Y024602D03*X150538Y027198D03*X130665Y015449D03*
X131243Y017934D03*X132341Y02013D03*X132861Y022442D03*X119619Y015929D03*
X108356Y015911D03*X105235Y016952D03*X091313Y019445D03*D15*
X087803Y015648D03*D14*X084712Y01624D02*X084841Y016393D01*D12*
X085803Y014263D03*D15*X091781Y015229D03*D12*X085682Y01849D03*D16*
X088833Y021141D03*D12*X086281Y022715D03*X084281D03*X081471Y02007D03*
X077577Y021333D03*X072397Y020121D03*X075497Y01913D03*X084281Y022715D03*
X077577Y021333D03*X149406Y028647D03*X07055Y016638D03*X145642Y031604D03*
X133627Y028889D03*X085281Y025715D03*X091538Y020419D03*
X093433Y019583D03*X095042Y024559D03*X122608Y025693D03*
X122757Y023903D03*X125908Y021864D03*X119514Y018927D03*
X115652Y024807D03*X113607Y023111D03*X117699Y026095D03*
X133627Y028889D03*X145642Y031604D03*X148538Y032777D03*
X149406Y028647D03*X152205Y030475D03*X079101Y024629D03*
X069499Y019215D03*X066925Y019716D03*X065458Y014343D03*
X026638Y010434D03*X014716Y007695D03*X011821Y006522D03*
X008153Y008824D03*X010952Y010652D03*X03775Y013606D03*X037602Y015396D03*
X03445Y017435D03*X040844Y020372D03*X044707Y014492D03*X046752Y016188D03*
X042659Y013204D03*X07055Y016638D03*X091358Y012572D03*D15*
X089583Y013449D03*D12*X085829Y012763D03*D14*X082784Y013942D02*
X082912Y014095D01*D12*X082001Y0225D03*X081455Y015592D03*
X078496Y013961D03*D15*X089583Y013449D03*D12*X085829Y012763D03*D14*
X082784Y013942D02*X082912Y014095D01*D12*X144181Y022192D03*D14*
X14298Y019592D02*X142918Y019782D01*X142942Y017103D02*X143004Y016913D01*
D12*X141329Y019303D03*X141702Y026129D03*X139363Y024147D03*
X140254Y022104D03*D11*X145436Y012391D02*X145283Y014509D01*
X146054Y015579D01*X145283Y014509D02*X1439Y014155D01*X096209Y015538D02*
X097202Y016316D01*X096671Y016904D01*X097202Y016316D02*
X099075Y015135D01*X09433Y014854D02*X094664Y013079D01*X100395Y024504D02*
X102894Y025881D01*X105617Y026426D01*X148711Y031792D02*
X143709Y028358D01*X096254Y019875D02*X096392Y021113D01*
X095717Y021636D01*X096392Y021113D02*X098031Y022657D01*
X148429Y025811D02*X14857Y021685D01*X150068Y022025D01*X14857Y021685D02*
X146016Y01911D01*X143968Y018467D02*X145486Y019958D01*X146968Y021486D01*
X153032Y027591D02*X153054Y025564D01*X152323Y023102D01*
X150845Y021396D01*X149014Y019291D01*X080489Y019879D02*
X080549Y018913D01*X080186Y017395D01*X080549Y018913D02*
X081481Y017091D01*X079342Y015773D02*X079507Y019688D01*
X080225Y021848D01*X077107Y018369D02*X077288Y016618D01*X07759Y015652D01*
X074873Y016196D01*X073484Y016014D01*X07759Y015652D02*X078919Y014867D01*
X135211Y019022D02*X134868Y021436D01*X134353Y025978D02*
X134451Y024407D01*X137523Y019137D02*X137395Y021883D01*
X120514Y018962D02*X120622Y018127D01*X120951Y017634D01*
X124875Y017824D01*X126585Y018395D01*X129493Y01821D01*X131435Y020553D01*
X120622Y018127D02*X118444Y018045D01*X118515Y018892D01*X118272Y02315D01*
X115844Y023381D01*X113182Y020433D01*X110065Y019567D01*
X122617Y016034D02*X123525Y01578D01*X124243Y016191D01*X123525Y01578D02*
X123503Y014819D01*X121535Y012555D02*X121483Y014515D01*X120593Y01413D01*
X121483Y014515D02*X121618Y015999D01*X118106Y012453D02*
X118619Y015894D01*X116516Y018823D01*X114626Y019131D01*
X125389Y019483D02*X123699Y021739D01*X122467Y021085D01*
X122512Y019032D01*X122467Y021085D02*X12042Y022341D01*X11762Y021266D02*
X117217Y020247D01*X117515Y018858D01*X117217Y020247D02*
X116303Y021618D01*X112352Y015129D02*X111336Y018218D01*
X113308Y015421D02*X113716Y013394D01*X112973Y017441D02*
X116824Y017171D01*X114265Y015713D01*X116824Y017171D02*X11762Y015859D01*
X11665Y014018D02*X116621Y015824D01*X110345Y022117D02*X109384Y021033D01*
X107088Y01863D01*X11045Y023112D02*X108523Y022534D01*X107733Y021455D01*
X108732Y025172D02*X104308Y019805D01*X101617Y021601D01*
X097178Y025238D01*X109677Y025498D02*X108501Y027253D01*
X106516Y024763D01*X110623Y025824D02*X111159Y025115D01*
X111949Y024229D01*X111159Y025115D02*X110554Y024106D01*
X111545Y021211D02*X112778Y02367D01*X114983Y02555D01*X114313Y026293D01*
X120898Y020664D02*X121513Y018997D01*X121526Y018374D01*
X124156Y018552D01*X124139Y019189D01*X126951Y015417D02*
X126776Y016837D01*X125246Y017139D01*X125389Y016483D01*
X125246Y017139D02*X120786Y016689D01*X120618Y015964D01*
X126776Y016837D02*X128584Y016374D01*X127908Y021864D02*
X128586Y021286D01*X127859Y019285D01*X128586Y021286D02*
X129335Y021374D01*X131864Y022512D01*X129335Y021374D02*X129438Y02033D01*
X129811Y02506D02*X131994Y025968D01*X125608Y025693D02*X128411Y024523D01*
X12714Y02354D01*X125752Y02406D01*X12714Y02354D02*X126908Y021864D01*
X087882Y023905D02*X085394Y023963D01*X081111Y024079D01*
X074608Y021393D01*X085394Y023963D02*X085281Y022715D01*
X085369Y021474D01*X087934Y026905D02*X095633Y02781D01*X090828Y025855D02*
X086281Y025715D01*X089287Y022032D02*X090585Y02387D01*X014923Y026908D02*
X015076Y02479D01*X014304Y02372D01*X015076Y02479D02*X016459Y025144D01*
X064149Y023761D02*X063157Y022983D01*X063687Y022395D01*
X063157Y022983D02*X061283Y024164D01*X066028Y024445D02*X065694Y02622D01*
X060222Y014648D02*X057633Y013418D01*X054741Y012873D01*
X011647Y007507D02*X016649Y010941D01*X064105Y019424D02*
X063966Y018186D01*X064783Y017266D01*X063966Y018186D02*
X062343Y016769D01*X008933Y029662D02*X009698Y025568D01*
X010558Y022142D01*X010296Y020665D01*X013623Y022384D01*
X015293Y021855D01*X020069Y026098D01*X010296Y020665D02*
X009606Y019979D01*X008004Y02189D01*X009606Y019979D02*X008736Y018532D01*
X011929Y013488D02*X011788Y017614D01*X010291Y017274D01*
X011788Y017614D02*X014343Y020189D01*X01639Y020832D02*X014873Y019341D01*
X01339Y017813D01*X007326Y011708D02*X007304Y013735D01*X008035Y016197D01*
X009514Y017903D01*X011344Y020007D01*X019029Y019996D02*
X017386Y022291D01*X01741Y019612D01*X016178Y017107D01*X020104Y017195D02*
X019077Y014225D01*X020995Y015152D01*X019077Y014225D02*X018657Y01317D01*
X025055Y020302D02*X025397Y017887D01*X025912Y013345D02*
X025815Y014916D01*X022836Y020162D02*X022963Y017416D01*
X039845Y020337D02*X039736Y021172D01*X039408Y021665D01*
X035483Y021475D01*X033773Y020904D01*X030865Y021089D01*
X028924Y018746D01*X039736Y021172D02*X041915Y021254D01*
X041844Y020407D01*X042087Y016149D01*X044514Y015918D01*
X047176Y018866D01*X050294Y019732D01*X037741Y023265D02*
X036833Y023519D01*X036115Y023108D01*X036833Y023519D02*
X036856Y024479D01*X038824Y026744D02*X038876Y024784D01*
X039765Y025169D01*X038876Y024784D02*X038741Y0233D01*X042252Y026846D02*
X041739Y023405D01*X043842Y020476D01*X045733Y020168D01*
X034969Y019815D02*X03666Y017559D01*X037891Y018214D01*X037846Y020267D01*
X037891Y018214D02*X039938Y016958D01*X042739Y018033D02*
X043141Y019052D01*X042843Y020441D01*X043141Y019052D02*
X044055Y017681D01*X048006Y02417D02*X049022Y021081D01*X04705Y023878D02*
X046643Y025905D01*X047386Y021858D02*X043535Y022128D01*
X046094Y023585D01*X043535Y022128D02*X042738Y02344D01*X043708Y025281D02*
X043738Y023474D01*X050013Y017182D02*X050974Y018266D01*X05327Y020669D01*
X049908Y016187D02*X051835Y016765D01*X052625Y017844D01*
X051626Y014127D02*X05605Y019494D01*X058741Y017698D01*X062615Y013961D01*
X050681Y013801D02*X051858Y012046D01*X053842Y014536D01*
X049735Y013475D02*X049199Y014184D01*X04841Y01507D01*X049199Y014184D02*
X049804Y015193D01*X048813Y018088D02*X047581Y015629D01*
X045376Y013749D01*X046045Y013006D01*X03946Y018635D02*X038845Y020302D01*
X038832Y020925D01*X036202Y020747D01*X03622Y02011D01*X033407Y023881D02*
X033582Y022462D01*X035112Y02216D01*X034969Y022815D01*X035112Y02216D02*
X039572Y02261D01*X03974Y023335D01*X033582Y022462D02*X031774Y022925D01*
X03245Y017435D02*X031773Y018012D01*X0325Y020014D01*X031773Y018012D02*
X031024Y017925D01*X028495Y016787D01*X031024Y017925D02*
X030921Y018969D01*X030547Y014239D02*X028364Y013331D01*X03475Y013606D02*
X031947Y014776D01*X033219Y015759D01*X034606Y015239D01*
X033219Y015759D02*X03345Y017435D01*X064462Y011597D02*X070103Y01378D01*
X073484Y018611D01*X069014Y020089D02*X067989Y021335D01*X07055Y022485D01*
X067989Y021335D02*X061207Y020842D01*X055123Y022347D01*
X052002Y023388D01*X048079Y02725D01*X055036Y025397D01*X062694Y02622D01*
X055036Y025397D02*X059789Y024295D01*X048079Y02725D02*X040992Y027982D01*
X032663Y027007D01*X021808Y025782D01*X020708Y028931D01*X014713Y0299D01*
X011537Y030507D01*Y028557D01*X011147Y025956D01*X012716Y024226D01*
X011537Y030507D02*X010038Y032265D01*X021808Y025782D02*X021969Y02307D01*
X024689Y023279D01*X021969Y02307D02*X018337Y016759D01*X016515Y015646D01*
X014729Y014324D01*X015403Y018493D01*X014729Y014324D02*X014298Y01324D01*
X013641Y010496D01*X014298Y01324D02*X012788Y012086D01*X011473Y008491D01*
X012788Y012086D02*X011174Y012459D01*X010633Y014697D01*
X011174Y012459D02*X00982Y012101D01*X032663Y027007D02*X029693Y02385D01*
X028607Y021789D01*X029115Y021365D01*X028607Y021789D02*
X027083Y019342D01*X028017Y019169D01*X027083Y019342D02*
X027497Y016857D01*X040992Y027982D02*X040739Y02337D01*D10*X0Y0D02*
Y04D01*X16D01*Y0D01*X0D01*D11*X151425Y009637D02*X150661Y013731D01*
X1498Y017157D01*X150062Y018634D01*X146735Y016915D01*X145065Y017444D01*
X140289Y013201D01*X145065Y017444D01*X146735Y016915D01*
X150062Y018634D01*X150752Y01932D01*X152355Y017409D01*X150752Y01932D02*
X151622Y020767D01*X1498Y017157D02*X150062Y018634D01*X150661Y013731D02*
X1498Y017157D01*X151425Y009637D02*X150661Y013731D01*X150062Y018634D02*
X150752Y01932D01*X152355Y017409D01*X150752Y01932D02*X151622Y020767D01*
X148429Y025811D02*X14857Y021685D01*X150068Y022025D01*X14857Y021685D02*
X146016Y01911D01*X143968Y018467D02*X145486Y019958D01*X146968Y021486D01*
X153032Y027591D02*X153054Y025564D01*X152323Y023102D01*
X150845Y021396D01*X149014Y019291D01*X080489Y019879D02*
X080549Y018913D01*X080186Y017395D01*X080549Y018913D02*
X081481Y017091D01*X079342Y015773D02*X079507Y019688D01*
X080225Y021848D01*X077107Y018369D02*X077288Y016618D01*X07759Y015652D01*
X074873Y016196D01*X073484Y016014D01*X07759Y015652D02*X078919Y014867D01*
X135211Y019022D02*X134868Y021436D01*X134353Y025978D02*
X134451Y024407D01*X137523Y019137D02*X137395Y021883D01*
X087882Y023905D02*X085394Y023963D01*X081111Y024079D01*
X074608Y021393D01*X085394Y023963D02*X085281Y022715D01*
X085369Y021474D01*X087934Y026905D02*X095633Y02781D01*X090828Y025855D02*
X086281Y025715D01*X089287Y022032D02*X090585Y02387D01*D10*X0Y0D02*
Y04D01*X16D01*Y0D01*X0D01*D11*X119164Y010175D02*X137831Y01148D01*
X099419Y011593D02*X119164Y010175D01*X09697Y011577D02*X099419Y011593D01*
X09697Y011577D02*X094242Y011746D01*X09527Y015196D02*X09697Y011577D01*
X09436Y01673D02*X09527Y015196D01*X041194Y029124D02*X022527Y027819D01*
X06094Y027706D02*X041194Y029124D01*X063388Y027722D02*X06094Y027706D01*
X063388Y027722D02*X065089Y024103D01*X065998Y022569D01*X08174Y025489D02*
X063388Y027722D01*X105322Y013902D02*X097664Y013079D01*
X105322Y013902D02*X100569Y015004D01*X112279Y012049D02*
X105322Y013902D01*X112279Y012049D02*X119366Y011317D01*
X127695Y012292D01*X13855Y013517D01*X13965Y010368D01*X145645Y009399D01*
X148822Y008792D01*Y010742D01*X149212Y013343D01*X147642Y015073D01*
X148822Y008792D02*X15032Y007034D01*X13855Y013517D02*X13839Y016229D01*
X135576Y016044D01*X13839Y016229D02*X142022Y02254D01*X143843Y023653D01*
X145404Y024408D01*X144956Y020806D01*X145404Y024408D02*X14606Y026059D01*
X146717Y028803D01*X14606Y026059D02*X14757Y027213D01*X148885Y030808D01*
X14757Y027213D02*X149184Y02684D01*X149725Y024602D01*X149184Y02684D02*
X150538Y027198D01*X127695Y012292D02*X130665Y015449D01*X131752Y01751D01*
X131243Y017934D01*X131752Y01751D02*X133275Y019957D01*X132341Y02013D01*
X133275Y019957D02*X132861Y022442D01*X119366Y011317D02*
X119619Y015929D01*X108356Y015911D02*X112279Y012049D01*
X105235Y016952D02*X108356Y015911D01*X099151Y018457D02*
X105235Y016952D01*X090936Y018309D02*X099151Y018457D01*
X090936Y018309D02*X091313Y019445D01*X088381Y018647D02*
X090936Y018309D01*X088381Y018647D02*X088822Y018007D01*
X089305Y017283D01*X087803Y015648D01*X086165Y015471D01*
X084776Y016316D01*X086165Y015471D02*X085803Y014263D01*
X089305Y017283D02*X091781Y015229D01*X088822Y018007D02*X085682Y01849D01*
X087954Y019899D02*X088381Y018647D01*X087954Y019899D02*
X088833Y021141D01*X086531Y020266D02*X087954Y019899D01*
X086531Y020266D02*X086281Y022715D01*X084335Y020227D02*
X086531Y020266D01*X084281Y022715D02*X084335Y020227D01*
X084201Y023401D02*X084281Y022715D01*X080822Y023442D02*
X084201Y023401D01*X080822Y023442D02*X081471Y02007D01*X077577Y021333D02*
X080822Y023442D01*X075718Y020241D02*X077577Y021333D01*
X075718Y020241D02*X072397Y020121D01*X075497Y01913D02*X075718Y020241D01*
X085451Y024889D02*X085281Y025715D01*X085451Y024889D02*X09314Y025102D01*
X092868Y022385D01*X091538Y020419D01*X092868Y022385D02*
X093433Y019583D01*X09314Y025102D02*X094227Y025827D01*X095042Y024559D01*
X094227Y025827D02*X098843Y026819D01*X100509Y028301D01*
X120233Y028568D01*X120666Y026314D01*X122608Y025693D01*
X120666Y026314D02*X119736Y02631D01*X11989Y025115D01*X122757Y023903D01*
X125908Y021864D01*X11989Y025115D02*X119077Y025172D01*X119514Y018927D01*
X119077Y025172D02*X115652Y024807D01*X113607Y023111D01*X119736Y02631D02*
X117699Y026095D01*X120233Y028568D02*X133627Y028889D01*
X145642Y031604D01*X148538Y032777D01*X150443Y031402D01*
X149406Y028647D01*X150443Y031402D02*X152205Y030475D01*
X081866Y024859D02*X085451Y024889D01*X079101Y024629D02*
X081866Y024859D01*X070888Y021147D02*X079101Y024629D01*
X069499Y019215D02*X070888Y021147D01*X068127Y016568D02*
X069499Y019215D01*X068127Y016568D02*X066925Y019716D01*X06805Y014246D02*
X068127Y016568D01*X06805Y014246D02*X065893Y013013D01*X065458Y014343D01*
X065893Y013013D02*X061516Y01248D01*X059849Y010998D01*X040125Y01073D01*
X026638Y010434D01*X014716Y007695D01*X011821Y006522D01*
X009915Y007896D01*X008153Y008824D01*X009915Y007896D02*
X010952Y010652D01*X040125Y01073D02*X039692Y012985D01*X03775Y013606D01*
X039692Y012985D02*X040622Y012989D01*X040468Y014184D01*
X037602Y015396D01*X03445Y017435D01*X040468Y014184D02*X041281Y014127D01*
X040844Y020372D01*X041281Y014127D02*X044707Y014492D01*
X046752Y016188D01*X040622Y012989D02*X042659Y013204D01*X07055Y016638D02*
X06805Y014246D01*X089583Y013449D02*X091358Y012572D01*X085829Y012763D02*
X089583Y013449D01*X082848Y014018D02*X085829Y012763D01*
X082848Y014018D02*X083064Y01988D01*X082001Y0225D01*X080791Y013961D02*
X082848Y014018D01*X080791Y013961D02*X081455Y015592D01*
X078496Y013961D02*X080791Y013961D01*X142949Y019687D02*
X144181Y022192D01*X142973Y017008D02*X142949Y019687D01*
X141329Y019303D02*X142973Y017008D01*X141281Y025074D02*
X141702Y026129D01*X141281Y025074D02*X139363Y024147D01*
X140254Y022104D02*X141281Y025074D01*
M02*