317NNAME00001       U6    -1    D 280PA00X 146054Y  15579X 600Y 600             
317NNAME00001       U4_2  -2    D 280PA00X 145436Y  12391X 600Y 600             
317NNAME00001       U8    -2    D 400PA00X 143900Y  14155X1000Y 800             
317NNAME00002       U11_1 -2    D 280PA00X 139363Y  24147X 600Y 600             
317NNAME00002       U4_3  -1    D 280PA00X 141329Y  19303X 600Y 600             
317NNAME00002       U4_3  -2    D 280PA00X 140254Y  22104X 600Y 600             
317NNAME00002       U4_3  -1    D 280PA00X 141702Y  26129X 600Y 600             
317NNAME00002       U8    -1    D 400PA00X 142973Y  17008X1000Y 800             
317NNAME00002       U8_1  -1    D 400PA00X 142949Y  19687X1000Y 800             
317NNAME00002       U9    -1    D 280PA00X 144181Y  22192X 600Y 600             
317NNAME00003       U4_3  -2    D 280PA00X 143709Y  28358X 600Y 600             
317NNAME00003       U7    -wipe D 280PA00X 148711Y  31792X 600Y 600             
317NNAME00004       U14_1 -D    D 280PA00X  94330Y  14854X 600Y 600             
317NNAME00004       U15_2_-2    D 280PA00X  94664Y  13079X 600Y 600             
317NNAME00005       U13_1_-2    D 280PA00X  94360Y  16730X 600Y 600             
317NNAME00005       U13_1 -2    D 280PA00X  94242Y  11746X 600Y 600             
317NNAME00005       U13_2 -2    D 280PA00X 137831Y  11480X 600Y 600             
317NNAME00005       U14_1 -G    D 280PA00X  95270Y  15196X 600Y 600             
317NNAME00006       U18   -2    D 400PA00X  96254Y  19875X1000Y 800             
317NNAME00006       U15_3_-1    D 280PA00X  95717Y  21636X 600Y 600             
317NNAME00006       U17_1 -1    D 280PA00X  98031Y  22657X 600Y 600             
317**Signal 1**     U10   -2    D 280PA00X 145065Y  17444X 600Y 600             
317**Signal 1**     U18   -1    D 400PA00X 149800Y  17157X1000Y 800             
317**Signal 1**     U2    -11   D 400PA00X 151425Y   9637X1000Y1000             
317**Signal 1**     U22   -1    D 280PA00X 152355Y  17409X 600Y 600             
317**Signal 1**     U3_1  -S    D 280PA00X 151622Y  20767X 600Y 600             
317**Signal 1**     U6    -2    D 280PA00X 146735Y  16915X 600Y 600             
317**Signal 1**     U6_1  -2    D 280PA00X 150661Y  13731X 600Y 600             
317**Signal 1**     U13_2 -1    D 280PA00X 140289Y  13201X 600Y 600             
317**Signal 4**     U15_3 -2    D 280PA00X 148429Y  25811X 600Y 600             
317**Signal 4**     U3    -D    D 280PA00X 146016Y  19110X 600Y 600             
317**Signal 4**     U3_1  -D    D 280PA00X 150068Y  22025X 600Y 600             
317**Signal 8**     U10   -1    D 280PA00X 143968Y  18467X 600Y 600             
317**Signal 8**     U15_1 -1    D 280PA00X 146968Y  21486X 600Y 600             
317**Signal 8**     U3    -G    D 280PA00X 145486Y  19958X 600Y 600             
317**Signal 9**     U15_1 -2    D 280PA00X 149014Y  19291X 600Y 600             
317**Signal 9**     U15_3_-2    D 280PA00X 153032Y  27591X 600Y 600             
317**Signal 9**     U15_3_-1    D 280PA00X 153054Y  25564X 600Y 600             
317**Signal 9**     U17_2 -2    D 280PA00X 152323Y  23102X 600Y 600             
317**Signal 9**     U3_1  -G    D 280PA00X 150845Y  21396X 600Y 600             
317**Signal 3**     U10_1 -2    D 280PA00X  81455Y  15592X 600Y 600             
317**Signal 3**     U13_1 -1    D 280PA00X  82001Y  22500X 600Y 600             
317**Signal 3**     U18_1 -1    D 400PA00X  82848Y  14018X1000Y 800             
317**Signal 3**     U2_1  -11   D 400PA00X  89583Y  13449X1000Y1000             
317**Signal 3**     U3_1_1-S    D 280PA00X  78496Y  13961X 600Y 600             
317**Signal 3**     U6_1_1-2    D 280PA00X  85829Y  12763X 600Y 600             
317**Signal 3**     U13_1 -1    D 280PA00X  91358Y  12572X 600Y 600             
317**Signal 11**    U15_1_-2    D 280PA00X  77288Y  16618X 600Y 600             
317**Signal 11**    U15_3_-1    D 280PA00X  74873Y  16196X 600Y 600             
317**Signal 11**    U15_3_-2    D 280PA00X  73484Y  16014X 600Y 600             
317**Signal 11**    U17_2_-2    D 280PA00X  77107Y  18369X 600Y 600             
317**Signal 11**    U3_1_1-G    D 280PA00X  78919Y  14867X 600Y 600             
317**Signal 12**    U10_1 -1    D 280PA00X  81481Y  17091X 600Y 600             
317**Signal 12**    U15_1_-1    D 280PA00X  80186Y  17395X 600Y 600             
317**Signal 12**    U3_2  -G    D 280PA00X  80489Y  19879X 600Y 600             
317**Signal 13**    U15_3_-2    D 280PA00X  80225Y  21848X 600Y 600             
317**Signal 13**    U3_1_1-D    D 280PA00X  79342Y  15773X 600Y 600             
317**Signal 13**    U3_2  -D    D 280PA00X  79507Y  19688X 600Y 600             
317**Signal 16**    U18_2 -1    D 400PA00X 134868Y  21436X1000Y 800             
317**Signal 16**    U4    -2    D 400PA00X 135211Y  19022X 800Y 800             
317**Signal 66**    U12_1 -2    D 280PA00X  99075Y  15135X 600Y 600             
317**Signal 66**    U18   -1    D 400PA00X  96671Y  16904X1000Y 800             
317**Signal 66**    U14_1 -S    D 280PA00X  96209Y  15538X 600Y 600             
317**Signal 10**    U11_1 -1    D 280PA00X 137395Y  21883X 600Y 600             
317**Signal 10**    U12   -1    D 280PA00X 137523Y  19137X 690Y 690             
317NNAME00007       U1_1_1-2    D 280PA00X 128584Y  16374X 600Y 600             
317NNAME00007       U2    -12   D 280PA00X 120618Y  15964X 600Y 600             
317NNAME00007       U7_3  -1    D 280PA00X 125389Y  16483X 600Y 600             
317NNAME00007       U7_3_1-1    D 280PA00X 126951Y  15417X 600Y 600             
317NNAME00008       U11   -2    D 280PA00X 146717Y  28803X 600Y 600             
317NNAME00008       U12_1 -1    D 280PA00X 100569Y  15004X 600Y 600             
317NNAME00008       U13   -2    D 280PA00X  84281Y  22715X 600Y 600             
317NNAME00008       U13   -4    D 280PA00X  86281Y  22715X 600Y 600             
317NNAME00008       U13_1_-1    D 280PA00X  72397Y  20121X 600Y 600             
317NNAME00008       U15_3_-2    D 280PA00X 150538Y  27198X 600Y 600             
317NNAME00008       U15_3_-2    D 280PA00X  75497Y  19130X 600Y 600             
317NNAME00008       U15_3_-2    D 280PA00X  85682Y  18490X 600Y 600             
317NNAME00008       U17_2 -1    D 280PA00X 149725Y  24602X 600Y 600             
317NNAME00008       U17_2_-1    D 280PA00X  77577Y  21333X 600Y 600             
317NNAME00008       U18   -2    D 400PA00X 147642Y  15073X1000Y 800             
317NNAME00008       U18_1 -2    D 400PA00X  84776Y  16316X1000Y 800             
317NNAME00008       U2    -1    D 400PA00X 150320Y   7034X1000Y1000             
317NNAME00008       U2    -2    D 400PA00X 148822Y  10742X1000Y1000             
317NNAME00008       U20   -2    D 280PA00X  91313Y  19445X 600Y 600             
317NNAME00008       U21   -1    D 280PA00X  88833Y  21141X 600Y 600             
317NNAME00008       U2_1  -1    D 400PA00X  87803Y  15648X1000Y1000             
317NNAME00008       U2_1  -2    D 400PA00X  91781Y  15229X1000Y1000             
317NNAME00008       U3    -S    D 280PA00X 144956Y  20806X 600Y 600             
317NNAME00008       U3_2  -S    D 280PA00X  81471Y  20070X 600Y 600             
317NNAME00008       U4    -1    D 400PA00X 135576Y  16044X 800Y 800             
317NNAME00008       U6_1  -1    D 280PA00X 149212Y  13343X 600Y 600             
317NNAME00008       U6_1_1-1    D 280PA00X  85803Y  14263X 600Y 600             
317NNAME00008       U15_2_-1    D 280PA00X  97664Y  13079X 600Y 600             
317NNAME00008       U4_2  -1    D 280PA00X 145645Y   9399X 600Y 600             
317NNAME00008       U7    -2    D 280PA00X 148885Y  30808X 600Y 600             
317NNAME00008       U8_1  -2    D 400PA00X 142022Y  22540X1000Y 800             
317NNAME00008       U9    -2    D 280PA00X 143843Y  23653X 600Y 600             
317NNAME00008       U16   -2    D 280PA00X 105235Y  16952X 600Y 600             
317NNAME00008       U16_1 -2    D 280PA00X 108356Y  15911X 600Y 600             
317NNAME00008       U2    -11   D 280PA00X 119619Y  15929X 600Y 600             
317NNAME00008       U3_1  -2    D 280PA00X 130665Y  15449X 600Y 600             
317NNAME00008       U3_1_2-2    D 280PA00X 131243Y  17934X 600Y 600             
317NNAME00008       U4    -2    D 280PA00X 132341Y  20130X 600Y 600             
317NNAME00008       U4_1  -2    D 280PA00X 132861Y  22442X 600Y 600             
317NNAME00009       U2    -14   D 280PA00X 122617Y  16034X 600Y 600             
317NNAME00009       U7_2  -2    D 280PA00X 123503Y  14819X 600Y 600             
317NNAME00009       U7_2_1-1    D 280PA00X 124243Y  16191X 600Y 600             
317NNAME00010       U1_1  -2    D 280PA00X 120898Y  20664X 600Y 600             
317NNAME00010       U2    -2    D 280PA00X 121513Y  18997X 600Y 600             
317NNAME00010       U7_2_1-2    D 280PA00X 124139Y  19189X 600Y 600             
317NNAME00011       U1_1  -1    D 280PA00X 123699Y  21739X 600Y 600             
317NNAME00011       U2    -1    D 280PA00X 122512Y  19032X 600Y 600             
317NNAME00011       U7_2_1-2    D 280PA00X 120420Y  22341X 600Y 600             
317NNAME00011       U7_3  -2    D 280PA00X 125389Y  19483X 600Y 600             
317NNAME00012       U1    -1    D 280PA00X 116303Y  21618X 600Y 600             
317NNAME00012       U2    -6    D 280PA00X 117515Y  18858X 600Y 600             
317NNAME00012       U7_2_1-1    D 280PA00X 117620Y  21266X 600Y 600             
317NNAME00013       U2    -8    D 280PA00X 116621Y  15824X 600Y 600             
317NNAME00013       U7_4_1-1    D 280PA00X 116650Y  14018X 600Y 600             
317NNAME00014       U11   -G    D 280PA00X 113308Y  15421X 600Y 600             
317NNAME00014       U7_4_1-2    D 280PA00X 113716Y  13394X 600Y 600             
317NNAME00015       U12_1 -1    D 280PA00X 111545Y  21211X 600Y 600             
317NNAME00015       U14   -G    D 280PA00X 112778Y  23670X 600Y 600             
317NNAME00015       U14_1 -G    D 280PA00X 114983Y  25550X 600Y 600             
317NNAME00015       U14_1 -S    D 280PA00X 114313Y  26293X 600Y 600             
317NNAME00016       U14   -S    D 280PA00X 111949Y  24229X 600Y 600             
317NNAME00016       U14_2 -D    D 280PA00X 110554Y  24106X 600Y 600             
317NNAME00016       U14_3 -D    D 280PA00X 110623Y  25824X 600Y 600             
317NNAME00017       U14_2 -S    D 280PA00X 110345Y  22117X 600Y 600             
317NNAME00017       U16_1 -1    D 280PA00X 107088Y  18630X 600Y 600             
317NNAME00018       U14_2 -G    D 280PA00X 110450Y  23112X 600Y 600             
317NNAME00018       U3_1_3-2    D 280PA00X 107733Y  21455X 600Y 600             
317NNAME00018       U3_1_3-2    D 280PA00X 108523Y  22534X 600Y 600             
317NNAME00019       U14_3 -G    D 280PA00X 109677Y  25498X 600Y 600             
317NNAME00019       U3_1_1-2    D 280PA00X 108501Y  27253X 600Y 600             
317NNAME00019       U3_1_3-1    D 280PA00X 106516Y  24763X 600Y 600             
317NNAME00020       U11   -D    D 280PA00X 114265Y  15713X 600Y 600             
317NNAME00020       U12   -2    D 280PA00X 112973Y  17441X 600Y 600             
317NNAME00020       U2    -9    D 280PA00X 117620Y  15859X 600Y 600             
317NNAME00021       U1    -2    D 280PA00X 114626Y  19131X 600Y 600             
317NNAME00021       U2    -10   D 280PA00X 118619Y  15894X 600Y 600             
317NNAME00021       U2    -7    D 280PA00X 116516Y  18823X 600Y 600             
317NNAME00021       U7_1_1-1    D 280PA00X 118106Y  12453X 600Y 600             
317NNAME00022       U12   -1    D 280PA00X 113182Y  20433X 600Y 600             
317NNAME00022       U2    -3    D 280PA00X 120514Y  18962X 600Y 600             
317NNAME00022       U2    -5    D 280PA00X 118515Y  18892X 600Y 600             
317NNAME00022       U3    -2    D 280PA00X 118272Y  23150X 600Y 600             
317NNAME00022       U3_1  -1    D 280PA00X 129493Y  18210X 600Y 600             
317NNAME00022       U3_1_3-1    D 280PA00X 110065Y  19567X 600Y 600             
317NNAME00022       U4    -1    D 280PA00X 131435Y  20553X 600Y 600             
317NNAME00022       U7_3_1-2    D 280PA00X 126585Y  18395X 600Y 600             
317NNAME00023       U11   -S    D 280PA00X 112352Y  15129X 600Y 600             
317NNAME00023       U12_1 -2    D 280PA00X 111336Y  18218X 600Y 600             
317NNAME00024       U14_1_-G    D 280PA00X 126908Y  21864X 600Y 600             
317NNAME00024       U3_2  -1    D 280PA00X 125752Y  24060X 600Y 600             
317NNAME00024       U5    -1    D 280PA00X 128411Y  24523X 600Y 600             
317NNAME00024       U6    -A    D 280PA00X 125608Y  25693X 600Y 600             
317NNAME00025       U15_1 -1    D 280PA00X 131994Y  25968X 600Y 600             
317NNAME00025       U5    -2    D 280PA00X 129811Y  25060X 600Y 600             
317NNAME00026       U14_1_-S    D 280PA00X 127908Y  21864X 600Y 600             
317NNAME00026       U1_1_1-1    D 280PA00X 127859Y  19285X 600Y 600             
317NNAME00026       U3_1_2-1    D 280PA00X 129438Y  20330X 600Y 600             
317NNAME00026       U4_1  -1    D 280PA00X 131864Y  22512X 600Y 600             
317NNAME00027       U2    -13   D 280PA00X 121618Y  15999X 600Y 600             
317NNAME00027       U7_1_1-2    D 280PA00X 120593Y  14130X 600Y 600             
317NNAME00027       U7_2  -1    D 280PA00X 121535Y  12555X 600Y 600             
317NNAME00028       U17_1 -2    D 280PA00X 100395Y  24504X 600Y 600             
317NNAME00028       U15   -1    D 280PA00X 102894Y  25881X 600Y 600             
317NNAME00028       U3_1_1-1    D 280PA00X 105617Y  26426X 600Y 600             
317NNAME00029       U17_1 -1    D 280PA00X  97178Y  25238X 600Y 600             
317NNAME00029       U14_3 -S    D 280PA00X 108732Y  25172X 600Y 600             
317NNAME00029       U16   -1    D 280PA00X 104308Y  19805X 600Y 600             
317NNAME00029       U17   -1    D 280PA00X 101617Y  21601X 690Y 690             
317**Signal 6**     U13   -3    D 280PA00X  85281Y  22715X 600Y 600             
317**Signal 6**     U15_3_-1    D 280PA00X  87882Y  23905X 600Y 600             
317**Signal 6**     U15_3_-1    D 280PA00X  85369Y  21474X 600Y 600             
317**Signal 6**     U15_3_-1    D 280PA00X  74608Y  21393X 600Y 600             
317**Signal 14**    U15_3_-2    D 280PA00X  87934Y  26905X 600Y 600             
317**Signal 14**    U17_1 -2    D 280PA00X  95633Y  27810X 600Y 600             
317**Signal 17**    U13   -5    D 280PA00X  86281Y  25715X 600Y 600             
317**Signal 17**    U19   -1    D 280PA00X  90828Y  25855X 600Y 600             
317**Signal 19**    U19   -2    D 280PA00X  90585Y  23870X 600Y 600             
317**Signal 19**    U21   -2    D 280PA00X  89287Y  22032X 600Y 600             
317**Signal 21**    U18_2 -2    D 400PA00X 134451Y  24407X1000Y 800             
317**Signal 21**    U5    -A    D 280PA00X 134353Y  25978X 600Y 600             
317NNAME00030       U6    -1    D 280PA00X  14304Y  23720X 600Y 600             
317NNAME00030       U4_2  -2    D 280PA00X  14923Y  26908X 600Y 600             
317NNAME00030       U8    -2    D 400PA00X  16459Y  25144X1000Y 800             
317NNAME00031       U11_1 -2    D 280PA00X  20995Y  15152X 600Y 600             
317NNAME00031       U4_3  -1    D 280PA00X  19029Y  19996X 600Y 600             
317NNAME00031       U4_3  -2    D 280PA00X  20104Y  17195X 600Y 600             
317NNAME00031       U4_3  -1    D 280PA00X  18657Y  13170X 600Y 600             
317NNAME00031       U8    -1    D 400PA00X  17386Y  22291X1000Y 800             
317NNAME00031       U8_1  -1    D 400PA00X  17410Y  19612X1000Y 800             
317NNAME00031       U9    -1    D 280PA00X  16178Y  17107X 600Y 600             
317NNAME00032       U4_3  -2    D 280PA00X  16649Y  10941X 600Y 600             
317NNAME00032       U7    -wipe D 280PA00X  11647Y   7507X 600Y 600             
317NNAME00033       U14_1 -D    D 280PA00X  66028Y  24445X 600Y 600             
317NNAME00033       U15_2_-2    D 280PA00X  65694Y  26220X 600Y 600             
317NNAME00034       U13_1 -2    D 280PA00X  81740Y  25489X 600Y 600             
317NNAME00034       U13_1_-2    D 280PA00X  65998Y  22569X 600Y 600             
317NNAME00034       U13_2 -2    D 280PA00X  22527Y  27819X 600Y 600             
317NNAME00034       U14_1 -G    D 280PA00X  65089Y  24103X 600Y 600             
317NNAME00035       U18   -2    D 400PA00X  64105Y  19424X1000Y 800             
317NNAME00035       U15_3_-1    D 280PA00X  64783Y  17266X 600Y 600             
317NNAME00035       U17_1 -1    D 280PA00X  62343Y  16769X 600Y 600             
317NNAME00036       U10   -2    D 280PA00X  15293Y  21855X 600Y 600             
317NNAME00036       U18   -1    D 400PA00X  10558Y  22142X1000Y 800             
317NNAME00036       U2    -11   D 400PA00X   8933Y  29662X1000Y1000             
317NNAME00036       U22   -1    D 280PA00X   8004Y  21890X 600Y 600             
317NNAME00036       U3_1  -S    D 280PA00X   8736Y  18532X 600Y 600             
317NNAME00036       U6    -2    D 280PA00X  13623Y  22384X 600Y 600             
317NNAME00036       U6_1  -2    D 280PA00X   9698Y  25568X 600Y 600             
317NNAME00036       U13_2 -1    D 280PA00X  20069Y  26098X 600Y 600             
317NNAME00037       U15_3 -2    D 280PA00X  11929Y  13488X 600Y 600             
317NNAME00037       U3    -D    D 280PA00X  14343Y  20189X 600Y 600             
317NNAME00037       U3_1  -D    D 280PA00X  10291Y  17274X 600Y 600             
317NNAME00038       U10   -1    D 280PA00X  16390Y  20832X 600Y 600             
317NNAME00038       U15_1 -1    D 280PA00X  13390Y  17813X 600Y 600             
317NNAME00038       U3    -G    D 280PA00X  14873Y  19341X 600Y 600             
317NNAME00039       U15_1 -2    D 280PA00X  11344Y  20007X 600Y 600             
317NNAME00039       U15_3_-2    D 280PA00X   7326Y  11708X 600Y 600             
317NNAME00039       U15_3_-1    D 280PA00X   7304Y  13735X 600Y 600             
317NNAME00039       U17_2 -2    D 280PA00X   8035Y  16197X 600Y 600             
317NNAME00039       U3_1  -G    D 280PA00X   9514Y  17903X 600Y 600             
317NNAME00040       U18_2 -1    D 400PA00X  25397Y  17887X1000Y 800             
317NNAME00040       U4    -2    D 400PA00X  25055Y  20302X 800Y 800             
317NNAME00041       U12_1 -2    D 280PA00X  61283Y  24164X 600Y 600             
317NNAME00041       U18   -1    D 400PA00X  63687Y  22395X1000Y 800             
317NNAME00041       U14_1 -S    D 280PA00X  64149Y  23761X 600Y 600             
317NNAME00042       U11_1 -1    D 280PA00X  22963Y  17416X 600Y 600             
317NNAME00042       U12   -1    D 280PA00X  22836Y  20162X 690Y 690             
317NNAME00043       U1_1_1-2    D 280PA00X  31774Y  22925X 600Y 600             
317NNAME00043       U2    -12   D 280PA00X  39740Y  23335X 600Y 600             
317NNAME00043       U7_3  -1    D 280PA00X  34969Y  22815X 600Y 600             
317NNAME00043       U7_3_1-1    D 280PA00X  33407Y  23881X 600Y 600             
317NNAME00044       U13_1_-2    D 280PA00X  70550Y  22485X 600Y 600             
317NNAME00044       U11   -2    D 280PA00X  13641Y  10496X 600Y 600             
317NNAME00044       U12_1 -1    D 280PA00X  59789Y  24295X 600Y 600             
317NNAME00044       U15_3_-2    D 280PA00X   9820Y  12101X 600Y 600             
317NNAME00044       U17_2 -1    D 280PA00X  10633Y  14697X 600Y 600             
317NNAME00044       U18   -2    D 400PA00X  12716Y  24226X1000Y 800             
317NNAME00044       U2    -1    D 400PA00X  10038Y  32265X1000Y1000             
317NNAME00044       U2    -2    D 400PA00X  11537Y  28557X1000Y1000             
317NNAME00044       U20   -2    D 280PA00X  69014Y  20089X 600Y 600             
317NNAME00044       U3    -S    D 280PA00X  15403Y  18493X 600Y 600             
317NNAME00044       U4    -1    D 400PA00X  24689Y  23279X 800Y 800             
317NNAME00044       U6_1  -1    D 280PA00X  11147Y  25956X 600Y 600             
317NNAME00044       U15_2_-1    D 280PA00X  62694Y  26220X 600Y 600             
317NNAME00044       U4_2  -1    D 280PA00X  14713Y  29900X 600Y 600             
317NNAME00044       U7    -2    D 280PA00X  11473Y   8491X 600Y 600             
317NNAME00044       U8_1  -2    D 400PA00X  18337Y  16759X1000Y 800             
317NNAME00044       U9    -2    D 280PA00X  16515Y  15646X 600Y 600             
317NNAME00044       U16   -2    D 280PA00X  55123Y  22347X 600Y 600             
317NNAME00044       U16_1 -2    D 280PA00X  52002Y  23388X 600Y 600             
317NNAME00044       U2    -11   D 280PA00X  40739Y  23370X 600Y 600             
317NNAME00044       U3_1  -2    D 280PA00X  29693Y  23850X 600Y 600             
317NNAME00044       U3_1_2-2    D 280PA00X  29115Y  21365X 600Y 600             
317NNAME00044       U4    -2    D 280PA00X  28017Y  19169X 600Y 600             
317NNAME00044       U4_1  -2    D 280PA00X  27497Y  16857X 600Y 600             
317NNAME00045       U2    -14   D 280PA00X  37741Y  23265X 600Y 600             
317NNAME00045       U7_2  -2    D 280PA00X  36856Y  24479X 600Y 600             
317NNAME00045       U7_2_1-1    D 280PA00X  36115Y  23108X 600Y 600             
317NNAME00046       U1_1  -2    D 280PA00X  39460Y  18635X 600Y 600             
317NNAME00046       U2    -2    D 280PA00X  38845Y  20302X 600Y 600             
317NNAME00046       U7_2_1-2    D 280PA00X  36220Y  20110X 600Y 600             
317NNAME00047       U1_1  -1    D 280PA00X  36660Y  17559X 600Y 600             
317NNAME00047       U2    -1    D 280PA00X  37846Y  20267X 600Y 600             
317NNAME00047       U7_2_1-2    D 280PA00X  39938Y  16958X 600Y 600             
317NNAME00047       U7_3  -2    D 280PA00X  34969Y  19815X 600Y 600             
317NNAME00048       U1    -1    D 280PA00X  44055Y  17681X 600Y 600             
317NNAME00048       U2    -6    D 280PA00X  42843Y  20441X 600Y 600             
317NNAME00048       U7_2_1-1    D 280PA00X  42739Y  18033X 600Y 600             
317NNAME00049       U2    -8    D 280PA00X  43738Y  23474X 600Y 600             
317NNAME00049       U7_4_1-1    D 280PA00X  43708Y  25281X 600Y 600             
317NNAME00050       U11   -G    D 280PA00X  47050Y  23878X 600Y 600             
317NNAME00050       U7_4_1-2    D 280PA00X  46643Y  25905X 600Y 600             
317NNAME00051       U12_1 -1    D 280PA00X  48813Y  18088X 600Y 600             
317NNAME00051       U14   -G    D 280PA00X  47581Y  15629X 600Y 600             
317NNAME00051       U14_1 -G    D 280PA00X  45376Y  13749X 600Y 600             
317NNAME00051       U14_1 -S    D 280PA00X  46045Y  13006X 600Y 600             
317NNAME00052       U14   -S    D 280PA00X  48410Y  15070X 600Y 600             
317NNAME00052       U14_2 -D    D 280PA00X  49804Y  15193X 600Y 600             
317NNAME00052       U14_3 -D    D 280PA00X  49735Y  13475X 600Y 600             
317NNAME00053       U14_2 -S    D 280PA00X  50013Y  17182X 600Y 600             
317NNAME00053       U16_1 -1    D 280PA00X  53270Y  20669X 600Y 600             
317NNAME00054       U14_2 -G    D 280PA00X  49908Y  16187X 600Y 600             
317NNAME00054       U3_1_3-2    D 280PA00X  52625Y  17844X 600Y 600             
317NNAME00054       U3_1_3-2    D 280PA00X  51835Y  16765X 600Y 600             
317NNAME00055       U14_3 -G    D 280PA00X  50681Y  13801X 600Y 600             
317NNAME00055       U3_1_1-2    D 280PA00X  51858Y  12046X 600Y 600             
317NNAME00055       U3_1_3-1    D 280PA00X  53842Y  14536X 600Y 600             
317NNAME00056       U11   -D    D 280PA00X  46094Y  23585X 600Y 600             
317NNAME00056       U12   -2    D 280PA00X  47386Y  21858X 600Y 600             
317NNAME00056       U2    -9    D 280PA00X  42738Y  23440X 600Y 600             
317NNAME00057       U1    -2    D 280PA00X  45733Y  20168X 600Y 600             
317NNAME00057       U2    -10   D 280PA00X  41739Y  23405X 600Y 600             
317NNAME00057       U2    -7    D 280PA00X  43842Y  20476X 600Y 600             
317NNAME00057       U7_1_1-1    D 280PA00X  42252Y  26846X 600Y 600             
317NNAME00058       U12   -1    D 280PA00X  47176Y  18866X 600Y 600             
317NNAME00058       U2    -3    D 280PA00X  39845Y  20337X 600Y 600             
317NNAME00058       U2    -5    D 280PA00X  41844Y  20407X 600Y 600             
317NNAME00058       U3    -2    D 280PA00X  42087Y  16149X 600Y 600             
317NNAME00058       U3_1  -1    D 280PA00X  30865Y  21089X 600Y 600             
317NNAME00058       U3_1_3-1    D 280PA00X  50294Y  19732X 600Y 600             
317NNAME00058       U4    -1    D 280PA00X  28924Y  18746X 600Y 600             
317NNAME00058       U7_3_1-2    D 280PA00X  33773Y  20904X 600Y 600             
317NNAME00059       U11   -S    D 280PA00X  48006Y  24170X 600Y 600             
317NNAME00059       U12_1 -2    D 280PA00X  49022Y  21081X 600Y 600             
317NNAME00060       U14_1_-G    D 280PA00X  33450Y  17435X 600Y 600             
317NNAME00060       U3_2  -1    D 280PA00X  34606Y  15239X 600Y 600             
317NNAME00060       U5    -1    D 280PA00X  31947Y  14776X 600Y 600             
317NNAME00060       U6    -A    D 280PA00X  34750Y  13606X 600Y 600             
317NNAME00061       U15_1 -1    D 280PA00X  28364Y  13331X 600Y 600             
317NNAME00061       U5    -2    D 280PA00X  30547Y  14239X 600Y 600             
317NNAME00062       U14_1_-S    D 280PA00X  32450Y  17435X 600Y 600             
317NNAME00062       U1_1_1-1    D 280PA00X  32500Y  20014X 600Y 600             
317NNAME00062       U3_1_2-1    D 280PA00X  30921Y  18969X 600Y 600             
317NNAME00062       U4_1  -1    D 280PA00X  28495Y  16787X 600Y 600             
317NNAME00063       U2    -13   D 280PA00X  38741Y  23300X 600Y 600             
317NNAME00063       U7_1_1-2    D 280PA00X  39765Y  25169X 600Y 600             
317NNAME00063       U7_2  -1    D 280PA00X  38824Y  26744X 600Y 600             
317NNAME00064       U17_1 -2    D 280PA00X  60222Y  14648X 600Y 600             
317NNAME00064       U15   -1    D 280PA00X  57633Y  13418X 600Y 600             
317NNAME00064       U3_1_1-1    D 280PA00X  54741Y  12873X 600Y 600             
317NNAME00065       U17_1 -1    D 280PA00X  62615Y  13961X 600Y 600             
317NNAME00065       U14_3 -S    D 280PA00X  51626Y  14127X 600Y 600             
317NNAME00065       U16   -1    D 280PA00X  56050Y  19494X 600Y 600             
317NNAME00065       U17   -1    D 280PA00X  58741Y  17698X 690Y 690             
317NNAME00066       U15_3_-2    D 280PA00X  73484Y  18611X 600Y 600             
317NNAME00066       U17_1 -2    D 280PA00X  64462Y  11597X 600Y 600             
317NNAME00067       U18_2 -2    D 400PA00X  25815Y  14916X1000Y 800             
317NNAME00067       U5    -A    D 280PA00X  25912Y  13345X 600Y 600             
317NNAME00068       U11   -1    D 280PA00X 145642Y  31604X 600Y 600             
317NNAME00068       U13   -6    D 280PA00X  85281Y  25715X 600Y 600             
317NNAME00068       U13_1_-1    D 280PA00X  93433Y  19583X 600Y 600             
317NNAME00068       U15_3 -1    D 280PA00X 149406Y  28647X 600Y 600             
317NNAME00068       U15_3_-1    D 280PA00X 152205Y  30475X 600Y 600             
317NNAME00068       U15_3_-1    D 280PA00X  70550Y  16638X 600Y 600             
317NNAME00068       U15_3_-1    D 280PA00X  79101Y  24629X 600Y 600             
317NNAME00068       U20   -1    D 280PA00X  91538Y  20419X 600Y 600             
317NNAME00068       U5    -K    D 280PA00X 133627Y  28889X 600Y 600             
317NNAME00068       U11   -1    D 280PA00X  14716Y   7695X 600Y 600             
317NNAME00068       U13_1_-1    D 280PA00X  66925Y  19716X 600Y 600             
317NNAME00068       U15_3 -1    D 280PA00X  10952Y  10652X 600Y 600             
317NNAME00068       U15_3_-1    D 280PA00X   8153Y   8824X 600Y 600             
317NNAME00068       U20   -1    D 280PA00X  69499Y  19215X 600Y 600             
317NNAME00068       U5    -K    D 280PA00X  26638Y  10434X 600Y 600             
317NNAME00068       U15_3_-2    D 280PA00X  65458Y  14343X 600Y 600             
317NNAME00068       U7    -1    D 280PA00X  11821Y   6522X 600Y 600             
317NNAME00068       U14   -D    D 280PA00X  46752Y  16188X 600Y 600             
317NNAME00068       U14_1 -D    D 280PA00X  44707Y  14492X 600Y 600             
317NNAME00068       U14_1_-D    D 280PA00X  34450Y  17435X 600Y 600             
317NNAME00068       U2    -4    D 280PA00X  40844Y  20372X 600Y 600             
317NNAME00068       U3    -1    D 280PA00X  42659Y  13204X 600Y 600             
317NNAME00068       U3_2  -2    D 280PA00X  37602Y  15396X 600Y 600             
317NNAME00068       U6    -K    D 280PA00X  37750Y  13606X 600Y 600             
317NNAME00068       U15_3_-2    D 280PA00X  95042Y  24559X 600Y 600             
317NNAME00068       U7    -1    D 280PA00X 148538Y  32777X 600Y 600             
317NNAME00068       U14   -D    D 280PA00X 113607Y  23111X 600Y 600             
317NNAME00068       U14_1 -D    D 280PA00X 115652Y  24807X 600Y 600             
317NNAME00068       U14_1_-D    D 280PA00X 125908Y  21864X 600Y 600             
317NNAME00068       U2    -4    D 280PA00X 119514Y  18927X 600Y 600             
317NNAME00068       U3    -1    D 280PA00X 117699Y  26095X 600Y 600             
317NNAME00068       U3_2  -2    D 280PA00X 122757Y  23903X 600Y 600             
317NNAME00068       U6    -K    D 280PA00X 122608Y  25693X 600Y 600             
317N/C              U13   -1    D 280PA00X  83281Y  22715X 600Y 600             
317N/C              U13   -7    D 280PA00X  84281Y  25715X 600Y 600             
317N/C              U13   -8    D 280PA00X  83281Y  25715X 600Y 600             
317N/C              U13_1 -1    D 280PA00X  91358Y  12572X 600Y 600             
317N/C              U13_1 -2    D 280PA00X  94242Y  11746X 600Y 600             
317N/C              U4_2  -1    D 280PA00X 145645Y   9399X 600Y 600             
317N/C              U4_2  -2    D 280PA00X 145436Y  12391X 600Y 600             
317N/C              U4_3  -1    D 280PA00X 141702Y  26129X 600Y 600             
317N/C              U4_3  -2    D 280PA00X 143709Y  28358X 600Y 600             
317N/C              U9    -1    D 280PA00X 144181Y  22192X 600Y 600             
317N/C              U9    -2    D 280PA00X 143843Y  23653X 600Y 600             
317N/C              U13_2 -1    D 280PA00X 140289Y  13201X 600Y 600             
317N/C              U13_2 -2    D 280PA00X 137831Y  11480X 600Y 600             
317N/C              U14_1 -S    D 280PA00X  96209Y  15538X 600Y 600             
317N/C              U14_1 -G    D 280PA00X  95270Y  15196X 600Y 600             
317N/C              U14_1 -D    D 280PA00X  94330Y  14854X 600Y 600             
317N/C              U15_2_-1    D 280PA00X  97664Y  13079X 600Y 600             
317N/C              U15_2_-2    D 280PA00X  94664Y  13079X 600Y 600             
317N/C              U15_3_-1    D 280PA00X  95717Y  21636X 600Y 600             
317N/C              U15_3_-2    D 280PA00X  95042Y  24559X 600Y 600             
317N/C              U17_1 -1    D 280PA00X  98031Y  22657X 600Y 600             
317N/C              U17_1 -2    D 280PA00X 100395Y  24504X 600Y 600             
317N/C              U7    -1    D 280PA00X 148538Y  32777X 600Y 600             
317N/C              U7    -2    D 280PA00X 148885Y  30808X 600Y 600             
317N/C              U7    -wipe D 280PA00X 148711Y  31792X 600Y 600             
317N/C              U18   -1    D 400PA00X  96671Y  16904X1000Y 800             
317N/C              U18   -2    D 400PA00X  96254Y  19875X1000Y 800             
317N/C              U2_2  -1    D 400PA00X 150320Y   7034X1000Y1000             
317N/C              U2_2  -2    D 400PA00X 148822Y  10742X1000Y1000             
317N/C              U2_2  -11   D 400PA00X 151425Y   9637X1000Y1000             
317N/C              U13_1_-1    D 280PA00X  93433Y  19583X 600Y 600             
317N/C              U13_1_-2    D 280PA00X  94360Y  16730X 600Y 600             
317N/C              U8_1  -1    D 400PA00X 142949Y  19687X1000Y 800             
317N/C              U8_1  -2    D 400PA00X 142022Y  22540X1000Y 800             
317N/C              U8    -1    D 400PA00X 142973Y  17008X1000Y 800             
317N/C              U8    -2    D 400PA00X 143900Y  14155X1000Y 800             
317N/C              U3_3  -S    D 280PA00X 144956Y  20806X 600Y 600             
317N/C              U3_3  -G    D 280PA00X 145486Y  19958X 600Y 600             
317N/C              U3_3  -D    D 280PA00X 146016Y  19110X 600Y 600             
317N/C              U3_1_2-S    D 280PA00X 151622Y  20767X 600Y 600             
317N/C              U3_1_2-G    D 280PA00X 150845Y  21396X 600Y 600             
317N/C              U3_1_2-D    D 280PA00X 150068Y  22025X 600Y 600             
317N/C              U15_3_-1    D 280PA00X 149406Y  28647X 600Y 600             
317N/C              U15_3_-2    D 280PA00X 148429Y  25811X 600Y 600             
317N/C              U15_1_-1    D 280PA00X 146968Y  21486X 600Y 600             
317N/C              U15_1_-2    D 280PA00X 149014Y  19291X 600Y 600             
317N/C              U18_3 -1    D 400PA00X 149800Y  17157X1000Y 800             
317N/C              U18_3 -2    D 400PA00X 147642Y  15073X1000Y 800             
317N/C              U6_2  -1    D 280PA00X 146054Y  15579X 600Y 600             
317N/C              U6_2  -2    D 280PA00X 146735Y  16915X 600Y 600             
317N/C              U6_1_2-1    D 280PA00X 149212Y  13343X 600Y 600             
317N/C              U6_1_2-2    D 280PA00X 150661Y  13731X 600Y 600             
317N/C              U10_2 -1    D 280PA00X 143968Y  18467X 600Y 600             
317N/C              U10_2 -2    D 280PA00X 145065Y  17444X 600Y 600             
317N/C              U15_3_-1    D 280PA00X 152205Y  30475X 600Y 600             
317N/C              U15_3_-2    D 280PA00X 153032Y  27591X 600Y 600             
317N/C              U15_3_-1    D 280PA00X 153054Y  25564X 600Y 600             
317N/C              U15_3_-2    D 280PA00X 150538Y  27198X 600Y 600             
317N/C              U17_2_-1    D 280PA00X 149725Y  24602X 600Y 600             
317N/C              U17_2_-2    D 280PA00X 152323Y  23102X 600Y 600             
317N/C              U2_1  -1    D 400PA00X  87803Y  15648X1000Y1000             
317N/C              U2_1  -2    D 400PA00X  91781Y  15229X1000Y1000             
317N/C              U2_1  -11   D 400PA00X  89583Y  13449X1000Y1000             
317N/C              U3_2_1-S    D 280PA00X  81471Y  20070X 600Y 600             
317N/C              U3_2_1-G    D 280PA00X  80489Y  19879X 600Y 600             
317N/C              U3_2_1-D    D 280PA00X  79507Y  19688X 600Y 600             
317N/C              U3_1_1-S    D 280PA00X  78496Y  13961X 600Y 600             
317N/C              U3_1_1-G    D 280PA00X  78919Y  14867X 600Y 600             
317N/C              U3_1_1-D    D 280PA00X  79342Y  15773X 600Y 600             
317N/C              U15_3_-1    D 280PA00X  79101Y  24629X 600Y 600             
317N/C              U15_3_-2    D 280PA00X  80225Y  21848X 600Y 600             
317N/C              U15_1_-1    D 280PA00X  80186Y  17395X 600Y 600             
317N/C              U15_1_-2    D 280PA00X  77288Y  16618X 600Y 600             
317N/C              U18_1 -1    D 400PA00X  82848Y  14018X1000Y 800             
317N/C              U18_1 -2    D 400PA00X  84776Y  16316X1000Y 800             
317N/C              U6_1_1-1    D 280PA00X  85803Y  14263X 600Y 600             
317N/C              U6_1_1-2    D 280PA00X  85829Y  12763X 600Y 600             
317N/C              U10_1_-1    D 280PA00X  81481Y  17091X 600Y 600             
317N/C              U10_1_-2    D 280PA00X  81455Y  15592X 600Y 600             
317N/C              U15_3_-1    D 280PA00X  70550Y  16638X 600Y 600             
317N/C              U15_3_-2    D 280PA00X  73484Y  16014X 600Y 600             
317N/C              U15_3_-1    D 280PA00X  74873Y  16196X 600Y 600             
317N/C              U15_3_-2    D 280PA00X  75497Y  19130X 600Y 600             
317N/C              U17_2_-1    D 280PA00X  77577Y  21333X 600Y 600             
317N/C              U17_2_-2    D 280PA00X  77107Y  18369X 600Y 600             
317N/C              U12_1 -1    D 280PA00X 100569Y  15004X 600Y 600             
317N/C              U12_1 -2    D 280PA00X  99075Y  15135X 600Y 600             
317N/C              U4_3  -1    D 280PA00X 141329Y  19303X 600Y 600             
317N/C              U4_3  -2    D 280PA00X 140254Y  22104X 600Y 600             
317N/C              U4_1  -1    D 400PA00X 135576Y  16044X 800Y 800             
317N/C              U4_1  -2    D 400PA00X 135211Y  19022X 800Y 800             
317N/C              U5_1  -A    D 280PA00X 134353Y  25978X 600Y 600             
317N/C              U5_1  -K    D 280PA00X 133627Y  28889X 600Y 600             
317N/C              U11   -1    D 280PA00X 145642Y  31604X 600Y 600             
317N/C              U11   -2    D 280PA00X 146717Y  28803X 600Y 600             
317N/C              U11_1_-1    D 280PA00X 137395Y  21883X 600Y 600             
317N/C              U11_1_-2    D 280PA00X 139363Y  24147X 600Y 600             
317N/C              U12_2 -1    D 280PA00X 137523Y  19137X 690Y 690             
317N/C              U2    -1    D 280PA00X 122512Y  19032X 600Y 600             
317N/C              U2    -2    D 280PA00X 121513Y  18997X 600Y 600             
317N/C              U2    -3    D 280PA00X 120514Y  18962X 600Y 600             
317N/C              U2    -4    D 280PA00X 119514Y  18927X 600Y 600             
317N/C              U2    -5    D 280PA00X 118515Y  18892X 600Y 600             
317N/C              U2    -6    D 280PA00X 117515Y  18858X 600Y 600             
317N/C              U2    -7    D 280PA00X 116516Y  18823X 600Y 600             
317N/C              U2    -8    D 280PA00X 116621Y  15824X 600Y 600             
317N/C              U2    -9    D 280PA00X 117620Y  15859X 600Y 600             
317N/C              U2    -10   D 280PA00X 118619Y  15894X 600Y 600             
317N/C              U2    -11   D 280PA00X 119619Y  15929X 600Y 600             
317N/C              U2    -12   D 280PA00X 120618Y  15964X 600Y 600             
317N/C              U2    -13   D 280PA00X 121618Y  15999X 600Y 600             
317N/C              U2    -14   D 280PA00X 122617Y  16034X 600Y 600             
317N/C              U3    -1    D 280PA00X 117699Y  26095X 600Y 600             
317N/C              U3    -2    D 280PA00X 118272Y  23150X 600Y 600             
317N/C              U3_1  -1    D 280PA00X 129493Y  18210X 600Y 600             
317N/C              U3_1  -2    D 280PA00X 130665Y  15449X 600Y 600             
317N/C              U4    -1    D 280PA00X 131435Y  20553X 600Y 600             
317N/C              U4    -2    D 280PA00X 132341Y  20130X 600Y 600             
317N/C              U3_1_1-1    D 280PA00X 105617Y  26426X 600Y 600             
317N/C              U3_1_1-2    D 280PA00X 108501Y  27253X 600Y 600             
317N/C              U7_2  -1    D 280PA00X 121535Y  12555X 600Y 600             
317N/C              U7_2  -2    D 280PA00X 123503Y  14819X 600Y 600             
317N/C              U7_1_1-1    D 280PA00X 118106Y  12453X 600Y 600             
317N/C              U7_1_1-2    D 280PA00X 120593Y  14130X 600Y 600             
317N/C              U7_2_1-1    D 280PA00X 124243Y  16191X 600Y 600             
317N/C              U7_2_1-2    D 280PA00X 124139Y  19189X 600Y 600             
317N/C              U7_3  -1    D 280PA00X 125389Y  16483X 600Y 600             
317N/C              U7_3  -2    D 280PA00X 125389Y  19483X 600Y 600             
317N/C              U7_2_1-1    D 280PA00X 117620Y  21266X 600Y 600             
317N/C              U7_2_1-2    D 280PA00X 120420Y  22341X 600Y 600             
317N/C              U11   -S    D 280PA00X 112352Y  15129X 600Y 600             
317N/C              U11   -G    D 280PA00X 113308Y  15421X 600Y 600             
317N/C              U11   -D    D 280PA00X 114265Y  15713X 600Y 600             
317N/C              U12   -1    D 280PA00X 113182Y  20433X 600Y 600             
317N/C              U12   -2    D 280PA00X 112973Y  17441X 600Y 600             
317N/C              U7_4_1-1    D 280PA00X 116650Y  14018X 600Y 600             
317N/C              U7_4_1-2    D 280PA00X 113716Y  13394X 600Y 600             
317N/C              U14   -S    D 280PA00X 111949Y  24229X 600Y 600             
317N/C              U14   -G    D 280PA00X 112778Y  23670X 600Y 600             
317N/C              U14   -D    D 280PA00X 113607Y  23111X 600Y 600             
317N/C              U14_1 -S    D 280PA00X 114313Y  26293X 600Y 600             
317N/C              U14_1 -G    D 280PA00X 114983Y  25550X 600Y 600             
317N/C              U14_1 -D    D 280PA00X 115652Y  24807X 600Y 600             
317N/C              U14_2 -S    D 280PA00X 110345Y  22117X 600Y 600             
317N/C              U14_2 -G    D 280PA00X 110450Y  23112X 600Y 600             
317N/C              U14_2 -D    D 280PA00X 110554Y  24106X 600Y 600             
317N/C              U14_3 -S    D 280PA00X 108732Y  25172X 600Y 600             
317N/C              U14_3 -G    D 280PA00X 109677Y  25498X 600Y 600             
317N/C              U14_3 -D    D 280PA00X 110623Y  25824X 600Y 600             
317N/C              U16   -1    D 280PA00X 104308Y  19805X 600Y 600             
317N/C              U16   -2    D 280PA00X 105235Y  16952X 600Y 600             
317N/C              U16_1 -1    D 280PA00X 107088Y  18630X 600Y 600             
317N/C              U16_1 -2    D 280PA00X 108356Y  15911X 600Y 600             
317N/C              U3_1_3-1    D 280PA00X 110065Y  19567X 600Y 600             
317N/C              U3_1_3-2    D 280PA00X 107733Y  21455X 600Y 600             
317N/C              U3_1_3-1    D 280PA00X 106516Y  24763X 600Y 600             
317N/C              U3_1_3-2    D 280PA00X 108523Y  22534X 600Y 600             
317N/C              U12_1 -1    D 280PA00X 111545Y  21211X 600Y 600             
317N/C              U12_1 -2    D 280PA00X 111336Y  18218X 600Y 600             
317N/C              U1    -1    D 280PA00X 116303Y  21618X 600Y 600             
317N/C              U1    -2    D 280PA00X 114626Y  19131X 600Y 600             
317N/C              U1_1  -1    D 280PA00X 123699Y  21739X 600Y 600             
317N/C              U1_1  -2    D 280PA00X 120898Y  20664X 600Y 600             
317N/C              U7_3_1-1    D 280PA00X 126951Y  15417X 600Y 600             
317N/C              U7_3_1-2    D 280PA00X 126585Y  18395X 600Y 600             
317N/C              U1_1_1-1    D 280PA00X 127859Y  19285X 600Y 600             
317N/C              U1_1_1-2    D 280PA00X 128584Y  16374X 600Y 600             
317N/C              U14_1_-S    D 280PA00X 127908Y  21864X 600Y 600             
317N/C              U14_1_-G    D 280PA00X 126908Y  21864X 600Y 600             
317N/C              U14_1_-D    D 280PA00X 125908Y  21864X 600Y 600             
317N/C              U5    -1    D 280PA00X 128411Y  24523X 600Y 600             
317N/C              U5    -2    D 280PA00X 129811Y  25060X 600Y 600             
317N/C              U3_2  -1    D 280PA00X 125752Y  24060X 600Y 600             
317N/C              U3_2  -2    D 280PA00X 122757Y  23903X 600Y 600             
317N/C              U6    -A    D 280PA00X 125608Y  25693X 600Y 600             
317N/C              U6    -K    D 280PA00X 122608Y  25693X 600Y 600             
317N/C              U3_1_2-1    D 280PA00X 129438Y  20330X 600Y 600             
317N/C              U3_1_2-2    D 280PA00X 131243Y  17934X 600Y 600             
317N/C              U4_1  -1    D 280PA00X 131864Y  22512X 600Y 600             
317N/C              U4_1  -2    D 280PA00X 132861Y  22442X 600Y 600             
317N/C              U15   -1    D 280PA00X 102894Y  25881X 600Y 600             
317N/C              U17   -1    D 280PA00X 101617Y  21601X 690Y 690             
317N/C              U15_1 -1    D 280PA00X 131994Y  25968X 600Y 600             
317N/C              U17_1_-1    D 280PA00X  97178Y  25238X 600Y 600             
317N/C              U17_1_-2    D 280PA00X  95633Y  27810X 600Y 600             
317N/C              U13_2 -1    D 280PA00X  83281Y  22715X 600Y 600             
317N/C              U13_2 -2    D 280PA00X  84281Y  22715X 600Y 600             
317N/C              U13_2 -3    D 280PA00X  85281Y  22715X 600Y 600             
317N/C              U13_2 -4    D 280PA00X  86281Y  22715X 600Y 600             
317N/C              U13_2 -5    D 280PA00X  86281Y  25715X 600Y 600             
317N/C              U13_2 -6    D 280PA00X  85281Y  25715X 600Y 600             
317N/C              U13_2 -7    D 280PA00X  84281Y  25715X 600Y 600             
317N/C              U13_2 -8    D 280PA00X  83281Y  25715X 600Y 600             
317N/C              U13_1_-1    D 280PA00X  72397Y  20121X 600Y 600             
317N/C              U13_1_-2    D 280PA00X  70550Y  22485X 600Y 600             
317N/C              U15_3_-1    D 280PA00X  87882Y  23905X 600Y 600             
317N/C              U15_3_-2    D 280PA00X  87934Y  26905X 600Y 600             
317N/C              U15_3_-1    D 280PA00X  74608Y  21393X 600Y 600             
317N/C              U15_3_-2    D 280PA00X  73484Y  18611X 600Y 600             
317N/C              U13_1 -1    D 280PA00X  82001Y  22500X 600Y 600             
317N/C              U13_1 -2    D 280PA00X  81740Y  25489X 600Y 600             
317N/C              U19_1 -1    D 280PA00X  90828Y  25855X 600Y 600             
317N/C              U19_1 -2    D 280PA00X  90585Y  23870X 600Y 600             
317N/C              U20   -1    D 280PA00X  91538Y  20419X 600Y 600             
317N/C              U20   -2    D 280PA00X  91313Y  19445X 600Y 600             
317N/C              U21_1 -1    D 280PA00X  88833Y  21141X 600Y 600             
317N/C              U21_1 -2    D 280PA00X  89287Y  22032X 600Y 600             
317N/C              U15_3_-1    D 280PA00X  85369Y  21474X 600Y 600             
317N/C              U15_3_-2    D 280PA00X  85682Y  18490X 600Y 600             
317N/C              U18_2_-1    D 400PA00X 134868Y  21436X1000Y 800             
317N/C              U18_2_-2    D 400PA00X 134451Y  24407X1000Y 800             
317N/C              U22_1 -1    D 280PA00X 152355Y  17409X 600Y 600             
317N/C              U4_2  -1    D 280PA00X  14713Y  29900X 600Y 600             
317N/C              U4_2  -2    D 280PA00X  14923Y  26908X 600Y 600             
317N/C              U4_3  -1    D 280PA00X  18657Y  13170X 600Y 600             
317N/C              U4_3  -2    D 280PA00X  16649Y  10941X 600Y 600             
317N/C              U9    -1    D 280PA00X  16178Y  17107X 600Y 600             
317N/C              U9    -2    D 280PA00X  16515Y  15646X 600Y 600             
317N/C              U13_2 -1    D 280PA00X  20069Y  26098X 600Y 600             
317N/C              U13_2 -2    D 280PA00X  22527Y  27819X 600Y 600             
317N/C              U14_1 -S    D 280PA00X  64149Y  23761X 600Y 600             
317N/C              U14_1 -G    D 280PA00X  65089Y  24103X 600Y 600             
317N/C              U14_1 -D    D 280PA00X  66028Y  24445X 600Y 600             
317N/C              U15_2_-1    D 280PA00X  62694Y  26220X 600Y 600             
317N/C              U15_2_-2    D 280PA00X  65694Y  26220X 600Y 600             
317N/C              U15_3_-1    D 280PA00X  64783Y  17266X 600Y 600             
317N/C              U15_3_-2    D 280PA00X  65458Y  14343X 600Y 600             
317N/C              U17_1 -1    D 280PA00X  62343Y  16769X 600Y 600             
317N/C              U17_1 -2    D 280PA00X  60222Y  14648X 600Y 600             
317N/C              U7    -1    D 280PA00X  11821Y   6522X 600Y 600             
317N/C              U7    -2    D 280PA00X  11473Y   8491X 600Y 600             
317N/C              U7    -wipe D 280PA00X  11647Y   7507X 600Y 600             
317N/C              U18   -1    D 400PA00X  63687Y  22395X1000Y 800             
317N/C              U18   -2    D 400PA00X  64105Y  19424X1000Y 800             
317N/C              U2    -1    D 400PA00X  10038Y  32265X1000Y1000             
317N/C              U2    -2    D 400PA00X  11537Y  28557X1000Y1000             
317N/C              U2    -11   D 400PA00X   8933Y  29662X1000Y1000             
317N/C              U13_1_-1    D 280PA00X  66925Y  19716X 600Y 600             
317N/C              U13_1_-2    D 280PA00X  65998Y  22569X 600Y 600             
317N/C              U8_1  -1    D 400PA00X  17410Y  19612X1000Y 800             
317N/C              U8_1  -2    D 400PA00X  18337Y  16759X1000Y 800             
317N/C              U8    -1    D 400PA00X  17386Y  22291X1000Y 800             
317N/C              U8    -2    D 400PA00X  16459Y  25144X1000Y 800             
317N/C              U3    -S    D 280PA00X  15403Y  18493X 600Y 600             
317N/C              U3    -G    D 280PA00X  14873Y  19341X 600Y 600             
317N/C              U3    -D    D 280PA00X  14343Y  20189X 600Y 600             
317N/C              U3_1  -S    D 280PA00X   8736Y  18532X 600Y 600             
317N/C              U3_1  -G    D 280PA00X   9514Y  17903X 600Y 600             
317N/C              U3_1  -D    D 280PA00X  10291Y  17274X 600Y 600             
317N/C              U15_3 -1    D 280PA00X  10952Y  10652X 600Y 600             
317N/C              U15_3 -2    D 280PA00X  11929Y  13488X 600Y 600             
317N/C              U15_1 -1    D 280PA00X  13390Y  17813X 600Y 600             
317N/C              U15_1 -2    D 280PA00X  11344Y  20007X 600Y 600             
317N/C              U18   -1    D 400PA00X  10558Y  22142X1000Y 800             
317N/C              U18   -2    D 400PA00X  12716Y  24226X1000Y 800             
317N/C              U6    -1    D 280PA00X  14304Y  23720X 600Y 600             
317N/C              U6    -2    D 280PA00X  13623Y  22384X 600Y 600             
317N/C              U6_1  -1    D 280PA00X  11147Y  25956X 600Y 600             
317N/C              U6_1  -2    D 280PA00X   9698Y  25568X 600Y 600             
317N/C              U10   -1    D 280PA00X  16390Y  20832X 600Y 600             
317N/C              U10   -2    D 280PA00X  15293Y  21855X 600Y 600             
317N/C              U15_3_-1    D 280PA00X   8153Y   8824X 600Y 600             
317N/C              U15_3_-2    D 280PA00X   7326Y  11708X 600Y 600             
317N/C              U15_3_-1    D 280PA00X   7304Y  13735X 600Y 600             
317N/C              U15_3_-2    D 280PA00X   9820Y  12101X 600Y 600             
317N/C              U17_2 -1    D 280PA00X  10633Y  14697X 600Y 600             
317N/C              U17_2 -2    D 280PA00X   8035Y  16197X 600Y 600             
317N/C              U12_1 -1    D 280PA00X  59789Y  24295X 600Y 600             
317N/C              U12_1 -2    D 280PA00X  61283Y  24164X 600Y 600             
317N/C              U4_3  -1    D 280PA00X  19029Y  19996X 600Y 600             
317N/C              U4_3  -2    D 280PA00X  20104Y  17195X 600Y 600             
317N/C              U4    -1    D 400PA00X  24689Y  23279X 800Y 800             
317N/C              U4    -2    D 400PA00X  25055Y  20302X 800Y 800             
317N/C              U5    -A    D 280PA00X  25912Y  13345X 600Y 600             
317N/C              U5    -K    D 280PA00X  26638Y  10434X 600Y 600             
317N/C              U11   -1    D 280PA00X  14716Y   7695X 600Y 600             
317N/C              U11   -2    D 280PA00X  13641Y  10496X 600Y 600             
317N/C              U11_1 -1    D 280PA00X  22963Y  17416X 600Y 600             
317N/C              U11_1 -2    D 280PA00X  20995Y  15152X 600Y 600             
317N/C              U12   -1    D 280PA00X  22836Y  20162X 690Y 690             
317N/C              U2    -1    D 280PA00X  37846Y  20267X 600Y 600             
317N/C              U2    -2    D 280PA00X  38845Y  20302X 600Y 600             
317N/C              U2    -3    D 280PA00X  39845Y  20337X 600Y 600             
317N/C              U2    -4    D 280PA00X  40844Y  20372X 600Y 600             
317N/C              U2    -5    D 280PA00X  41844Y  20407X 600Y 600             
317N/C              U2    -6    D 280PA00X  42843Y  20441X 600Y 600             
317N/C              U2    -7    D 280PA00X  43842Y  20476X 600Y 600             
317N/C              U2    -8    D 280PA00X  43738Y  23474X 600Y 600             
317N/C              U2    -9    D 280PA00X  42738Y  23440X 600Y 600             
317N/C              U2    -10   D 280PA00X  41739Y  23405X 600Y 600             
317N/C              U2    -11   D 280PA00X  40739Y  23370X 600Y 600             
317N/C              U2    -12   D 280PA00X  39740Y  23335X 600Y 600             
317N/C              U2    -13   D 280PA00X  38741Y  23300X 600Y 600             
317N/C              U2    -14   D 280PA00X  37741Y  23265X 600Y 600             
317N/C              U3    -1    D 280PA00X  42659Y  13204X 600Y 600             
317N/C              U3    -2    D 280PA00X  42087Y  16149X 600Y 600             
317N/C              U3_1  -1    D 280PA00X  30865Y  21089X 600Y 600             
317N/C              U3_1  -2    D 280PA00X  29693Y  23850X 600Y 600             
317N/C              U4    -1    D 280PA00X  28924Y  18746X 600Y 600             
317N/C              U4    -2    D 280PA00X  28017Y  19169X 600Y 600             
317N/C              U3_1_1-1    D 280PA00X  54741Y  12873X 600Y 600             
317N/C              U3_1_1-2    D 280PA00X  51858Y  12046X 600Y 600             
317N/C              U7_2  -1    D 280PA00X  38824Y  26744X 600Y 600             
317N/C              U7_2  -2    D 280PA00X  36856Y  24479X 600Y 600             
317N/C              U7_1_1-1    D 280PA00X  42252Y  26846X 600Y 600             
317N/C              U7_1_1-2    D 280PA00X  39765Y  25169X 600Y 600             
317N/C              U7_2_1-1    D 280PA00X  36115Y  23108X 600Y 600             
317N/C              U7_2_1-2    D 280PA00X  36220Y  20110X 600Y 600             
317N/C              U7_3  -1    D 280PA00X  34969Y  22815X 600Y 600             
317N/C              U7_3  -2    D 280PA00X  34969Y  19815X 600Y 600             
317N/C              U7_2_1-1    D 280PA00X  42739Y  18033X 600Y 600             
317N/C              U7_2_1-2    D 280PA00X  39938Y  16958X 600Y 600             
317N/C              U11   -S    D 280PA00X  48006Y  24170X 600Y 600             
317N/C              U11   -G    D 280PA00X  47050Y  23878X 600Y 600             
317N/C              U11   -D    D 280PA00X  46094Y  23585X 600Y 600             
317N/C              U12   -1    D 280PA00X  47176Y  18866X 600Y 600             
317N/C              U12   -2    D 280PA00X  47386Y  21858X 600Y 600             
317N/C              U7_4_1-1    D 280PA00X  43708Y  25281X 600Y 600             
317N/C              U7_4_1-2    D 280PA00X  46643Y  25905X 600Y 600             
317N/C              U14   -S    D 280PA00X  48410Y  15070X 600Y 600             
317N/C              U14   -G    D 280PA00X  47581Y  15629X 600Y 600             
317N/C              U14   -D    D 280PA00X  46752Y  16188X 600Y 600             
317N/C              U14_1 -S    D 280PA00X  46045Y  13006X 600Y 600             
317N/C              U14_1 -G    D 280PA00X  45376Y  13749X 600Y 600             
317N/C              U14_1 -D    D 280PA00X  44707Y  14492X 600Y 600             
317N/C              U14_2 -S    D 280PA00X  50013Y  17182X 600Y 600             
317N/C              U14_2 -G    D 280PA00X  49908Y  16187X 600Y 600             
317N/C              U14_2 -D    D 280PA00X  49804Y  15193X 600Y 600             
317N/C              U14_3 -S    D 280PA00X  51626Y  14127X 600Y 600             
317N/C              U14_3 -G    D 280PA00X  50681Y  13801X 600Y 600             
317N/C              U14_3 -D    D 280PA00X  49735Y  13475X 600Y 600             
317N/C              U16   -1    D 280PA00X  56050Y  19494X 600Y 600             
317N/C              U16   -2    D 280PA00X  55123Y  22347X 600Y 600             
317N/C              U16_1 -1    D 280PA00X  53270Y  20669X 600Y 600             
317N/C              U16_1 -2    D 280PA00X  52002Y  23388X 600Y 600             
317N/C              U3_1_3-1    D 280PA00X  50294Y  19732X 600Y 600             
317N/C              U3_1_3-2    D 280PA00X  52625Y  17844X 600Y 600             
317N/C              U3_1_3-1    D 280PA00X  53842Y  14536X 600Y 600             
317N/C              U3_1_3-2    D 280PA00X  51835Y  16765X 600Y 600             
317N/C              U12_1 -1    D 280PA00X  48813Y  18088X 600Y 600             
317N/C              U12_1 -2    D 280PA00X  49022Y  21081X 600Y 600             
317N/C              U1    -1    D 280PA00X  44055Y  17681X 600Y 600             
317N/C              U1    -2    D 280PA00X  45733Y  20168X 600Y 600             
317N/C              U1_1  -1    D 280PA00X  36660Y  17559X 600Y 600             
317N/C              U1_1  -2    D 280PA00X  39460Y  18635X 600Y 600             
317N/C              U7_3_1-1    D 280PA00X  33407Y  23881X 600Y 600             
317N/C              U7_3_1-2    D 280PA00X  33773Y  20904X 600Y 600             
317N/C              U1_1_1-1    D 280PA00X  32500Y  20014X 600Y 600             
317N/C              U1_1_1-2    D 280PA00X  31774Y  22925X 600Y 600             
317N/C              U14_1_-S    D 280PA00X  32450Y  17435X 600Y 600             
317N/C              U14_1_-G    D 280PA00X  33450Y  17435X 600Y 600             
317N/C              U14_1_-D    D 280PA00X  34450Y  17435X 600Y 600             
317N/C              U5    -1    D 280PA00X  31947Y  14776X 600Y 600             
317N/C              U5    -2    D 280PA00X  30547Y  14239X 600Y 600             
317N/C              U3_2  -1    D 280PA00X  34606Y  15239X 600Y 600             
317N/C              U3_2  -2    D 280PA00X  37602Y  15396X 600Y 600             
317N/C              U6    -A    D 280PA00X  34750Y  13606X 600Y 600             
317N/C              U6    -K    D 280PA00X  37750Y  13606X 600Y 600             
317N/C              U3_1_2-1    D 280PA00X  30921Y  18969X 600Y 600             
317N/C              U3_1_2-2    D 280PA00X  29115Y  21365X 600Y 600             
317N/C              U4_1  -1    D 280PA00X  28495Y  16787X 600Y 600             
317N/C              U4_1  -2    D 280PA00X  27497Y  16857X 600Y 600             
317N/C              U15   -1    D 280PA00X  57633Y  13418X 600Y 600             
317N/C              U17   -1    D 280PA00X  58741Y  17698X 690Y 690             
317N/C              U15_1 -1    D 280PA00X  28364Y  13331X 600Y 600             
317N/C              U17_1 -1    D 280PA00X  62615Y  13961X 600Y 600             
317N/C              U17_1 -2    D 280PA00X  64462Y  11597X 600Y 600             
317N/C              U20   -1    D 280PA00X  69499Y  19215X 600Y 600             
317N/C              U20   -2    D 280PA00X  69014Y  20089X 600Y 600             
317N/C              U18_2 -1    D 400PA00X  25397Y  17887X1000Y 800             
317N/C              U18_2 -2    D 400PA00X  25815Y  14916X1000Y 800             
317N/C              U22   -1    D 280PA00X   8004Y  21890X 600Y 600             
999                                                                             
