317**Signal 4**     U15_3 -2    D 280PA00X 146971Y  14926X 600Y 600             
317**Signal 4**     U3    -D    D 280PA00X 146061Y  19283X 600Y 600             
317**Signal 4**     U3_1  -D    D 280PA00X 143339Y  16409X 600Y 600             
317**Signal 8**     U15_1 -1    D 280PA00X 146630Y  16487X 600Y 600             
317**Signal 8**     U3    -G    D 280PA00X 146982Y  18892X 600Y 600             
317**Signal 8**     U6_1_1-1    D 280PA00X 146821Y  20713X 600Y 600             
317**Signal 9**     U15_1 -2    D 280PA00X 144114Y  18121X 600Y 600             
317**Signal 9**     U15_3_-2    D 280PA00X 139903Y  16063X 600Y 600             
317**Signal 9**     U15_3_-1    D 280PA00X 141986Y  15444X 600Y 600             
317**Signal 9**     U3_1  -G    D 280PA00X 142432Y  16832X 600Y 600             
317NNAME00001       U6    -1    D 280PA00X  16552Y  24188X 600Y 600             
317NNAME00001       U4_2  -2    D 280PA00X  17369Y  27451X 600Y 600             
317NNAME00001       U8    -2    D 400PA00X  18904Y  25688X1000Y 800             
317NNAME00002       U4_3  -1    D 280PA00X  22841Y  21847X 600Y 600             
317NNAME00002       U4_3  -1    D 280PA00X  21536Y  20164X 600Y 600             
317NNAME00002       U8    -1    D 400PA00X  19831Y  22835X1000Y 800             
317NNAME00002       U8_1  -1    D 400PA00X  19856Y  20156X1000Y 800             
317NNAME00002       U9    -1    D 280PA00X  18624Y  17651X 600Y 600             
317NNAME00003       U7    -wipe D 280PA00X  24540Y  16401X 600Y 600             
317NNAME00003       U4_3  -2    D 280PA00X  23300Y  17737X 600Y 600             
317NNAME00003       U7    -wipe D 280PA00X  32099Y  14506X 600Y 600             
317NNAME00004       U14_1 -D    D 280PA00X 121480Y  17694X 600Y 600             
317NNAME00004       U15_2_-2    D 280PA00X 122516Y  19876X 600Y 600             
317NNAME00005       U13_2 -2    D 280PA00X 135485Y  21388X 600Y 600             
317NNAME00005       U13_1_-2    D 280PA00X 120329Y  16194X 600Y 600             
317NNAME00005       U13_2 -2    D 280PA00X  24748Y  28981X 600Y 600             
317NNAME00005       U14_1 -G    D 280PA00X 120499Y  17885X 600Y 600             
317NNAME00006       U6    -1    D 280PA00X  17375Y  22405X 600Y 600             
317NNAME00006       U18   -1    D 400PA00X  12428Y  22790X1000Y 800             
317NNAME00006       U2    -11   D 400PA00X  11379Y  30205X1000Y1000             
317NNAME00006       U3_1  -S    D 280PA00X  11182Y  19076X 600Y 600             
317NNAME00006       U6    -2    D 280PA00X  15871Y  22852X 600Y 600             
317NNAME00006       U6_1  -2    D 280PA00X  12144Y  26111X 600Y 600             
317NNAME00006       U13_2 -1    D 280PA00X  22100Y  27573X 600Y 600             
317NNAME00007       U15_3 -2    D 280PA00X  14375Y  14032X 600Y 600             
317NNAME00007       U3    -D    D 280PA00X  16788Y  20733X 600Y 600             
317NNAME00007       U3_1  -D    D 280PA00X  12737Y  17817X 600Y 600             
317NNAME00008       U6    -2    D 280PA00X  18712Y  21724X 600Y 600             
317NNAME00008       U15_1 -1    D 280PA00X  15836Y  18357X 600Y 600             
317NNAME00008       U3    -G    D 280PA00X  17318Y  19885X 600Y 600             
317NNAME00009       U15_1 -2    D 280PA00X  13790Y  20551X 600Y 600             
317NNAME00009       U15_3_-2    D 280PA00X   9772Y  12252X 600Y 600             
317NNAME00009       U15_3_-1    D 280PA00X   9750Y  14278X 600Y 600             
317NNAME00009       U3_1  -G    D 280PA00X  11959Y  18447X 600Y 600             
317NNAME00010       U14_2 -a    D 320PA00X  33123Y  20833X 600Y 600             
317NNAME00010       U12   -1    D 280PA00X  35528Y  22016X 690Y 690             
317**Signal 5**     U4    -2    D 400PA00X 131072Y  16152X 800Y 800             
317**Signal 5**     U5    -A    D 280PA00X 129350Y  16270X 600Y 600             
317**Signal 40**    U31   -G    D 280PA00X  62306Y  23128X 600Y 600             
317**Signal 40**    U32_1 -D    D 280PA00X  64984Y  24592X 600Y 600             
317**Signal 40**    U7_3_1-2    D 280PA00X  66037Y  25336X 600Y 600             
317**Signal 43**    U31_1 -G    D 280PA00X  65151Y  17596X 600Y 600             
317**Signal 43**    U7_3_1-2    D 280PA00X  67064Y  18081X 600Y 600             
317**Signal 43**    U7_3_1-1    D 280PA00X  67992Y  17924X 600Y 600             
317**Signal 44**    U31   -S    D 280PA00X  62065Y  24099X 600Y 600             
317**Signal 44**    U7_3_1-1    D 280PA00X  61854Y  25309X 600Y 600             
317**Signal 45**    U32   -S    D 280PA00X  63418Y  15926X 600Y 600             
317**Signal 45**    U7_3_1-2    D 280PA00X  61483Y  14321X 600Y 600             
317**Signal 47**    U34   -G    D 280PA00X  52958Y  26932X 600Y 600             
317**Signal 47**    U34_1 -G    D 280PA00X  56637Y  26919X 600Y 600             
317**Signal 47**    U34_1 -S    D 280PA00X  56637Y  25919X 600Y 600             
317**Signal 47**    U7_3_1-2    D 280PA00X  58931Y  25984X 600Y 600             
317**Signal 48**    U35   -G    D 280PA00X  52229Y  13351X 600Y 600             
317**Signal 48**    U35_1 -G    D 280PA00X  54981Y  13005X 600Y 600             
317**Signal 48**    U35_1 -S    D 280PA00X  55223Y  13975X 600Y 600             
317**Signal 48**    U7_3_1-1    D 280PA00X  58506Y  13956X 600Y 600             
317**Signal 50**    U34   -S    D 280PA00X  52958Y  25932X 600Y 600             
317**Signal 50**    U34_2 -D    D 280PA00X  51026Y  24034X 600Y 600             
317**Signal 50**    U34_3 -D    D 280PA00X  48108Y  25392X 600Y 600             
317**Signal 51**    U35   -S    D 280PA00X  52471Y  14321X 600Y 600             
317**Signal 51**    U35_2 -D    D 280PA00X  49326Y  14810X 600Y 600             
317**Signal 51**    U35_3 -D    D 280PA00X  51918Y  16425X 600Y 600             
317**Signal 52**    U35_3 -S    D 280PA00X  49978Y  16909X 600Y 600             
317**Signal 52**    U39   -1    D 280PA00X  48148Y  17421X 600Y 600             
317**Signal 52**    U7_3_1-2    D 280PA00X  50587Y  21022X 600Y 600             
317**Signal 54**    U34_3 -G    D 280PA00X  47130Y  25600X 600Y 600             
317**Signal 54**    U35_2 -G    D 280PA00X  48355Y  14568X 600Y 600             
317**Signal 54**    U7_3_1-2    D 280PA00X  48078Y  20150X 600Y 600             
317**Signal 54**    U7_3_1-1    D 280PA00X  49220Y  12346X 600Y 600             
317**Signal 58**    U35_2 -S    D 280PA00X  47385Y  14326X 600Y 600             
317**Signal 58**    U39_2 -1    D 280PA00X  43347Y  13786X 600Y 600             
317**Signal 58**    U7_3_1-2    D 280PA00X  44581Y  11728X 600Y 600             
317**Signal 60**    U34_3 -S    D 280PA00X  46152Y  25808X 600Y 600             
317**Signal 60**    U39_3 -1    D 280PA00X  41667Y  26132X 600Y 600             
317**Signal 60**    U7_3_1-2    D 280PA00X  42759Y  24774X 600Y 600             
317**Signal 71**    U38   -growtD 280PA00X  44101Y  16049X 600Y 600             
317**Signal 71**    U39   -2    D 280PA00X  45203Y  17993X 600Y 600             
317NNAME00011       U2    -12   D 280PA00X  96004Y  22590X 600Y 600             
317NNAME00011       U7_3  -1    D 280PA00X  91161Y  20008X 600Y 600             
317NNAME00011       U7_3_1-1    D 280PA00X  92500Y  20759X 600Y 600             
317NNAME00012       U14_3 -1    D 280PA00X 108617Y  18433X 600Y 600             
317NNAME00012       U5_2  -A    D 280PA00X 103900Y  14359X 600Y 600             
317NNAME00012       U14_1_-G    D 280PA00X 106043Y  14322X 600Y 600             
317NNAME00012       U3_2  -1    D 280PA00X 110108Y  12228X 600Y 600             
317NNAME00013       U7_2  -1    D 280PA00X  96222Y  23784X 600Y 600             
317NNAME00013       U2    -13   D 280PA00X  95012Y  22468X 600Y 600             
317NNAME00013       U7_2  -1    D 280PA00X  94357Y  23783X 600Y 600             
317**Signal 3**     U7_3_1-2    D 280PA00X  51518Y  10418X 600Y 600             
317**Signal 3**     U17_1 -2    D 280PA00X 115434Y  13723X 600Y 600             
317**Signal 20**    U17_1_-1    D 280PA00X 108238Y  25039X 600Y 600             
317**Signal 20**    U7_1_1-1    D 280PA00X 100786Y  16850X 600Y 600             
317**Signal 20**    U2    -5    D 280PA00X  98355Y  19856X 600Y 600             
317**Signal 20**    U7_1_1-1    D 280PA00X 105282Y  24394X 600Y 600             
317gnd              U11   -2    D 280PA00X 137520Y  15627X 600Y 600             
317gnd              U15_2_-1    D 280PA00X 110279Y  26873X 600Y 600             
317gnd              U15_2_-1    D 280PA00X 116978Y  21613X 600Y 600             
317gnd              U15_3_-2    D 280PA00X 144683Y  14129X 600Y 600             
317gnd              U16   -6    D 280PA00X  75130Y  22790X 600Y 600             
317gnd              U17   -2    D 280PA00X 114483Y  17865X 600Y 600             
317gnd              U17_1 -2    D 280PA00X 102804Y  26866X 600Y 600             
317gnd              U17_1_-2    D 280PA00X 124656Y  16137X 600Y 600             
317gnd              U17_1_-2    D 280PA00X  57985Y  22964X 600Y 600             
317gnd              U17_1_-2    D 280PA00X 111234Y  25196X 600Y 600             
317gnd              U18   -2    D 400PA00X 147865Y  22593X1000Y 800             
317gnd              U3    -S    D 280PA00X 147902Y  18501X 600Y 600             
317gnd              U34   -D    D 280PA00X  52958Y  27932X 600Y 600             
317gnd              U34_1 -D    D 280PA00X  56637Y  27919X 600Y 600             
317gnd              U3_2  -2    D 280PA00X 111346Y  22106X 600Y 600             
317gnd              U3_2_1-1    D 280PA00X 110381Y  20646X 600Y 600             
317gnd              U4    -1    D 400PA00X 131072Y  19152X 800Y 800             
317gnd              U6_1  -1    D 280PA00X 147371Y  24692X 600Y 600             
317gnd              U7_2_1-1    D 280PA00X  90243Y  23498X 600Y 600             
317gnd              U7_2_1-1    D 280PA00X  87040Y  29896X 600Y 600             
317gnd              U7_3_1-1    D 280PA00X  68267Y  27343X 600Y 600             
317gnd              U7_3_1-1    D 280PA00X  41582Y  11676X 600Y 600             
317gnd              U7_3_1-1    D 280PA00X  52594Y  23252X 600Y 600             
317gnd              U7_3_1-1    D 280PA00X  55364Y  23276X 600Y 600             
317gnd              U11   -2    D 280PA00X  16087Y  11040X 600Y 600             
317gnd              U15_3_-2    D 280PA00X  12266Y  12644X 600Y 600             
317gnd              U18   -2    D 400PA00X  14586Y  24874X1000Y 800             
317gnd              U2    -1    D 400PA00X  12484Y  32809X1000Y1000             
317gnd              U2    -2    D 400PA00X  13983Y  29100X1000Y1000             
317gnd              U3    -S    D 280PA00X  17848Y  19037X 600Y 600             
317gnd              U6_1  -1    D 280PA00X  13592Y  26499X 600Y 600             
317gnd              U15_2_-1    D 280PA00X 119562Y  20397X 600Y 600             
317gnd              U4_2  -1    D 280PA00X  17159Y  30444X 600Y 600             
317gnd              U7    -2    D 280PA00X  31926Y  15491X 600Y 600             
317gnd              U8_1  -2    D 400PA00X  20783Y  17302X1000Y 800             
317gnd              U9    -2    D 280PA00X  18961Y  16189X 600Y 600             
317gnd              U2    -11   D 280PA00X  96997Y  22712X 600Y 600             
317gnd              U3_1_2-2    D 280PA00X 108861Y  21580X 600Y 600             
317gnd              U7_1_1-2    D 280PA00X 104710Y  27339X 600Y 600             
317**Signal 29**    U17_1_-1    D 280PA00X  56670Y  20267X 600Y 600             
317**Signal 29**    U34_2 -G    D 280PA00X  50143Y  23564X 600Y 600             
317**Signal 29**    U35_3 -G    D 280PA00X  50948Y  16667X 600Y 600             
317**Signal 29**    U7_3_1-2    D 280PA00X  58315Y  19219X 600Y 600             
317**Signal 29**    U7_3_1-1    D 280PA00X  50989Y  19425X 600Y 600             
317**Signal 29**    U7_3_1-2    D 280PA00X  54240Y  20494X 600Y 600             
317**Signal 2**     U34_2 -S    D 280PA00X  49260Y  23095X 600Y 600             
317**Signal 2**     U39_1 -1    D 280PA00X  48429Y  21860X 600Y 600             
317**Signal 2**     U7_3_1-2    D 280PA00X  48067Y  23787X 600Y 600             
317**Signal 10**    U16   -13   D 280PA00X  76750Y  19569X 600Y 600             
317**Signal 10**    U7_2_1-1    D 280PA00X  76710Y  18478X 600Y 600             
317**Signal 14**    U2    -14   D 280PA00X  94019Y  22346X 600Y 600             
317**Signal 14**    U7_2  -2    D 280PA00X  91556Y  22708X 600Y 600             
317**Signal 14**    U7_2_1-1    D 280PA00X  86819Y  20455X 600Y 600             
317**Signal 18**    U16   -12   D 280PA00X  75757Y  19691X 600Y 600             
317**Signal 18**    U17_2 -2    D 280PA00X  96865Y  17792X 600Y 600             
317**Signal 18**    U2    -2    D 280PA00X  95377Y  19491X 600Y 600             
317**Signal 27**    U16   -4    D 280PA00X  77115Y  22547X 600Y 600             
317**Signal 27**    U7_2_1-2    D 280PA00X  77610Y  23437X 600Y 600             
317**Signal 62**    U17_3 -2    D 280PA00X 100557Y  25531X 600Y 600             
317**Signal 62**    U7_3  -2    D 280PA00X  97942Y  27160X 600Y 600             
317**Signal 62**    U2    -9    D 280PA00X  98982Y  22956X 600Y 600             
317**Signal 70**    U16   -1    D 280PA00X  80093Y  22181X 600Y 600             
317**Signal 70**    U7_2_1-2    D 280PA00X  83310Y  23855X 600Y 600             
317**Signal 11**    U14_1_-G    D 280PA00X 110336Y  15738X 600Y 600             
317**Signal 11**    U17_4 -1    D 280PA00X 108673Y  16357X 600Y 600             
317**Signal 11**    U3_2_1-2    D 280PA00X 110224Y  17650X 600Y 600             
317**Signal 12**    U17_4 -2    D 280PA00X 107217Y  16720X 600Y 600             
317**Signal 12**    U14_1_-S    D 280PA00X 105455Y  15131X 600Y 600             
317**Signal 12**    U3_1_2-1    D 280PA00X 107183Y  19093X 600Y 600             
317**Signal 15**    U14_1_-S    D 280PA00X 111124Y  16353X 600Y 600             
317**Signal 15**    U3_1_2-2    D 280PA00X 106156Y  20107X 600Y 600             
317**Signal 15**    U3_2  -1    D 280PA00X 112614Y  19387X 600Y 600             
317**Signal 15**    U3_2_2-1    D 280PA00X 113163Y  15641X 600Y 600             
317**Signal 15**    U3_2_2-2    D 280PA00X 111663Y  18239X 600Y 600             
317**Signal 15**    U3_2  -2    D 280PA00X 112037Y  14526X 600Y 600             
317**Signal 23**    U14_1_-D    D 280PA00X  88988Y  27156X 600Y 600             
317**Signal 23**    U14_1_-D    D 280PA00X  88855Y  24788X 600Y 600             
317**Signal 23**    U7_2_1-1    D 280PA00X  89015Y  23910X 600Y 600             
317**Signal 24**    U14_1_-S    D 280PA00X  87012Y  26844X 600Y 600             
317**Signal 24**    U7_2_1-2    D 280PA00X  85916Y  27115X 600Y 600             
317**Signal 30**    U16   -3    D 280PA00X  78108Y  22425X 600Y 600             
317**Signal 30**    U7_2_1-2    D 280PA00X  81327Y  23038X 600Y 600             
317**Signal 30**    U7_2_1-2    D 280PA00X  77804Y  24627X 600Y 600             
317**Signal 57**    U17_3 -1    D 280PA00X 102011Y  22907X 600Y 600             
317**Signal 57**    U7_2  -2    D 280PA00X  99156Y  24408X 600Y 600             
317**Signal 57**    U2    -8    D 280PA00X  99975Y  23078X 600Y 600             
317**Signal 63**    U17_1 -1    D 280PA00X 103631Y  23982X 600Y 600             
317**Signal 63**    U3_1_2-1    D 280PA00X 103395Y  21280X 600Y 600             
317**Signal 63**    U2    -10   D 280PA00X  97989Y  22834X 600Y 600             
317**Signal 66**    U16   -16   D 280PA00X  79727Y  19203X 600Y 600             
317**Signal 66**    U7_2_1-2    D 280PA00X  82227Y  18613X 600Y 600             
317**Signal 67**    U7_2_1-2    D 280PA00X  88858Y  20914X 600Y 600             
317**Signal 67**    U7_2_1-1    D 280PA00X  88508Y  20046X 600Y 600             
317**Signal 73**    U14_1_-S    D 280PA00X  87955Y  15985X 600Y 600             
317**Signal 73**    U7_2_1-2    D 280PA00X  87581Y  17193X 600Y 600             
317pos9             U11   -1    D 280PA00X 136794Y  12716X 600Y 600             
317pos9             U13_2_-1    D 280PA00X 134074Y  12531X 600Y 600             
317pos9             U13_2_-2    D 280PA00X 131076Y  12426X 600Y 600             
317pos9             U13_2_-1    D 280PA00X  30186Y   7871X 600Y 600             
317pos9             U14_1 -S    D 280PA00X  86450Y  13685X 600Y 600             
317pos9             U14_1_-D    D 280PA00X 109548Y  15122X 600Y 600             
317pos9             U14_1_-D    D 280PA00X  88267Y  14010X 600Y 600             
317pos9             U15_2_-2    D 280PA00X 106649Y  24171X 600Y 600             
317pos9             U15_2_-2    D 280PA00X 105582Y  22039X 600Y 600             
317pos9             U15_3 -1    D 280PA00X 145656Y  12229X 600Y 600             
317pos9             U15_3_-1    D 280PA00X 138976Y  13210X 600Y 600             
317pos9             U15_3_-2    D 280PA00X 117757Y  13846X 600Y 600             
317pos9             U16   -11   D 280PA00X  74765Y  19813X 600Y 600             
317pos9             U17_1_-1    D 280PA00X 125331Y  13214X 600Y 600             
317pos9             U35   -D    D 280PA00X  51987Y  12381X 600Y 600             
317pos9             U35_1 -D    D 280PA00X  54739Y  12034X 600Y 600             
317pos9             U5    -K    D 280PA00X 129716Y  13293X 600Y 600             
317pos9             U5_2  -K    D 280PA00X 103795Y  11361X 600Y 600             
317pos9             U7_1_1-2    D 280PA00X 103710Y  16175X 600Y 600             
317pos9             U7_2_1-2    D 280PA00X  74507Y  16196X 600Y 600             
317pos9             U7_3_1-2    D 280PA00X  68973Y  13745X 600Y 600             
317pos9             U7_3_1-1    D 280PA00X  60283Y  16955X 600Y 600             
317pos9             U7_3_1-1    D 280PA00X  42033Y  21864X 600Y 600             
317pos9             U7_3_1-1    D 280PA00X  45090Y  23421X 600Y 600             
317pos9             U7_3_2-1    D 280PA00X  90167Y  13622X 600Y 600             
317pos9             U7_3_2-2    D 280PA00X  89958Y  10629X 600Y 600             
317pos9             U7_3_2-2    D 280PA00X  84472Y  11279X 600Y 600             
317pos9             U13_1_-1    D 280PA00X 119655Y  13270X 600Y 600             
317pos9             U7    -1    D 280PA00X  32273Y  13522X 600Y 600             
317pos9             U14_1_-D    D 280PA00X 106631Y  13513X 600Y 600             
317pos9             U2    -4    D 280PA00X  97363Y  19734X 600Y 600             
317**Signal 75**    U14_1 -D    D 280PA00X  86206Y  15670X 600Y 600             
317**Signal 75**    U14_1_-G    D 280PA00X  88111Y  14998X 600Y 600             
317**Signal 75**    U7_2_1-2    D 280PA00X  89368Y  16608X 600Y 600             
317**Signal 76**    U7_2_1-1    D 280PA00X  89837Y  19571X 600Y 600             
317**Signal 76**    U7_2_1-2    D 280PA00X  89930Y  20515X 600Y 600             
317**Signal 77**    U38_1 -growtD 280PA00X  44376Y  19753X 600Y 600             
317**Signal 77**    U39_1 -2    D 280PA00X  45452Y  21494X 600Y 600             
317**Signal 78**    U14_1 -G    D 280PA00X  86328Y  14678X 600Y 600             
317**Signal 78**    U7_3_2-1    D 280PA00X  84210Y  14268X 600Y 600             
317**Signal 78**    U7_3_2-2    D 280PA00X  83906Y  15416X 600Y 600             
317**Signal 79**    U13   -1    D 280PA00X  78120Y  26749X 600Y 600             
317**Signal 79**    U14_2_-k    D 320PA00X  80092Y  27513X 600Y 600             
317**Signal 79**    U7_1  -wipe D 280PA00X  79503Y  14937X 600Y 600             
317**Signal 79**    U7_3_2-1    D 280PA00X  80936Y  14998X 600Y 600             
317**Signal 80**    U14_2 -k    D 320PA00X  28623Y  20833X 600Y 600             
317**Signal 80**    U4_3  -2    D 280PA00X  25514Y  20485X 600Y 600             
317**Signal 81**    U14_1_-G    D 280PA00X  87860Y  24892X 600Y 600             
317**Signal 81**    U7_2_1-2    D 280PA00X  86831Y  22314X 600Y 600             
317**Signal 81**    U7_2_1-2    D 280PA00X  87928Y  22816X 600Y 600             
317**Signal 82**    U14_1_-G    D 280PA00X  88000Y  27000X 600Y 600             
317**Signal 82**    U14_2_-a    D 320PA00X  84567Y  27983X 600Y 600             
317**Signal 82**    U7_2_1-1    D 280PA00X  85187Y  24037X 600Y 600             
317**Signal 6**     U16   -14   D 280PA00X  77742Y  19447X 600Y 600             
317**Signal 6**     U7_2_1-1    D 280PA00X  76751Y  17367X 600Y 600             
317**Signal 6**     U7_2_1-2    D 280PA00X  85599Y  17714X 600Y 600             
317**Signal 16**    U17_2 -1    D 280PA00X  94242Y  16338X 600Y 600             
317**Signal 16**    U7_2_1-1    D 280PA00X  81484Y  20042X 600Y 600             
317**Signal 16**    U7_3_1-2    D 280PA00X  70461Y  20805X 600Y 600             
317**Signal 16**    U7_3_1-2    D 280PA00X  71650Y  21125X 600Y 600             
317**Signal 16**    U7_3_1-2    D 280PA00X  69354Y  20597X 600Y 600             
317**Signal 16**    U2    -1    D 280PA00X  94385Y  19369X 600Y 600             
317**Signal 16**    U7_3  -2    D 280PA00X  91266Y  17009X 600Y 600             
317**Signal 19**    U31_1 -D    D 280PA00X  65393Y  16626X 600Y 600             
317**Signal 19**    U32   -G    D 280PA00X  63125Y  16883X 600Y 600             
317**Signal 19**    U7_3_1-1    D 280PA00X  67253Y  16203X 600Y 600             
317**Signal 28**    U31   -D    D 280PA00X  62548Y  22158X 600Y 600             
317**Signal 28**    U31_1 -S    D 280PA00X  64909Y  18567X 600Y 600             
317**Signal 28**    U32   -D    D 280PA00X  62833Y  17839X 600Y 600             
317**Signal 28**    U32_1 -S    D 280PA00X  65569Y  22679X 600Y 600             
317**Signal 28**    U7_2_1-2    D 280PA00X  73756Y  17524X 600Y 600             
317**Signal 28**    U7_2_1-1    D 280PA00X  84823Y  20084X 600Y 600             
317**Signal 28**    U7_2_1-2    D 280PA00X  73727Y  18791X 600Y 600             
317**Signal 28**    U7_2_1-1    D 280PA00X  74626Y  23751X 600Y 600             
317**Signal 28**    U7_2_1-1    D 280PA00X  74820Y  24941X 600Y 600             
317**Signal 28**    U7_3_1-1    D 280PA00X  67169Y  21079X 600Y 600             
317**Signal 28**    U7_3_1-1    D 280PA00X  68770Y  21628X 600Y 600             
317**Signal 28**    U2    -3    D 280PA00X  96370Y  19612X 600Y 600             
317**Signal 28**    U2    -6    D 280PA00X  99348Y  19978X 600Y 600             
317**Signal 28**    U2    -7    D 280PA00X 100340Y  20100X 600Y 600             
317**Signal 28**    U7_3_1-2    D 280PA00X  93073Y  17814X 600Y 600             
317**Signal 31**    U32_1 -G    D 280PA00X  65276Y  23636X 600Y 600             
317**Signal 31**    U7_3_1-2    D 280PA00X  67006Y  24055X 600Y 600             
317**Signal 31**    U7_3_1-1    D 280PA00X  69146Y  23501X 600Y 600             
317**Signal 13**    U13_2_-2    D 280PA00X  27188Y   7766X 600Y 600             
317**Signal 13**    U11   -1    D 280PA00X  17162Y   8239X 600Y 600             
317**Signal 13**    U15_3 -1    D 280PA00X  13398Y  11195X 600Y 600             
317**Signal 13**    U15_3_-1    D 280PA00X  10599Y   9368X 600Y 600             
317**Signal 21**    U14_1_-S    D 280PA00X  86865Y  24997X 600Y 600             
317**Signal 21**    U7_2_1-1    D 280PA00X  85642Y  25743X 600Y 600             
317**Signal 21**    U7_2_1-1    D 280PA00X  83447Y  21353X 600Y 600             
317**Signal 25**    U16   -5    D 280PA00X  76123Y  22668X 600Y 600             
317**Signal 25**    U7_3  -1    D 280PA00X  94953Y  26899X 600Y 600             
317**Signal 17**    U14_1_-D    D 280PA00X 109684Y  29985X 600Y 600             
317**Signal 17**    U14_1_-D    D 280PA00X 114071Y  25510X 600Y 600             
317**Signal 17**    U15_2_-2    D 280PA00X 112000Y  29330X 600Y 600             
317**Signal 22**    U15_3_-1    D 280PA00X 118380Y  16781X 600Y 600             
317**Signal 22**    U17   -1    D 280PA00X 115983Y  17892X 600Y 600             
317**Signal 22**    U17_1_-2    D 280PA00X 117071Y  18859X 600Y 600             
317**Signal 22**    U14_1 -S    D 280PA00X 119517Y  18075X 600Y 600             
317**Signal 22**    U17_1 -1    D 280PA00X 116460Y  16542X 600Y 600             
317**Signal 26**    U14_1_-G    D 280PA00X 109408Y  29024X 600Y 600             
317**Signal 26**    U15_2_-2    D 280PA00X 112504Y  24666X 600Y 600             
317**Signal 26**    U15_2_-1    D 280PA00X 113216Y  28041X 600Y 600             
317**Signal 32**    U15_2_-1    D 280PA00X 114432Y  22368X 600Y 600             
317**Signal 32**    U17_1_-1    D 280PA00X 115183Y  21191X 600Y 600             
317**Signal 33**    U14_1_-G    D 280PA00X 114826Y  24853X 600Y 600             
317**Signal 33**    U15_2_-2    D 280PA00X 116170Y  27520X 600Y 600             
317**Signal 33**    U15_2_-1    D 280PA00X 115032Y  26403X 600Y 600             
317**Signal 33**    U15_2_-2    D 280PA00X 118906Y  23911X 600Y 600             
317**Signal 34**    U14_1_-S    D 280PA00X 109133Y  28063X 600Y 600             
317**Signal 34**    U15_2_-2    D 280PA00X 112077Y  26923X 600Y 600             
317**Signal 34**    U15_2_-1    D 280PA00X 107425Y  27069X 600Y 600             
317**Signal 35**    U14_1_-S    D 280PA00X 115581Y  24197X 600Y 600             
317**Signal 35**    U14_3 -2    D 280PA00X 109179Y  19824X 600Y 600             
317**Signal 35**    U15_2_-1    D 280PA00X 108401Y  23065X 600Y 600             
317**Signal 35**    U15_2_-1    D 280PA00X 112266Y  23447X 600Y 600             
317**Signal 35**    U15_2_-2    D 280PA00X 109278Y  23185X 600Y 600             
317**Signal 7**     U12_1 -1    D 280PA00X  37585Y  18793X 690Y 690             
317**Signal 7**     U39_2 -2    D 280PA00X  40369Y  13420X 600Y 600             
317**Signal 7**     U39_3 -2    D 280PA00X  38690Y  25766X 600Y 600             
317**Signal 36**    U15   -1    D 280PA00X  71010Y  26017X 600Y 600             
317**Signal 36**    U7_3_1-1    D 280PA00X  70478Y  23886X 600Y 600             
317**Signal 37**    U7_2_1-1    D 280PA00X  77491Y  15882X 600Y 600             
317**Signal 37**    U7_2_1-2    D 280PA00X  78397Y  15673X 600Y 600             
317**Signal 38**    U16   -15   D 280PA00X  78735Y  19325X 600Y 600             
317**Signal 38**    U7_2_1-1    D 280PA00X  78710Y  18656X 600Y 600             
317**Signal 41**    U13_2 -1    D 280PA00X 138408Y  20713X 600Y 600             
317**Signal 41**    U18   -1    D 400PA00X 144865Y  22541X1000Y 800             
317**Signal 41**    U3_1  -S    D 280PA00X 141526Y  17254X 600Y 600             
317**Signal 41**    U6_1  -2    D 280PA00X 145873Y  24771X 600Y 600             
317**Signal 41**    U6_1_1-2    D 280PA00X 145323Y  20792X 600Y 600             
317**Signal 41**    U22   -1    D 280PA00X 146504Y  27984X 600Y 600             
317N/C              U16   -2    D 280PA00X  79100Y  22303X 600Y 600             
317N/C              U16   -7    D 280PA00X  74138Y  22912X 600Y 600             
317N/C              U16   -8    D 280PA00X  73145Y  23034X 600Y 600             
317N/C              U16   -9    D 280PA00X  72780Y  20056X 600Y 600             
317N/C              U16   -10   D 280PA00X  73772Y  19935X 600Y 600             
317N/C              U1    -1    D 100PA00X 134554Y  36458X 500Y 500             
317N/C              U1    -1    D 100PA00X 135981Y  35422X 500Y 500             
317N/C              U1    -1    D 100PA00X 133127Y  35422X 500Y 500             
317N/C              U1    -1    D 100PA00X 133672Y  33745X 500Y 500             
317N/C              U1    -1    D 100PA00X 135436Y  33745X 500Y 500             
317N/C              U7    -1    D 280PA00X  25271Y  17083X 600Y 600             
317N/C              U7    -2    D 280PA00X  23808Y  15719X 600Y 600             
317N/C              U7_1  -1    D 280PA00X  79364Y  13947X 600Y 600             
317N/C              U7_1  -2    D 280PA00X  79642Y  15928X 600Y 600             
317N/C              U3_3  -S    D 280PA00X 147902Y  18501X 600Y 600             
317N/C              U3_3  -G    D 280PA00X 146982Y  18892X 600Y 600             
317N/C              U3_3  -D    D 280PA00X 146061Y  19283X 600Y 600             
317N/C              U3_1_1-S    D 280PA00X 141526Y  17254X 600Y 600             
317N/C              U3_1_1-G    D 280PA00X 142432Y  16832X 600Y 600             
317N/C              U3_1_1-D    D 280PA00X 143339Y  16409X 600Y 600             
317N/C              U15_3_-1    D 280PA00X 145656Y  12229X 600Y 600             
317N/C              U15_3_-2    D 280PA00X 146971Y  14926X 600Y 600             
317N/C              U15_1_-1    D 280PA00X 146630Y  16487X 600Y 600             
317N/C              U15_1_-2    D 280PA00X 144114Y  18121X 600Y 600             
317N/C              U18   -1    D 400PA00X 144865Y  22541X1000Y 800             
317N/C              U18   -2    D 400PA00X 147865Y  22593X1000Y 800             
317N/C              U6_1  -1    D 280PA00X 147371Y  24692X 600Y 600             
317N/C              U6_1  -2    D 280PA00X 145873Y  24771X 600Y 600             
317N/C              U15_3_-1    D 280PA00X 138976Y  13210X 600Y 600             
317N/C              U15_3_-2    D 280PA00X 139903Y  16063X 600Y 600             
317N/C              U15_3_-1    D 280PA00X 141986Y  15444X 600Y 600             
317N/C              U15_3_-2    D 280PA00X 144683Y  14129X 600Y 600             
317N/C              U11_1 -1    D 280PA00X 136794Y  12716X 600Y 600             
317N/C              U11_1 -2    D 280PA00X 137520Y  15627X 600Y 600             
317N/C              U4_2  -1    D 280PA00X  17159Y  30444X 600Y 600             
317N/C              U4_2  -2    D 280PA00X  17369Y  27451X 600Y 600             
317N/C              U4_3  -1    D 280PA00X  21536Y  20164X 600Y 600             
317N/C              U4_3  -2    D 280PA00X  23300Y  17737X 600Y 600             
317N/C              U9    -1    D 280PA00X  18624Y  17651X 600Y 600             
317N/C              U9    -2    D 280PA00X  18961Y  16189X 600Y 600             
317N/C              U13_2 -1    D 280PA00X  22100Y  27573X 600Y 600             
317N/C              U13_2 -2    D 280PA00X  24748Y  28981X 600Y 600             
317N/C              U14_1 -S    D 280PA00X 119517Y  18075X 600Y 600             
317N/C              U14_1 -G    D 280PA00X 120499Y  17885X 600Y 600             
317N/C              U14_1 -D    D 280PA00X 121480Y  17694X 600Y 600             
317N/C              U15_2_-1    D 280PA00X 119562Y  20397X 600Y 600             
317N/C              U15_2_-2    D 280PA00X 122516Y  19876X 600Y 600             
317N/C              U17_1 -1    D 280PA00X 116460Y  16542X 600Y 600             
317N/C              U17_1 -2    D 280PA00X 115434Y  13723X 600Y 600             
317N/C              U7    -1    D 280PA00X  32273Y  13522X 600Y 600             
317N/C              U7    -2    D 280PA00X  31926Y  15491X 600Y 600             
317N/C              U7    -wipe D 280PA00X  32099Y  14506X 600Y 600             
317N/C              U2    -1    D 400PA00X  12484Y  32809X1000Y1000             
317N/C              U2    -2    D 400PA00X  13983Y  29100X1000Y1000             
317N/C              U2    -11   D 400PA00X  11379Y  30205X1000Y1000             
317N/C              U13_1_-1    D 280PA00X 119655Y  13270X 600Y 600             
317N/C              U13_1_-2    D 280PA00X 120329Y  16194X 600Y 600             
317N/C              U8_1  -1    D 400PA00X  19856Y  20156X1000Y 800             
317N/C              U8_1  -2    D 400PA00X  20783Y  17302X1000Y 800             
317N/C              U8    -1    D 400PA00X  19831Y  22835X1000Y 800             
317N/C              U8    -2    D 400PA00X  18904Y  25688X1000Y 800             
317N/C              U3    -S    D 280PA00X  17848Y  19037X 600Y 600             
317N/C              U3    -G    D 280PA00X  17318Y  19885X 600Y 600             
317N/C              U3    -D    D 280PA00X  16788Y  20733X 600Y 600             
317N/C              U3_1  -S    D 280PA00X  11182Y  19076X 600Y 600             
317N/C              U3_1  -G    D 280PA00X  11959Y  18447X 600Y 600             
317N/C              U3_1  -D    D 280PA00X  12737Y  17817X 600Y 600             
317N/C              U15_3 -1    D 280PA00X  13398Y  11195X 600Y 600             
317N/C              U15_3 -2    D 280PA00X  14375Y  14032X 600Y 600             
317N/C              U15_1 -1    D 280PA00X  15836Y  18357X 600Y 600             
317N/C              U15_1 -2    D 280PA00X  13790Y  20551X 600Y 600             
317N/C              U18   -1    D 400PA00X  12428Y  22790X1000Y 800             
317N/C              U18   -2    D 400PA00X  14586Y  24874X1000Y 800             
317N/C              U6    -1    D 280PA00X  16552Y  24188X 600Y 600             
317N/C              U6    -2    D 280PA00X  15871Y  22852X 600Y 600             
317N/C              U6_1  -1    D 280PA00X  13592Y  26499X 600Y 600             
317N/C              U6_1  -2    D 280PA00X  12144Y  26111X 600Y 600             
317N/C              U15_3_-1    D 280PA00X  10599Y   9368X 600Y 600             
317N/C              U15_3_-2    D 280PA00X   9772Y  12252X 600Y 600             
317N/C              U15_3_-1    D 280PA00X   9750Y  14278X 600Y 600             
317N/C              U15_3_-2    D 280PA00X  12266Y  12644X 600Y 600             
317N/C              U11   -1    D 280PA00X  17162Y   8239X 600Y 600             
317N/C              U11   -2    D 280PA00X  16087Y  11040X 600Y 600             
317N/C              U12   -1    D 280PA00X  35528Y  22016X 690Y 690             
317N/C              U22   -1    D 280PA00X 146504Y  27984X 600Y 600             
317N/C              U13_2 -1    D 280PA00X 138408Y  20713X 600Y 600             
317N/C              U13_2 -2    D 280PA00X 135485Y  21388X 600Y 600             
317N/C              U4_1  -1    D 400PA00X 131072Y  19152X 800Y 800             
317N/C              U4_1  -2    D 400PA00X 131072Y  16152X 800Y 800             
317N/C              U5_1  -A    D 280PA00X 129350Y  16270X 600Y 600             
317N/C              U5_1  -K    D 280PA00X 129716Y  13293X 600Y 600             
317N/C              U31_2 -S    D 280PA00X  62065Y  24099X 600Y 600             
317N/C              U31_2 -G    D 280PA00X  62306Y  23128X 600Y 600             
317N/C              U31_2 -D    D 280PA00X  62548Y  22158X 600Y 600             
317N/C              U32_2 -S    D 280PA00X  63418Y  15926X 600Y 600             
317N/C              U32_2 -G    D 280PA00X  63125Y  16883X 600Y 600             
317N/C              U32_2 -D    D 280PA00X  62833Y  17839X 600Y 600             
317N/C              U7_3_1-1    D 280PA00X  67169Y  21079X 600Y 600             
317N/C              U7_3_1-2    D 280PA00X  67064Y  18081X 600Y 600             
317N/C              U7_3_1-1    D 280PA00X  67253Y  16203X 600Y 600             
317N/C              U7_3_1-2    D 280PA00X  68973Y  13745X 600Y 600             
317N/C              U7_3_1-1    D 280PA00X  68770Y  21628X 600Y 600             
317N/C              U7_3_1-2    D 280PA00X  67006Y  24055X 600Y 600             
317N/C              U7_3_1-1    D 280PA00X  68267Y  27343X 600Y 600             
317N/C              U7_3_1-2    D 280PA00X  66037Y  25336X 600Y 600             
317N/C              U7_3_1-1    D 280PA00X  69146Y  23501X 600Y 600             
317N/C              U7_3_1-2    D 280PA00X  70461Y  20805X 600Y 600             
317N/C              U7_3_1-1    D 280PA00X  67992Y  17924X 600Y 600             
317N/C              U7_3_1-2    D 280PA00X  69354Y  20597X 600Y 600             
317N/C              U7_3_1-1    D 280PA00X  61854Y  25309X 600Y 600             
317N/C              U7_3_1-2    D 280PA00X  58931Y  25984X 600Y 600             
317N/C              U7_3_1-1    D 280PA00X  58506Y  13956X 600Y 600             
317N/C              U7_3_1-2    D 280PA00X  61483Y  14321X 600Y 600             
317N/C              U34_4 -S    D 280PA00X  52958Y  25932X 600Y 600             
317N/C              U34_4 -G    D 280PA00X  52958Y  26932X 600Y 600             
317N/C              U34_4 -D    D 280PA00X  52958Y  27932X 600Y 600             
317N/C              U35_4 -S    D 280PA00X  52471Y  14321X 600Y 600             
317N/C              U35_4 -G    D 280PA00X  52229Y  13351X 600Y 600             
317N/C              U35_4 -D    D 280PA00X  51987Y  12381X 600Y 600             
317N/C              U34_1_-S    D 280PA00X  56637Y  25919X 600Y 600             
317N/C              U34_1_-G    D 280PA00X  56637Y  26919X 600Y 600             
317N/C              U34_1_-D    D 280PA00X  56637Y  27919X 600Y 600             
317N/C              U34_2_-S    D 280PA00X  49260Y  23095X 600Y 600             
317N/C              U34_2_-G    D 280PA00X  50143Y  23564X 600Y 600             
317N/C              U34_2_-D    D 280PA00X  51026Y  24034X 600Y 600             
317N/C              U34_3_-S    D 280PA00X  46152Y  25808X 600Y 600             
317N/C              U34_3_-G    D 280PA00X  47130Y  25600X 600Y 600             
317N/C              U34_3_-D    D 280PA00X  48108Y  25392X 600Y 600             
317N/C              U35_1_-S    D 280PA00X  55223Y  13975X 600Y 600             
317N/C              U35_1_-G    D 280PA00X  54981Y  13005X 600Y 600             
317N/C              U35_1_-D    D 280PA00X  54739Y  12034X 600Y 600             
317N/C              U35_2_-S    D 280PA00X  47385Y  14326X 600Y 600             
317N/C              U35_2_-G    D 280PA00X  48355Y  14568X 600Y 600             
317N/C              U35_2_-D    D 280PA00X  49326Y  14810X 600Y 600             
317N/C              U35_3_-S    D 280PA00X  49978Y  16909X 600Y 600             
317N/C              U35_3_-G    D 280PA00X  50948Y  16667X 600Y 600             
317N/C              U35_3_-D    D 280PA00X  51918Y  16425X 600Y 600             
317N/C              U7_3_1-1    D 280PA00X  60283Y  16955X 600Y 600             
317N/C              U7_3_1-2    D 280PA00X  58315Y  19219X 600Y 600             
317N/C              U7_3_1-1    D 280PA00X  55364Y  23276X 600Y 600             
317N/C              U7_3_1-2    D 280PA00X  54240Y  20494X 600Y 600             
317N/C              U7_3_1-1    D 280PA00X  50989Y  19425X 600Y 600             
317N/C              U7_3_1-2    D 280PA00X  48078Y  20150X 600Y 600             
317N/C              U7_3_1-1    D 280PA00X  49220Y  12346X 600Y 600             
317N/C              U7_3_1-2    D 280PA00X  51518Y  10418X 600Y 600             
317N/C              U7_3_1-1    D 280PA00X  41582Y  11676X 600Y 600             
317N/C              U7_3_1-2    D 280PA00X  44581Y  11728X 600Y 600             
317N/C              U7_3_1-1    D 280PA00X  42033Y  21864X 600Y 600             
317N/C              U7_3_1-2    D 280PA00X  42759Y  24774X 600Y 600             
317N/C              U38_2 -growtD 280PA00X  44101Y  16049X 600Y 600             
317N/C              U39_4 -1    D 280PA00X  48148Y  17421X 600Y 600             
317N/C              U39_4 -2    D 280PA00X  45203Y  17993X 600Y 600             
317N/C              U7_3_1-1    D 280PA00X  45090Y  23421X 600Y 600             
317N/C              U7_3_1-2    D 280PA00X  48067Y  23787X 600Y 600             
317N/C              U7_3_1-1    D 280PA00X  52594Y  23252X 600Y 600             
317N/C              U7_3_1-2    D 280PA00X  50587Y  21022X 600Y 600             
317N/C              U15_3_-1    D 280PA00X 118380Y  16781X 600Y 600             
317N/C              U15_3_-2    D 280PA00X 117757Y  13846X 600Y 600             
317N/C              U2    -1    D 280PA00X  94385Y  19369X 600Y 600             
317N/C              U2    -2    D 280PA00X  95377Y  19491X 600Y 600             
317N/C              U2    -3    D 280PA00X  96370Y  19612X 600Y 600             
317N/C              U2    -4    D 280PA00X  97363Y  19734X 600Y 600             
317N/C              U2    -5    D 280PA00X  98355Y  19856X 600Y 600             
317N/C              U2    -6    D 280PA00X  99348Y  19978X 600Y 600             
317N/C              U2    -7    D 280PA00X 100340Y  20100X 600Y 600             
317N/C              U2    -8    D 280PA00X  99975Y  23078X 600Y 600             
317N/C              U2    -9    D 280PA00X  98982Y  22956X 600Y 600             
317N/C              U2    -10   D 280PA00X  97989Y  22834X 600Y 600             
317N/C              U2    -11   D 280PA00X  96997Y  22712X 600Y 600             
317N/C              U2    -12   D 280PA00X  96004Y  22590X 600Y 600             
317N/C              U2    -13   D 280PA00X  95012Y  22468X 600Y 600             
317N/C              U2    -14   D 280PA00X  94019Y  22346X 600Y 600             
317N/C              U7_2  -1    D 280PA00X  94357Y  23783X 600Y 600             
317N/C              U7_2  -2    D 280PA00X  91556Y  22708X 600Y 600             
317N/C              U7_1_1-1    D 280PA00X 105282Y  24394X 600Y 600             
317N/C              U7_1_1-2    D 280PA00X 104710Y  27339X 600Y 600             
317N/C              U7_2_1-1    D 280PA00X  86819Y  20455X 600Y 600             
317N/C              U7_2_1-2    D 280PA00X  85599Y  17714X 600Y 600             
317N/C              U7_3  -1    D 280PA00X  91161Y  20008X 600Y 600             
317N/C              U7_3  -2    D 280PA00X  91266Y  17009X 600Y 600             
317N/C              U7_3_1-1    D 280PA00X  92500Y  20759X 600Y 600             
317N/C              U7_3_1-2    D 280PA00X  93073Y  17814X 600Y 600             
317N/C              U14_1_-S    D 280PA00X 105455Y  15131X 600Y 600             
317N/C              U14_1_-G    D 280PA00X 106043Y  14322X 600Y 600             
317N/C              U14_1_-D    D 280PA00X 106631Y  13513X 600Y 600             
317N/C              U3_2  -1    D 280PA00X 110108Y  12228X 600Y 600             
317N/C              U3_2  -2    D 280PA00X 112037Y  14526X 600Y 600             
317N/C              U3_1_2-1    D 280PA00X 107183Y  19093X 600Y 600             
317N/C              U3_1_2-2    D 280PA00X 108861Y  21580X 600Y 600             
317N/C              U7_1_1-1    D 280PA00X 100786Y  16850X 600Y 600             
317N/C              U7_1_1-2    D 280PA00X 103710Y  16175X 600Y 600             
317N/C              U7_2  -1    D 280PA00X  96222Y  23784X 600Y 600             
317N/C              U7_2  -2    D 280PA00X  99156Y  24408X 600Y 600             
317N/C              U39_1_-1    D 280PA00X  48429Y  21860X 600Y 600             
317N/C              U39_1_-2    D 280PA00X  45452Y  21494X 600Y 600             
317N/C              U16_1 -1    D 280PA00X  80093Y  22181X 600Y 600             
317N/C              U16_1 -2    D 280PA00X  79100Y  22303X 600Y 600             
317N/C              U16_1 -3    D 280PA00X  78108Y  22425X 600Y 600             
317N/C              U16_1 -4    D 280PA00X  77115Y  22547X 600Y 600             
317N/C              U16_1 -5    D 280PA00X  76123Y  22668X 600Y 600             
317N/C              U16_1 -6    D 280PA00X  75130Y  22790X 600Y 600             
317N/C              U16_1 -7    D 280PA00X  74138Y  22912X 600Y 600             
317N/C              U16_1 -8    D 280PA00X  73145Y  23034X 600Y 600             
317N/C              U16_1 -9    D 280PA00X  72780Y  20056X 600Y 600             
317N/C              U16_1 -10   D 280PA00X  73772Y  19935X 600Y 600             
317N/C              U16_1 -11   D 280PA00X  74765Y  19813X 600Y 600             
317N/C              U16_1 -12   D 280PA00X  75757Y  19691X 600Y 600             
317N/C              U16_1 -13   D 280PA00X  76750Y  19569X 600Y 600             
317N/C              U16_1 -14   D 280PA00X  77742Y  19447X 600Y 600             
317N/C              U16_1 -15   D 280PA00X  78735Y  19325X 600Y 600             
317N/C              U16_1 -16   D 280PA00X  79727Y  19203X 600Y 600             
317N/C              U7_3_1-1    D 280PA00X  94953Y  26899X 600Y 600             
317N/C              U7_3_1-2    D 280PA00X  97942Y  27160X 600Y 600             
317N/C              U7_2_1-1    D 280PA00X  81484Y  20042X 600Y 600             
317N/C              U7_2_1-2    D 280PA00X  81327Y  23038X 600Y 600             
317N/C              U7_2_1-1    D 280PA00X  74626Y  23751X 600Y 600             
317N/C              U7_2_1-2    D 280PA00X  77610Y  23437X 600Y 600             
317N/C              U7_2_1-1    D 280PA00X  74820Y  24941X 600Y 600             
317N/C              U7_2_1-2    D 280PA00X  77804Y  24627X 600Y 600             
317N/C              U7_2_1-1    D 280PA00X  76751Y  17367X 600Y 600             
317N/C              U7_2_1-2    D 280PA00X  73756Y  17524X 600Y 600             
317N/C              U7_2_1-1    D 280PA00X  76710Y  18478X 600Y 600             
317N/C              U7_2_1-2    D 280PA00X  73727Y  18791X 600Y 600             
317N/C              U7_2_1-1    D 280PA00X  85642Y  25743X 600Y 600             
317N/C              U7_2_1-2    D 280PA00X  83310Y  23855X 600Y 600             
317N/C              U7_2_1-1    D 280PA00X  83447Y  21353X 600Y 600             
317N/C              U7_2_1-2    D 280PA00X  82227Y  18613X 600Y 600             
317N/C              U17_1_-1    D 280PA00X 103631Y  23982X 600Y 600             
317N/C              U17_1_-2    D 280PA00X 102804Y  26866X 600Y 600             
317N/C              U17_2_-1    D 280PA00X  94242Y  16338X 600Y 600             
317N/C              U17_2_-2    D 280PA00X  96865Y  17792X 600Y 600             
317N/C              U17_3_-1    D 280PA00X 102011Y  22907X 600Y 600             
317N/C              U17_3_-2    D 280PA00X 100557Y  25531X 600Y 600             
317N/C              U14_1_-S    D 280PA00X 111124Y  16353X 600Y 600             
317N/C              U14_1_-G    D 280PA00X 110336Y  15738X 600Y 600             
317N/C              U14_1_-D    D 280PA00X 109548Y  15122X 600Y 600             
317N/C              U3_2_3-1    D 280PA00X 112614Y  19387X 600Y 600             
317N/C              U3_2_3-2    D 280PA00X 111346Y  22106X 600Y 600             
317N/C              U3_2_1-1    D 280PA00X 110381Y  20646X 600Y 600             
317N/C              U3_2_1-2    D 280PA00X 110224Y  17650X 600Y 600             
317N/C              U3_1_2-1    D 280PA00X 103395Y  21280X 600Y 600             
317N/C              U3_1_2-2    D 280PA00X 106156Y  20107X 600Y 600             
317N/C              U14_1_-S    D 280PA00X  87012Y  26844X 600Y 600             
317N/C              U14_1_-G    D 280PA00X  88000Y  27000X 600Y 600             
317N/C              U14_1_-D    D 280PA00X  88988Y  27156X 600Y 600             
317N/C              U14_1_-S    D 280PA00X  86865Y  24997X 600Y 600             
317N/C              U14_1_-G    D 280PA00X  87860Y  24892X 600Y 600             
317N/C              U14_1_-D    D 280PA00X  88855Y  24788X 600Y 600             
317N/C              U7_2_1-1    D 280PA00X  89015Y  23910X 600Y 600             
317N/C              U7_2_1-2    D 280PA00X  88858Y  20914X 600Y 600             
317N/C              U7_2_1-1    D 280PA00X  88508Y  20046X 600Y 600             
317N/C              U7_2_1-2    D 280PA00X  87581Y  17193X 600Y 600             
317N/C              U14_1_-S    D 280PA00X  87955Y  15985X 600Y 600             
317N/C              U14_1_-G    D 280PA00X  88111Y  14998X 600Y 600             
317N/C              U14_1_-D    D 280PA00X  88267Y  14010X 600Y 600             
317N/C              U14_1_-S    D 280PA00X  86450Y  13685X 600Y 600             
317N/C              U14_1_-G    D 280PA00X  86328Y  14678X 600Y 600             
317N/C              U14_1_-D    D 280PA00X  86206Y  15670X 600Y 600             
317N/C              U7_2_1-1    D 280PA00X  89837Y  19571X 600Y 600             
317N/C              U7_2_1-2    D 280PA00X  89368Y  16608X 600Y 600             
317N/C              U7_2_1-1    D 280PA00X  90243Y  23498X 600Y 600             
317N/C              U7_2_1-2    D 280PA00X  89930Y  20515X 600Y 600             
317N/C              U7_3_2-1    D 280PA00X  90167Y  13622X 600Y 600             
317N/C              U7_3_2-2    D 280PA00X  89958Y  10629X 600Y 600             
317N/C              U38_1_-growtD 280PA00X  44376Y  19753X 600Y 600             
317N/C              U7_3_2-1    D 280PA00X  84210Y  14268X 600Y 600             
317N/C              U7_3_2-2    D 280PA00X  84472Y  11279X 600Y 600             
317N/C              U7_3_2-1    D 280PA00X  80936Y  14998X 600Y 600             
317N/C              U7_3_2-2    D 280PA00X  83906Y  15416X 600Y 600             
317N/C              U14_2_-a    D 320PA00X  33123Y  20833X 600Y 600             
317N/C              U14_2_-k    D 320PA00X  28623Y  20833X 600Y 600             
317N/C              U7_2_1-1    D 280PA00X  84823Y  20084X 600Y 600             
317N/C              U7_2_1-2    D 280PA00X  86831Y  22314X 600Y 600             
317N/C              U7_2_1-1    D 280PA00X  85187Y  24037X 600Y 600             
317N/C              U7_2_1-2    D 280PA00X  87928Y  22816X 600Y 600             
317N/C              U14_2_-a    D 320PA00X  84567Y  27983X 600Y 600             
317N/C              U14_2_-k    D 320PA00X  80092Y  27513X 600Y 600             
317N/C              U1    -1    D 100PA00X 134554Y  36458X 500Y 500             
317N/C              U1    -1    D 100PA00X 135981Y  35422X 500Y 500             
317N/C              U1    -1    D 100PA00X 133127Y  35422X 500Y 500             
317N/C              U1    -1    D 100PA00X 133672Y  33745X 500Y 500             
317N/C              U1    -1    D 100PA00X 135436Y  33745X 500Y 500             
317N/C              U5_2  -A    D 280PA00X 103900Y  14359X 600Y 600             
317N/C              U5_2  -K    D 280PA00X 103795Y  11361X 600Y 600             
317N/C              U17_1_-1    D 280PA00X  56670Y  20267X 600Y 600             
317N/C              U17_1_-2    D 280PA00X  57985Y  22964X 600Y 600             
317N/C              U31_1_-S    D 280PA00X  64909Y  18567X 600Y 600             
317N/C              U31_1_-G    D 280PA00X  65151Y  17596X 600Y 600             
317N/C              U31_1_-D    D 280PA00X  65393Y  16626X 600Y 600             
317N/C              U32_1_-S    D 280PA00X  65569Y  22679X 600Y 600             
317N/C              U32_1_-G    D 280PA00X  65276Y  23636X 600Y 600             
317N/C              U32_1_-D    D 280PA00X  64984Y  24592X 600Y 600             
317N/C              U13_1 -1    D 280PA00X  78120Y  26749X 600Y 600             
317N/C              U15_2 -1    D 280PA00X  71010Y  26017X 600Y 600             
317N/C              U14_3_-1    D 280PA00X 108617Y  18433X 600Y 600             
317N/C              U14_3_-2    D 280PA00X 109179Y  19824X 600Y 600             
317N/C              U13_2_-1    D 280PA00X 134074Y  12531X 600Y 600             
317N/C              U13_2_-2    D 280PA00X 131076Y  12426X 600Y 600             
317N/C              U13_2_-1    D 280PA00X  30186Y   7871X 600Y 600             
317N/C              U13_2_-2    D 280PA00X  27188Y   7766X 600Y 600             
317N/C              U7_2_1-1    D 280PA00X  87040Y  29896X 600Y 600             
317N/C              U7_2_1-2    D 280PA00X  85916Y  27115X 600Y 600             
317N/C              U3_2_2-1    D 280PA00X 113163Y  15641X 600Y 600             
317N/C              U3_2_2-2    D 280PA00X 111663Y  18239X 600Y 600             
317N/C              U17   -1    D 280PA00X 115983Y  17892X 600Y 600             
317N/C              U17   -2    D 280PA00X 114483Y  17865X 600Y 600             
317N/C              U14_1_-S    D 280PA00X 109133Y  28063X 600Y 600             
317N/C              U14_1_-G    D 280PA00X 109408Y  29024X 600Y 600             
317N/C              U14_1_-D    D 280PA00X 109684Y  29985X 600Y 600             
317N/C              U14_1_-S    D 280PA00X 115581Y  24197X 600Y 600             
317N/C              U14_1_-G    D 280PA00X 114826Y  24853X 600Y 600             
317N/C              U14_1_-D    D 280PA00X 114071Y  25510X 600Y 600             
317N/C              U15_2_-1    D 280PA00X 110279Y  26873X 600Y 600             
317N/C              U15_2_-2    D 280PA00X 112000Y  29330X 600Y 600             
317N/C              U17_1_-1    D 280PA00X 115183Y  21191X 600Y 600             
317N/C              U17_1_-2    D 280PA00X 117071Y  18859X 600Y 600             
317N/C              U15_2_-1    D 280PA00X 114432Y  22368X 600Y 600             
317N/C              U15_2_-2    D 280PA00X 112504Y  24666X 600Y 600             
317N/C              U15_2_-1    D 280PA00X 113216Y  28041X 600Y 600             
317N/C              U15_2_-2    D 280PA00X 116170Y  27520X 600Y 600             
317N/C              U15_2_-1    D 280PA00X 107425Y  27069X 600Y 600             
317N/C              U15_2_-2    D 280PA00X 106649Y  24171X 600Y 600             
317N/C              U15_2_-1    D 280PA00X 108401Y  23065X 600Y 600             
317N/C              U15_2_-2    D 280PA00X 105582Y  22039X 600Y 600             
317N/C              U15_2_-1    D 280PA00X 115032Y  26403X 600Y 600             
317N/C              U15_2_-2    D 280PA00X 112077Y  26923X 600Y 600             
317N/C              U15_2_-1    D 280PA00X 116978Y  21613X 600Y 600             
317N/C              U15_2_-2    D 280PA00X 118906Y  23911X 600Y 600             
317N/C              U17_4_-1    D 280PA00X 108673Y  16357X 600Y 600             
317N/C              U17_4_-2    D 280PA00X 107217Y  16720X 600Y 600             
317N/C              U15_2_-1    D 280PA00X 112266Y  23447X 600Y 600             
317N/C              U15_2_-2    D 280PA00X 109278Y  23185X 600Y 600             
317N/C              U6    -1    D 280PA00X  17375Y  22405X 600Y 600             
317N/C              U6    -2    D 280PA00X  18712Y  21724X 600Y 600             
317N/C              U6_1_1-1    D 280PA00X 146821Y  20713X 600Y 600             
317N/C              U6_1_1-2    D 280PA00X 145323Y  20792X 600Y 600             
317N/C              U17_1_-1    D 280PA00X 108238Y  25039X 600Y 600             
317N/C              U17_1_-2    D 280PA00X 111234Y  25196X 600Y 600             
317N/C              U17_1_-1    D 280PA00X 125331Y  13214X 600Y 600             
317N/C              U17_1_-2    D 280PA00X 124656Y  16137X 600Y 600             
317N/C              U39_2_-1    D 280PA00X  43347Y  13786X 600Y 600             
317N/C              U39_2_-2    D 280PA00X  40369Y  13420X 600Y 600             
317N/C              U39_3_-1    D 280PA00X  41667Y  26132X 600Y 600             
317N/C              U39_3_-2    D 280PA00X  38690Y  25766X 600Y 600             
317N/C              U12_1_-1    D 280PA00X  37585Y  18793X 690Y 690             
317N/C              U7    -1    D 280PA00X  25271Y  17083X 600Y 600             
317N/C              U7    -2    D 280PA00X  23808Y  15719X 600Y 600             
317N/C              U7    -wipe D 280PA00X  24540Y  16401X 600Y 600             
317N/C              U7_1_2-1    D 280PA00X  79364Y  13947X 600Y 600             
317N/C              U7_1_2-2    D 280PA00X  79642Y  15928X 600Y 600             
317N/C              U7_1_2-wipe D 280PA00X  79503Y  14937X 600Y 600             
317N/C              U7_2_1-1    D 280PA00X  77491Y  15882X 600Y 600             
317N/C              U7_2_1-2    D 280PA00X  74507Y  16196X 600Y 600             
317N/C              U7_2_1-1    D 280PA00X  78710Y  18656X 600Y 600             
317N/C              U7_2_1-2    D 280PA00X  78397Y  15673X 600Y 600             
317N/C              U7_3_1-1    D 280PA00X  70478Y  23886X 600Y 600             
317N/C              U7_3_1-2    D 280PA00X  71650Y  21125X 600Y 600             
317N/C              U4_3_1-1    D 280PA00X  22841Y  21847X 600Y 600             
317N/C              U4_3_1-2    D 280PA00X  25514Y  20485X 600Y 600             
999                                                                             
