%FSTAX24Y24*%
%MOIN*%
%IN deerhorn_prov.bottomsilkscreen.ger *%
%ADD10C,0.0429*%
D10*X153429Y034286D02*G01X153Y034714D01*Y035571D01*X153429Y036D01*
X155143D01*X155571Y035571D01*Y034714D01*X155143Y034286D01*
X155571Y033D02*X153D01*X155571Y031714D02*X153Y030857D01*
X154607Y030321D01*X155571Y03D01*X154607Y030321D02*Y031393D01*
X155571Y028286D02*X153D01*Y027429D01*Y028286D02*Y029143D01*
X154286Y026571D02*Y024857D01*X153Y024D02*X155571D01*Y022286D01*
X153429Y019714D02*X153Y020143D01*Y021D01*X153429Y021429D01*X155143D01*
X155571Y021D01*Y020143D01*X155143Y019714D01*X153429D01*
X155571Y018857D02*X153D01*X155571Y017143D01*X153D01*X155571Y016286D02*
X153D01*Y015D01*X153429Y014571D01*X153857D01*X154286Y015D01*
X154714Y014571D01*X155143D01*X155571Y015D01*Y016286D01*X154286Y015D02*
Y016286D01*X155571Y013714D02*X153Y012857D01*X154607Y012321D01*
X155571Y012D01*X154607Y012321D02*Y013393D01*X155571Y011143D02*X153D01*
Y009857D01*X153429Y009429D01*X153857D01*X154286Y009857D01*
X155571Y009429D01*X154286Y009857D02*Y011143D01*X153429Y006857D02*
X153Y007286D01*Y008571D01*X155571D01*Y007286D01*X155143Y006857D01*
X153429D01*X153Y004286D02*Y006D01*X154286D01*X155571D01*Y004286D01*
X154286Y006D02*Y004714D01*
M02*