%FSTAX24Y24*%
%MOIN*%
%IN spikering.topsilkscreen.ger *%
%ADD10C,0.0050*%
%ADD11C,0.0071*%
%ADD12C,0.0100*%
%ADD13C,0.0130*%
%ADD14C,0.0140*%
%ADD15C,0.0180*%
%ADD16C,0.0190*%
%ADD17C,0.0200*%
%ADD18C,0.0250*%
%ADD19C,0.0300*%
D12*X014792Y00502D02*G01X013909Y00455D01*X014848Y002784D01*
X015731Y003254D01*X014792Y00502D01*D10*X008942Y01691D02*
X008739Y016972D01*X010944Y018258D02*X010741Y01832D01*X008898Y016887D02*
X008762Y016928D01*X009969Y017853D02*X009834Y017894D01*
X010487Y017732D02*X010352Y017773D01*X010531Y017755D02*
X010396Y017796D01*X010499Y018135D02*X010364Y018176D01*
X010543Y018158D02*X010408Y018199D01*X011167Y018263D02*
X011032Y018304D01*X011191Y018219D02*X011055Y01826D01*X008622Y017193D02*
X008554Y017213D01*X008739Y016972D02*X008671Y016993D01*
X008837Y017534D02*X008769Y017554D01*X009102Y017675D02*
X009034Y017695D01*X009383Y017145D02*X009316Y017165D01*
X009263Y017477D02*X009195Y017498D01*X009416Y017615D02*
X009349Y017636D01*X00946Y017639D02*X009393Y017659D01*X009648Y017286D02*
X009581Y017306D01*X009866Y017515D02*X009798Y017535D01*
X009913Y017426D02*X009845Y017447D01*X009957Y01745D02*X00989Y017471D01*
X01004Y01772D02*X009972Y017741D01*X010134Y017544D02*X010066Y017564D01*
X00999Y01792D02*X009923Y017941D01*X010302Y017973D02*X010234Y017994D01*
X010661Y017937D02*X010593Y017958D01*X010855Y018211D02*
X010788Y018231D01*X010973Y01799D02*X010905Y01801D01*X010967Y018213D02*
X010899Y018234D01*X011006Y01846D02*X010938Y018481D01*X008575Y017281D02*
X008554Y017213D01*X008692Y01706D02*X008671Y016993D01*X008592Y01746D02*
X008551Y017325D01*X008637Y017484D02*X008575Y017281D01*
X009095Y017048D02*X009074Y01698D01*X009078Y017719D02*X009057Y017651D01*
X00936Y017189D02*X009339Y017121D01*X009304Y017613D02*X009263Y017477D01*
X009304Y017613D02*X009242Y01741D01*X00946Y017639D02*X00944Y017571D01*
X009625Y01733D02*X009604Y017262D01*X009702Y017824D02*X009681Y017756D01*
X009866Y017515D02*X009845Y017447D01*X00984Y017671D02*X009798Y017535D01*
X009884Y017694D02*X009843Y017559D01*X010066Y017564D02*
X010045Y017497D01*X009923Y017941D02*X009902Y017874D01*
X009993Y017809D02*X009972Y017741D01*X010087Y017632D02*
X010045Y017497D01*X00999Y01792D02*X009969Y017853D01*X010154Y017611D02*
X010134Y017544D01*X010372Y017841D02*X010352Y017773D01*
X010276Y018129D02*X010234Y017994D01*X01032Y018152D02*X010278Y018017D01*
X010617Y017914D02*X010575Y017779D01*X010543Y018158D02*X010523Y01809D01*
X010661Y017937D02*X010619Y017802D01*X010761Y018387D02*X010741Y01832D01*
X010808Y018299D02*X010788Y018231D01*X010805Y018411D02*
X010785Y018343D01*X010876Y018278D02*X010855Y018211D01*
X010988Y018281D02*X010967Y018213D01*X011032Y018304D02*
X011011Y018237D01*X011167Y018263D02*X011105Y01806D01*X011191Y018219D02*
X011149Y018084D01*X009078Y017719D02*X009383Y017145D01*
X009034Y017695D02*X009339Y017121D01*X009923Y017941D02*
X010134Y017544D01*X009393Y017659D02*X009604Y017262D01*
X008551Y017325D02*X008762Y016928D01*X00999Y01792D02*X010178Y017567D01*
X00946Y017639D02*X009648Y017286D01*X010476Y018179D02*X01064Y01787D01*
X010255Y018061D02*X010419Y017752D01*X010543Y018158D02*
X010661Y017937D01*X010234Y017994D02*X010352Y017773D01*X00984Y017671D02*
X010061Y017788D01*X009702Y017824D02*X009923Y017941D01*
X008554Y017213D02*X008671Y016993D01*X010973Y01799D02*X011149Y018084D01*
X010855Y018211D02*X011032Y018304D01*X010761Y018387D02*
X010855Y018211D01*X010761Y018387D02*X010938Y018481D01*
X009819Y017603D02*X009913Y017426D01*X008898Y016887D02*X009074Y01698D01*
X008592Y01746D02*X008769Y017554D01*X011099Y018284D02*X01117Y018151D01*
X010967Y018213D02*X011099Y018284D01*X010487Y017732D02*
X010619Y017802D01*X010276Y018129D02*X010408Y018199D01*
X009913Y017426D02*X010045Y017497D01*X010788Y018231D02*
X010876Y018278D01*X010741Y01832D02*X010788Y018231D01*X010066Y017564D02*
X010154Y017611D01*X009902Y017874D02*X00999Y01792D01*X009798Y017535D02*
X009845Y017447D01*X009304Y017613D02*X009393Y017659D01*X009175Y01743D02*
X009263Y017477D01*X011167Y018263D02*X011191Y018219D01*
X011126Y018128D02*X011149Y018084D01*X010596Y017846D02*X01064Y01787D01*
X010432Y018155D02*X010476Y018179D01*X010463Y017776D02*
X010487Y017732D01*X010276Y018129D02*X010299Y018085D01*X00984Y017671D02*
X009863Y017627D01*X008874Y016931D02*X008898Y016887D01*X008592Y01746D02*
X008616Y017416D01*X00883Y016907D02*X008874Y016931D01*X008807Y016951D02*
X00883Y016907D01*X008572Y017393D02*X008616Y017416D01*X008572Y017393D02*
X008595Y017349D01*X025152Y000494D02*X025002Y000644D01*
X032352Y000494D02*X032202Y000644D01*X034152Y000744D02*
X034002Y000894D01*X035952Y000494D02*X035802Y000644D01*
X037752Y000494D02*X037602Y000644D01*X025102Y000494D02*
X025002Y000594D01*X026502Y000844D02*X026402Y000944D01*
X028702Y000494D02*X028602Y000594D01*X028752Y000494D02*
X028652Y000594D01*X028902Y000844D02*X028802Y000944D01*
X028952Y000844D02*X028852Y000944D01*X029302Y000844D02*
X029202Y000944D01*X029952Y000494D02*X029852Y000594D01*
X030102Y000844D02*X030002Y000944D01*X030152Y000844D02*
X030052Y000944D01*X030702Y000844D02*X030602Y000944D01*
X031152Y000844D02*X031052Y000944D01*X031702Y000494D02*
X031602Y000594D01*X031752Y000494D02*X031652Y000594D01*
X031902Y000844D02*X031802Y000944D01*X032302Y000744D02*
X032202Y000844D01*X032502D02*X032402Y000944D01*X032552Y000844D02*
X032452Y000944D01*X034352Y000644D02*X034252Y000744D01*
X034352Y000594D02*X034252Y000694D01*X034702Y000494D02*
X034602Y000594D01*X034752Y000494D02*X034652Y000594D01*
X034902Y000844D02*X034802Y000944D01*X034952Y000844D02*
X034852Y000944D01*X035902Y000744D02*X035802Y000844D01*X036102D02*
X036002Y000944D01*X036152Y000844D02*X036052Y000944D01*
X036552Y000844D02*X036452Y000944D01*X038502Y000844D02*
X038402Y000944D01*X025002Y000894D02*X024952Y000944D01*
X025002Y000644D02*X024952Y000694D01*X025352Y001094D02*
X025302Y001144D01*X025802Y000894D02*X025752Y000944D01*
X025852Y001094D02*X025802Y001144D01*X025852Y000894D02*
X025802Y000944D01*X025852Y000494D02*X025802Y000544D01*
X026252Y000594D02*X026202Y000644D01*X026252Y000494D02*
X026202Y000544D01*X026302Y000494D02*X026252Y000544D01*
X026502Y000694D02*X026452Y000744D01*X026502Y000494D02*
X026452Y000544D01*X026552Y000894D02*X026502Y000944D01*
X026902Y000894D02*X026852Y000944D01*X026952Y001044D02*
X026902Y001094D01*X026952Y000494D02*X026902Y000544D01*
X027002Y000944D02*X026952Y000994D01*X027002Y000494D02*
X026952Y000544D01*X028002Y001094D02*X027952Y001144D01*
X028002Y000494D02*X027952Y000544D01*X028052Y000494D02*
X028002Y000544D01*X028652Y000794D02*X028602Y000844D01*
X028952Y000594D02*X028902Y000644D01*X029252Y000494D02*
X029202Y000544D01*X029502Y000894D02*X029452Y000944D01*
X029552Y000894D02*X029502Y000944D01*X029552Y000494D02*
X029502Y000544D01*X029852Y001094D02*X029802Y001144D01*
X029852Y000494D02*X029802Y000544D01*X029902Y000894D02*
X029852Y000944D01*X029952Y000494D02*X029902Y000544D01*
X030152Y000594D02*X030102Y000644D01*X030452Y000594D02*
X030402Y000644D01*X030452Y000494D02*X030402Y000544D01*
X030502Y000494D02*X030452Y000544D01*X030702Y000694D02*
X030652Y000744D01*X030702Y000494D02*X030652Y000544D01*
X030752Y000894D02*X030702Y000944D01*X031102Y000494D02*
X031052Y000544D01*X031352Y000894D02*X031302Y000944D01*
X031652Y000794D02*X031602Y000844D01*X031852Y000894D02*
X031802Y000944D01*X031902Y000494D02*X031852Y000544D01*
X031952Y001094D02*X031902Y001144D01*X032302Y000594D02*
X032252Y000644D01*X032352Y000494D02*X032302Y000544D01*
X032552Y000744D02*X032502Y000794D01*X033402Y001094D02*
X033352Y001144D01*X033402Y000494D02*X033352Y000544D01*
X033452Y000844D02*X033402Y000894D01*X033452Y000494D02*
X033402Y000544D01*X034052Y000744D02*X034002Y000794D01*
X034052Y000494D02*X034002Y000544D01*X034152Y000694D02*
X034102Y000744D01*X034302Y000894D02*X034252Y000944D01*
X034652Y000794D02*X034602Y000844D01*X034952Y000594D02*
X034902Y000644D01*X035302Y000894D02*X035252Y000944D01*
X035352Y001044D02*X035302Y001094D01*X035352Y000494D02*
X035302Y000544D01*X035402Y000944D02*X035352Y000994D01*
X035402Y000494D02*X035352Y000544D01*X035902Y000594D02*
X035852Y000644D01*X035952Y000494D02*X035902Y000544D01*
X036152Y000744D02*X036102Y000794D01*X036502Y000494D02*
X036452Y000544D01*X036752Y000894D02*X036702Y000944D01*
X037202Y000894D02*X037152Y000944D01*X037252Y001094D02*
X037202Y001144D01*X037252Y000894D02*X037202Y000944D01*
X037252Y000494D02*X037202Y000544D01*X037652Y000744D02*
X037602Y000794D01*X037702Y000844D02*X037652Y000894D01*
X037702Y000594D02*X037652Y000644D01*X037752Y000494D02*
X037702Y000544D01*X037952Y000894D02*X037902Y000944D01*
X038252Y000594D02*X038202Y000644D01*X038252Y000494D02*
X038202Y000544D01*X038302Y000494D02*X038252Y000544D01*
X038502Y000694D02*X038452Y000744D01*X038502Y000494D02*
X038452Y000544D01*X038552Y000894D02*X038502Y000944D01*
X025002Y000994D02*X024952Y000944D01*X025002Y000744D02*
X024952Y000694D01*X025102Y001144D02*X025002Y001044D01*
X025152Y001144D02*X025002Y000994D01*X025352Y000544D02*
X025302Y000494D01*X025852Y001144D02*X025802Y001094D01*
X025852Y000944D02*X025802Y000894D01*X025852Y000544D02*
X025802Y000494D01*X026252Y000944D02*X026202Y000894D01*
X026252Y000594D02*X026202Y000544D01*X026302Y000744D02*
X026202Y000644D01*X026352Y000744D02*X026252Y000644D01*
X026452Y000544D02*X026402Y000494D01*X026502Y000944D02*
X026452Y000894D01*X026502Y000794D02*X026452Y000744D01*
X026502Y000594D02*X026402Y000494D01*X026552Y000894D02*
X026502Y000844D01*X026552Y000544D02*X026502Y000494D01*
X026902Y000994D02*X026852Y000944D01*X026952Y001094D02*
X026902Y001044D01*X026952Y000594D02*X026902Y000544D01*
X027002Y000944D02*X026952Y000894D01*X027152Y000544D02*
X027102Y000494D01*X028002Y001144D02*X027952Y001094D01*
X028002Y000544D02*X027952Y000494D01*X028652Y000644D02*
X028602Y000594D01*X028702Y000944D02*X028602Y000844D01*
X028752Y000944D02*X028652Y000844D01*X028902Y000594D02*
X028802Y000494D01*X028952Y000844D02*X028902Y000794D01*
X028952Y000594D02*X028852Y000494D01*X029252Y000944D02*
X029202Y000894D01*X029252Y000544D02*X029202Y000494D01*
X029402Y000944D02*X029252Y000794D01*X029402Y000944D02*
X029302Y000844D01*X029552Y000894D02*X029502Y000844D01*
X029552Y000544D02*X029502Y000494D01*X029852Y001144D02*
X029802Y001094D01*X029902Y000544D02*X029852Y000494D01*
X029952Y000944D02*X029852Y000844D01*X029952Y000944D02*
X029902Y000894D01*X030102Y000594D02*X030002Y000494D01*
X030152Y000844D02*X030102Y000794D01*X030152Y000594D02*
X030052Y000494D01*X030452Y000944D02*X030402Y000894D01*
X030452Y000594D02*X030402Y000544D01*X030502Y000744D02*
X030402Y000644D01*X030552Y000744D02*X030452Y000644D01*
X030652Y000544D02*X030602Y000494D01*X030702Y000944D02*
X030652Y000894D01*X030702Y000794D02*X030652Y000744D01*
X030702Y000594D02*X030602Y000494D01*X030752Y000894D02*
X030702Y000844D01*X030752Y000544D02*X030702Y000494D01*
X031102Y000944D02*X031052Y000894D01*X031102Y000544D02*
X031052Y000494D01*X031252Y000944D02*X031152Y000844D01*
X031252Y000944D02*X031102Y000794D01*X031652Y000644D02*
X031602Y000594D01*X031702Y000944D02*X031602Y000844D01*
X031752Y000944D02*X031652Y000844D01*X031852Y000544D02*
X031802Y000494D01*X031902Y000944D02*X031852Y000894D01*
X031902Y000594D02*X031802Y000494D01*X031952Y001144D02*
X031902Y001094D01*X031952Y000544D02*X031902Y000494D01*
X032302Y000944D02*X032202Y000844D01*X032302Y000744D02*
X032202Y000644D01*X032302Y000594D02*X032252Y000544D01*
X032352Y000944D02*X032252Y000844D01*X032552D02*X032452Y000744D01*
X032552Y000794D02*X032502Y000744D01*X032552Y000544D02*
X032502Y000494D01*X033402Y001144D02*X033352Y001094D01*
X033402Y000544D02*X033352Y000494D01*X033452Y001144D02*
X033402Y001094D01*X033452Y000844D02*X033402Y000794D01*
X034052Y000944D02*X034002Y000894D01*X034052Y000844D02*
X034002Y000794D01*X034102Y000944D02*X034052Y000894D01*
X034102Y000794D02*X034052Y000744D01*X034202D02*X034152Y000694D01*
X034252Y000744D02*X034202Y000694D01*X034352Y000644D02*
X034202Y000494D01*X034352Y000594D02*X034252Y000494D01*
X034652Y000644D02*X034602Y000594D01*X034702Y000944D02*
X034602Y000844D01*X034752Y000944D02*X034652Y000844D01*
X034902Y000594D02*X034802Y000494D01*X034952Y000844D02*
X034902Y000794D01*X034952Y000594D02*X034852Y000494D01*
X035302Y000994D02*X035252Y000944D01*X035352Y001094D02*
X035302Y001044D01*X035352Y000594D02*X035302Y000544D01*
X035402Y000944D02*X035352Y000894D01*X035552Y000544D02*
X035502Y000494D01*X035902Y000944D02*X035802Y000844D01*
X035902Y000744D02*X035802Y000644D01*X035902Y000594D02*
X035852Y000544D01*X035952Y000944D02*X035852Y000844D01*X036152D02*
X036052Y000744D01*X036152Y000794D02*X036102Y000744D01*
X036152Y000544D02*X036102Y000494D01*X036502Y000944D02*
X036452Y000894D01*X036502Y000544D02*X036452Y000494D01*
X036652Y000944D02*X036552Y000844D01*X036652Y000944D02*
X036502Y000794D01*X037252Y001144D02*X037202Y001094D01*
X037252Y000944D02*X037202Y000894D01*X037252Y000544D02*
X037202Y000494D01*X037652Y000694D02*X037602Y000644D01*
X037702Y000844D02*X037652Y000794D01*X037702Y000594D02*
X037652Y000544D01*X037752Y000944D02*X037702Y000894D01*
X037752Y000944D02*X037602Y000794D01*X037952Y000544D02*
X037902Y000494D01*X038252Y000944D02*X038202Y000894D01*
X038252Y000594D02*X038202Y000544D01*X038302Y000744D02*
X038202Y000644D01*X038352Y000744D02*X038252Y000644D01*
X038452Y000544D02*X038402Y000494D01*X038502Y000944D02*
X038452Y000894D01*X038502Y000794D02*X038452Y000744D01*
X038502Y000594D02*X038402Y000494D01*X038552Y000894D02*
X038502Y000844D01*X038552Y000544D02*X038502Y000494D01*
X033402Y001144D02*Y000494D01*X033352Y001144D02*Y000494D01*
X031952Y001144D02*Y000494D01*X031902Y001144D02*Y000494D01*
X029852Y001144D02*Y000494D01*X029802Y001144D02*Y000494D01*
X028002Y001144D02*Y000494D01*X027952Y001144D02*Y000494D01*
X035352Y001094D02*Y000494D01*X026952Y001094D02*Y000494D01*
X035302Y001094D02*Y000544D01*X026902Y001094D02*Y000544D01*
X038502Y000944D02*Y000494D01*X037252Y000944D02*Y000494D01*
X037202Y000944D02*Y000494D01*X036502Y000944D02*Y000494D01*
X036452Y000944D02*Y000494D01*X031102Y000944D02*Y000494D01*
X031052Y000944D02*Y000494D01*X030702Y000944D02*Y000494D01*
X029502Y000944D02*Y000494D01*X029252Y000944D02*Y000494D01*
X029202Y000944D02*Y000494D01*X026502Y000944D02*Y000494D01*
X025852Y000944D02*Y000494D01*X025802Y000944D02*Y000494D01*
X025002Y001044D02*Y000594D01*X038552Y000894D02*Y000494D01*X033352D02*
X033752D01*X033352Y000844D02*X033752D01*X033352Y001144D02*X033752D01*
X030752Y000894D02*Y000494D01*X029552Y000894D02*Y000494D01*X027952D02*
X028352D01*X026552Y000894D02*Y000494D01*X037652Y000894D02*Y000544D01*
X035852Y000894D02*Y000544D01*X035802Y000744D02*X036152D01*
X034902Y000894D02*Y000544D01*X034652Y000894D02*Y000544D01*
X032252Y000894D02*Y000544D01*X032202Y000744D02*X032552D01*
X031652Y000894D02*Y000544D01*X030102Y000894D02*Y000544D01*
X028902Y000894D02*Y000544D01*X028652Y000894D02*Y000544D01*
X035202Y000944D02*X035502D01*X026802D02*X027102D01*X038302Y000744D02*
X038552D01*X038252Y000944D02*X038502D01*X034952Y000844D02*Y000594D01*
X034602Y000844D02*Y000594D01*X031602Y000844D02*Y000594D01*
X030502Y000744D02*X030752D01*X030452Y000944D02*X030702D01*
X030152Y000844D02*Y000594D01*X028952Y000844D02*Y000594D01*
X028602Y000844D02*Y000594D01*X027452Y000744D02*X027702D01*X026302D02*
X026552D01*X026252Y000944D02*X026502D01*X024952D02*Y000694D01*
X038252D02*Y000494D01*X037052Y000944D02*X037252D01*X035802Y000844D02*
Y000644D01*X034052Y000494D02*X034252D01*X034052Y000744D02*X034252D01*
X034052Y000944D02*Y000744D01*Y000944D02*X034252D01*X032202Y000844D02*
Y000644D01*X030452Y000694D02*Y000494D01*X026252Y000694D02*Y000494D01*
X025652Y000944D02*X025852D01*X025102Y000494D02*X025302D01*
X025102Y001144D02*X025302D01*X038252Y000494D02*X038402D01*X037752D02*
X037902D01*X037752Y000944D02*X037902D01*X037602Y000794D02*Y000644D01*
X036102Y000894D02*Y000744D01*X035952Y000494D02*X036102D01*
X035902Y000944D02*X036052D01*X035352Y000494D02*X035502D01*X034702D02*
X034852D01*X034702Y000944D02*X034852D01*X034302Y000694D02*Y000544D01*
X034152Y000694D02*X034302D01*X032502Y000894D02*Y000744D01*
X032352Y000494D02*X032502D01*X032302Y000944D02*X032452D01*
X030452Y000494D02*X030602D01*X028702D02*X028852D01*X028702Y000944D02*
X028852D01*X026952Y000494D02*X027102D01*X026252D02*X026402D01*
X038452Y000544D02*X038552D01*X038452Y000894D02*X038552D01*
X038202Y000644D02*Y000544D01*X036452Y000844D02*X036552D01*X036152D02*
Y000744D01*X034002Y000794D02*X034102D01*X034002Y000894D02*Y000794D01*
X032552Y000844D02*Y000744D01*X031852Y000544D02*X031952D01*
X031852Y000894D02*X031952D01*X031702Y000494D02*X031802D01*
X031702Y000944D02*X031802D01*X031052Y000844D02*X031152D01*
X030652Y000544D02*X030752D01*X030652Y000894D02*X030752D01*
X030402Y000644D02*Y000544D01*X029952Y000494D02*X030052D01*
X029952Y000944D02*X030052D01*X029802Y000544D02*X029902D01*
X029802Y000894D02*X029902D01*X029402Y000944D02*X029502D01*
X029202Y000844D02*X029302D01*X026452Y000544D02*X026552D01*
X026452Y000894D02*X026552D01*X026202Y000644D02*Y000544D01*
X038302Y000744D02*Y000694D01*X037702Y000594D02*Y000544D01*Y000894D02*
Y000844D01*X037252Y001144D02*Y001094D01*X037202D01*Y001144D02*
X037252D01*X036652Y000944D02*X036702D01*X036052Y000894D02*X036102D01*
X035902Y000594D02*Y000544D01*Y000944D02*Y000894D01*X034852Y000544D02*
X034902D01*X034852Y000894D02*X034902D01*X034702Y000544D02*Y000494D01*
Y000944D02*Y000894D01*X034352Y000644D02*Y000594D01*X034252Y000544D02*
X034302D01*X032452Y000894D02*X032502D01*X032302Y000594D02*Y000544D01*
Y000944D02*Y000894D01*X031702Y000544D02*Y000494D01*Y000944D02*
Y000894D01*X031252Y000944D02*X031302D01*X030502Y000744D02*Y000694D01*
X030052Y000544D02*Y000494D01*Y000894D02*X030102D01*X028852Y000544D02*
Y000494D01*Y000894D02*X028902D01*X028702Y000544D02*Y000494D01*
Y000944D02*Y000894D01*X026302Y000744D02*Y000694D01*X025852Y001144D02*
Y001094D01*X025802D01*Y001144D01*X025102Y000544D02*Y000494D01*
Y001144D02*Y001094D01*X025052Y000544D02*X025102D01*X025052Y000594D02*
Y000544D01*Y001094D02*Y001044D01*X013387Y005355D02*X013184Y005417D01*
X013916Y005637D02*X013713Y005699D01*X012687Y005606D02*
X012552Y005647D01*X013225Y005552D02*X01309Y005594D01*X013355Y005734D02*
X013219Y005776D01*X013399Y005758D02*X013264Y005799D01*
X014414Y006298D02*X014279Y006339D01*X012443Y005533D02*
X012375Y005553D01*X012724Y005003D02*X012657Y005024D01*
X012768Y005026D02*X012701Y005047D01*X012619Y005627D02*
X012552Y005647D01*X012731Y005629D02*X012663Y00565D01*X012778Y005541D02*
X01271Y005562D01*X012942Y005232D02*X012875Y005253D01*X012822Y005565D02*
X012754Y005585D01*X012939Y005344D02*X012872Y005364D01*X013295Y00542D02*
X013228Y00544D01*X013387Y005355D02*X013319Y005376D01*X013446Y00567D02*
X013378Y00569D01*X013711Y00581D02*X013643Y005831D01*X013708Y005922D02*
X01364Y005943D01*X013825Y005702D02*X013758Y005722D01*X013916Y005637D02*
X013849Y005657D01*X013905Y006084D02*X013837Y006104D01*X014311Y00596D02*
X014243Y00598D01*X014358Y005871D02*X01429Y005892D01*X014402Y005895D02*
X014334Y005916D01*X014485Y006165D02*X014417Y006186D01*
X014578Y005989D02*X014511Y006009D01*X014435Y006365D02*
X014367Y006386D01*X014611Y006459D02*X014544Y00648D01*X014656Y006483D02*
X014588Y006503D01*X014703Y006395D02*X014635Y006415D01*
X014747Y006418D02*X014679Y006439D01*X014817Y006286D02*
X014749Y006306D01*X014861Y006309D02*X014794Y00633D01*X014908Y006221D02*
X014841Y006241D01*X014952Y006244D02*X014885Y006265D01*
X015023Y006112D02*X014955Y006132D01*X014994Y006379D02*X014926Y0064D01*
X014991Y006491D02*X014923Y006512D01*X014988Y006603D02*X01492Y006624D01*
X012419Y005577D02*X012398Y005509D01*X012701Y005047D02*X01268Y004979D01*
X012463Y0056D02*X012443Y005533D01*X012877Y005141D02*X012857Y005073D01*
X012898Y005209D01*X012731Y005629D02*X01271Y005562D01*X012895Y00532D02*
X012875Y005253D01*X012942Y005232D02*X012922Y005164D01*
X012822Y005565D02*X012801Y005497D01*X012939Y005344D02*
X012919Y005276D01*X013131Y005729D02*X01309Y005594D01*X013225Y005552D02*
X013184Y005417D01*X013295Y00542D02*X013275Y005352D01*X013175Y005752D02*
X013134Y005617D01*X013399Y005758D02*X013357Y005623D01*
X013422Y005714D02*X013402Y005646D01*X01354Y005493D02*X013519Y005425D01*
X013734Y005766D02*X013713Y005699D01*X013708Y005922D02*
X013687Y005855D01*X013825Y005702D02*X013805Y005634D01*
X013705Y006034D02*X013643Y005831D01*X013705Y006034D02*
X013684Y005966D01*X014069Y005775D02*X014049Y005707D01*
X014146Y006269D02*X014126Y006201D01*X014311Y00596D02*X01429Y005892D01*
X014285Y006116D02*X014243Y00598D01*X014329Y006139D02*X014287Y006004D01*
X014511Y006009D02*X01449Y005942D01*X014367Y006386D02*X014347Y006318D01*
X014438Y006254D02*X014417Y006186D01*X014532Y006077D02*X01449Y005942D01*
X014435Y006365D02*X014414Y006298D01*X014599Y006056D02*
X014578Y005989D01*X014656Y006483D02*X014635Y006415D01*
X014747Y006418D02*X014726Y00635D01*X01477Y006374D02*X014749Y006306D01*
X014861Y006309D02*X014841Y006241D01*X014979Y006088D02*
X014937Y005953D01*X015023Y006112D02*X014981Y005977D01*
X014973Y006312D02*X014932Y006177D01*X014996Y006268D02*X014976Y0062D01*
X014947Y006468D02*X014926Y0064D01*X014994Y006379D02*X014973Y006312D01*
X014944Y00658D02*X014923Y006512D01*X014991Y006491D02*X01497Y006424D01*
X014941Y006691D02*X01492Y006624D01*X014988Y006603D02*X014967Y006535D01*
X014985Y006715D02*X014965Y006647D01*X012419Y005577D02*
X012724Y005003D01*X012375Y005553D02*X01268Y004979D01*X014367Y006386D02*
X014578Y005989D01*X012731Y005629D02*X012942Y005232D01*
X014435Y006365D02*X014623Y006012D01*X01364Y005943D02*X013805Y005634D01*
X01311Y005661D02*X013275Y005352D01*X013137Y005505D02*X013446Y00567D01*
X014861Y006309D02*X015002Y006044D01*X014285Y006116D02*
X014505Y006233D01*X014146Y006269D02*X014367Y006386D01*
X012822Y005565D02*X012939Y005344D01*X014747Y006418D02*
X014841Y006241D01*X014656Y006483D02*X014749Y006306D01*
X014264Y006048D02*X014358Y005871D01*X01309Y005594D02*X013184Y005417D01*
X01268Y004979D02*X012857Y005073D01*X012375Y005553D02*X012552Y005647D01*
X01492Y006624D02*X014991Y006491D01*X014923Y006512D02*X014994Y006379D01*
X014926Y0064D02*X014996Y006268D01*X014952Y006244D02*X015023Y006112D01*
X014849Y005906D02*X014981Y005977D01*X014358Y005871D02*X01449Y005942D01*
X013916Y005637D02*X014049Y005707D01*X013705Y006034D02*
X013837Y006104D01*X013643Y005831D02*X013713Y005699D01*
X013331Y005779D02*X013402Y005646D01*X013387Y005355D02*
X013519Y005425D01*X013131Y005729D02*X013264Y005799D01*
X014941Y006691D02*X014988Y006603D01*X014588Y006503D02*
X014635Y006415D01*X014511Y006009D02*X014599Y006056D01*
X014347Y006318D02*X014435Y006365D01*X014243Y00598D02*X01429Y005892D01*
X013399Y005758D02*X013446Y00567D01*X012875Y005253D02*X012922Y005164D01*
X012663Y00565D02*X01271Y005562D01*X014941Y006691D02*X014985Y006715D01*
X014958Y006021D02*X015002Y006044D01*X014544Y00648D02*X014588Y006503D01*
X014285Y006116D02*X014308Y006071D01*X013825Y005702D02*
X013849Y005657D01*X013684Y005966D02*X013708Y005922D01*
X013287Y005755D02*X013331Y005779D01*X013295Y00542D02*X013319Y005376D01*
X013131Y005729D02*X013155Y005685D01*X012877Y005141D02*
X012922Y005164D01*X012619Y005627D02*X012663Y00565D01*X006132Y021742D02*
X006335Y02168D01*X007847Y022031D02*X007983Y021989D01*X007803Y022007D02*
X007939Y021966D01*X008136Y022128D02*X008203Y022107D01*
X007854Y022657D02*X007922Y022637D01*X007951Y022369D02*
X008018Y022348D01*X007733Y02214D02*X007801Y022119D01*X007336Y021929D02*
X007403Y021908D01*X007385Y021728D02*X007453Y021708D01*
X007291Y021905D02*X007359Y021884D01*X007104Y022258D02*
X007171Y022238D01*X006894Y021694D02*X006962Y021673D01*X00692Y021538D02*
X006988Y021517D01*X006662Y022024D02*X00673Y022003D01*X006829Y021603D02*
X006897Y021582D01*X006618Y022D02*X006686Y021979D01*X006338Y021568D02*
X006406Y021547D01*X006341Y021456D02*X006408Y021436D01*
X006223Y021677D02*X006291Y021656D01*X006132Y021742D02*X0062Y021721D01*
X006144Y021295D02*X006211Y021274D01*X005973Y020977D02*X00604Y020957D01*
X005691Y021507D02*X005759Y021486D01*X005811Y021175D02*
X005879Y021154D01*X005658Y021037D02*X005726Y021016D01*
X005614Y021013D02*X005681Y020992D01*X005426Y021366D02*
X005494Y021346D01*X008159Y022083D02*X00818Y022151D01*X007878Y022613D02*
X007898Y022681D01*X008115Y02206D02*X008136Y022128D01*X007951Y022369D02*
X007972Y022437D01*X007777Y022163D02*X007818Y022299D01*
X007803Y022007D02*X007824Y022075D01*X007733Y02214D02*X007774Y022275D01*
X007409Y021684D02*X007429Y021752D01*X007315Y021861D02*
X007336Y021929D01*X007127Y022214D02*X007148Y022282D01*
X006941Y021606D02*X006962Y021673D01*X006944Y021494D02*
X006965Y021561D01*X006709Y021935D02*X00673Y022003D01*X006829Y021603D02*
X00685Y02167D01*X006509Y021885D02*X00653Y021953D01*X006315Y021612D02*
X006335Y02168D01*X006341Y021456D02*X006362Y021524D01*X006223Y021677D02*
X006244Y021745D01*X006344Y021344D02*X006406Y021547D01*
X006344Y021344D02*X006364Y021412D01*X005979Y021604D02*X006Y021671D01*
X005996Y020933D02*X006017Y021001D01*X005714Y021463D02*
X005735Y021531D01*X00577Y021039D02*X005832Y021242D01*X00577Y021039D02*
X005811Y021175D01*X005614Y021013D02*X005635Y021081D01*X00545Y021322D02*
X00547Y02139D01*X005996Y020933D02*X005691Y021507D01*X00604Y020957D02*
X005735Y021531D01*X008159Y022083D02*X007854Y022657D01*
X008203Y022107D02*X007898Y022681D01*X006944Y021494D02*
X006662Y022024D01*X006988Y021517D02*X00673Y022003D01*X005681Y020992D02*
X00547Y02139D01*X007315Y021861D02*X007104Y022258D01*X007359Y021884D02*
X007148Y022282D01*X005614Y021013D02*X005426Y021366D01*
X006408Y021436D02*X006244Y021745D01*X007006Y021697D02*
X006741Y021556D01*X008039Y022416D02*X007774Y022275D01*
X008203Y022107D02*X007939Y021966D01*X007871Y021987D02*
X007754Y022207D01*X007491Y021955D02*X007315Y021861D01*
X006132Y021742D02*X006Y021671D01*X006344Y021344D02*X006211Y021274D01*
X006406Y021547D02*X006335Y02168D01*X006662Y022024D02*X00653Y021953D01*
X007803Y022007D02*X007733Y02214D01*X00577Y021039D02*X005681Y020992D01*
X005899Y021222D02*X005811Y021175D01*X006223Y021677D02*X0062Y021721D01*
X006364Y021412D02*X006341Y021456D01*X007409Y021684D02*
X007385Y021728D01*X007429Y021752D01*X007453Y021708D02*
X007409Y021684D01*X007798Y022231D02*X007754Y022207D01*X007915Y02201D02*
X007871Y021987D01*X037547Y011975D02*X037633Y011781D01*X0375Y011993D02*
X037586Y011799D01*X037134Y012294D02*X03722Y012101D01*X036484Y012276D02*
X03657Y012082D01*X033773Y013585D02*X033859Y013391D01*X033213Y0138D02*
X033299Y013606D01*X037357Y01162D02*X037414Y01149D01*X03731Y011638D02*
X037368Y011508D01*X037507Y012151D02*X037565Y012022D01*X03746Y012169D02*
X037518Y01204D01*X037091Y012043D02*X037148Y011914D01*X036868Y012021D02*
X036926Y011892D01*X036822Y012039D02*X036879Y01191D01*X036333Y012441D02*
X036391Y012312D01*X036351Y012488D02*X036408Y012359D01*X03606Y012707D02*
X036118Y012577D01*X036013Y012724D02*X036071Y012595D01*
X035748Y012451D02*X035805Y012322D01*X035701Y012469D02*X035759Y01234D01*
X035374Y012595D02*X035432Y012466D01*X034628Y012881D02*
X034685Y012752D01*X034254Y013025D02*X034312Y012896D01*X03317Y013548D02*
X033227Y013419D01*X032947Y013527D02*X033005Y013397D01*X0329Y013544D02*
X032958Y013415D01*X037619Y011465D02*X037648Y011401D01*
X037834Y012026D02*X037863Y011961D01*X03768Y011763D02*X037708Y011699D01*
X037364Y011778D02*X037393Y011713D01*X037144Y012183D02*
X037173Y012119D01*X037134Y012294D02*X037162Y01223D01*X036857Y012133D02*
X036886Y012068D01*X036577Y01224D02*X036606Y012176D01*X036667Y012474D02*
X036696Y012409D01*X036502Y012323D02*X036531Y012258D01*X03629Y01219D02*
X036319Y012125D01*X035999Y012409D02*X036028Y012344D01*
X035791Y012703D02*X03582Y012638D01*X035547Y012904D02*X035575Y012839D01*
X03517Y01262D02*X035199Y012555D01*X035123Y012638D02*X035152Y012573D01*
X035266Y013011D02*X035295Y012947D01*X034951Y013025D02*
X034979Y012961D01*X034986Y013119D02*X035015Y013054D01*X03494Y013137D02*
X034969Y013072D01*X034681Y013022D02*X03471Y012957D01*X034753Y013208D02*
X034782Y013144D01*X034563Y012853D02*X034592Y012788D01*
X034426Y013334D02*X034455Y013269D01*X03405Y01305D02*X034078Y012985D01*
X034003Y013068D02*X034032Y013003D01*X034146Y013441D02*
X034175Y013377D01*X033777Y013315D02*X033805Y013251D01*X033694Y01324D02*
X033723Y013175D01*X033784Y013473D02*X033812Y013409D01*
X033773Y013585D02*X033802Y01352D01*X033443Y013283D02*X033471Y013218D01*
X033223Y013688D02*X033252Y013624D01*X033213Y0138D02*X033241Y013735D01*
X032936Y013638D02*X032965Y013573D01*X037601Y011419D02*
X037666Y011448D01*X037816Y011979D02*X037881Y012008D01*
X037554Y011437D02*X037619Y011465D01*X03768Y011763D02*X037744Y011792D01*
X037475Y011788D02*X037604Y011846D01*X03741Y01176D01*X0375Y011993D02*
X037565Y012022D01*X03731Y011638D02*X037375Y011666D01*X037364Y011778D02*
X037428Y011806D01*X037019Y011856D02*X037148Y011914D01*
X037091Y012043D02*X03722Y012101D01*X037144Y012183D02*X037209Y012212D01*
X036972Y011874D02*X037102Y011932D01*X036822Y012039D02*
X036951Y012097D01*X036839Y012086D02*X036904Y012115D01*
X036929Y012319D02*X036994Y012348D01*X036506Y012053D02*X03657Y012082D01*
X036541Y012147D02*X036606Y012176D01*X036459Y012071D02*X036524Y0121D01*
X036513Y012211D02*X036577Y01224D01*X036437Y012294D02*X036502Y012323D01*
X036391Y012312D02*X036455Y012341D01*X036333Y012441D02*
X036527Y012527D01*X036351Y012488D02*X03648Y012545D01*X036053Y012549D02*
X036118Y012577D01*X035899Y012286D02*X036028Y012344D01*
X035852Y012304D02*X035981Y012362D01*X035837Y012685D02*
X035967Y012742D01*X035701Y012469D02*X035766Y012498D01*
X035791Y012703D02*X03592Y01276D01*X035385Y012484D02*X03545Y012512D01*
X035529Y012857D02*X035593Y012886D01*X035245Y012537D02*
X035439Y012624D01*X035245Y012537D02*X035374Y012595D01*
X035123Y012638D02*X035188Y012666D01*X035249Y012964D02*
X035313Y012993D01*X034825Y012699D02*X03489Y012727D01*X034951Y013025D02*
X035015Y013054D01*X03485Y012903D02*X034979Y012961D01*X034803Y012921D02*
X034933Y012979D01*X034782Y013144D02*X034846Y013172D01*
X034592Y012788D02*X034656Y012817D01*X034646Y012928D02*X03471Y012957D01*
X034717Y013115D02*X034846Y013172D01*X034563Y012853D02*
X034628Y012881D01*X034688Y013179D02*X034753Y013208D01*
X034265Y012914D02*X03433Y012942D01*X034408Y013287D02*X034473Y013316D01*
X034125Y012967D02*X034254Y013025D01*X034125Y012967D02*
X034319Y013054D01*X034003Y013068D02*X034067Y013096D01*
X034128Y013394D02*X034193Y013423D01*X033794Y013362D02*
X033859Y013391D01*X033694Y01324D02*X033759Y013269D01*X033784Y013473D02*
X033848Y013502D01*X033612Y013164D02*X033805Y013251D01*
X033612Y013164D02*X033676Y013193D01*X033568Y01361D02*X033633Y013638D01*
X033098Y013362D02*X033227Y013419D01*X03317Y013548D02*X033299Y013606D01*
X033223Y013688D02*X033288Y013717D01*X033051Y013379D02*
X033181Y013437D01*X0329Y013544D02*X03303Y013602D01*X032918Y013591D02*
X032983Y01362D01*X033008Y013825D02*X033073Y013853D01*X037601Y011419D02*
X037834Y012026D01*X037648Y011401D02*X037881Y012008D01*
X034032Y013003D02*X034193Y013423D01*X034265Y012914D02*
X034426Y013334D01*X034312Y012896D02*X034473Y013316D01*
X034592Y012788D02*X034753Y013208D01*X035152Y012573D02*
X035313Y012993D01*X035385Y012484D02*X035547Y012904D01*
X035432Y012466D02*X035593Y012886D01*X034003Y013068D02*
X034146Y013441D01*X034563Y012853D02*X034706Y013226D01*
X035123Y012638D02*X035266Y013011D01*X033163Y01339D02*X033288Y013717D01*
X033263Y013512D02*X032936Y013638D01*X033723Y013175D02*
X033848Y013502D01*X03573Y012405D02*X035855Y012732D01*X035963Y012315D02*
X036089Y012642D01*X037084Y011885D02*X037209Y012212D01*
X037184Y012007D02*X036857Y012133D01*X037648Y011401D02*
X037368Y011508D01*X03485Y012903D02*X034617Y012993D01*X034825Y012699D02*
X034592Y012788D01*X035701Y012469D02*X035791Y012703D01*
X036028Y012344D02*X036118Y012577D01*X037339Y011573D02*
X037428Y011806D01*X037773Y011728D02*X03754Y011817D01*X033227Y013419D02*
X033299Y013606D01*X034915Y012932D02*X034986Y013119D01*
X036667Y012474D02*X03648Y012545D01*X036577Y01224D02*X036391Y012312D01*
X036506Y012053D02*X036319Y012125D01*X036506Y012053D02*X036577Y01224D01*
X037148Y011914D02*X03722Y012101D01*X032929Y01348D02*X032983Y01362D01*
X033213Y0138D02*X033073Y013853D01*X033098Y013362D02*X032958Y013415D01*
X033773Y013585D02*X033633Y013638D01*X033612Y013164D02*
X033471Y013218D01*X033805Y013251D02*X033859Y013391D01*
X034986Y013119D02*X034846Y013172D01*X03606Y012707D02*X03592Y01276D01*
X035899Y012286D02*X035759Y01234D01*X036362Y012376D02*X036416Y012516D01*
X036502Y012323D02*X036362Y012376D01*X03685Y011975D02*X036904Y012115D01*
X037134Y012294D02*X036994Y012348D01*X037019Y011856D02*X036879Y01191D01*
X03731Y011638D02*X037364Y011778D01*X0329Y013544D02*X032936Y013638D01*
X034125Y012967D02*X034032Y013003D01*X034348Y012989D02*
X034254Y013025D01*X034782Y013144D02*X034688Y013179D01*
X034656Y012817D02*X034563Y012853D01*X034979Y012961D02*
X035015Y013054D01*X035245Y012537D02*X035152Y012573D01*
X035468Y012559D02*X035374Y012595D01*X036606Y012176D02*
X036513Y012211D01*X03657Y012082D02*X036606Y012176D01*X036822Y012039D02*
X036857Y012133D01*X0375Y011993D02*X037536Y012086D01*X037529Y011928D02*
X037565Y012022D01*X03754Y011817D02*X037575Y011911D01*X032976Y013462D02*
X032929Y01348D01*X033223Y013688D02*X033241Y013735D01*X033098Y013362D02*
X033116Y013408D01*X033784Y013473D02*X033802Y01352D01*X033676Y013193D02*
X033694Y01324D01*X03485Y012903D02*X034868Y01295D01*X035902Y012714D02*
X03592Y01276D01*X035777Y012387D02*X03573Y012405D01*X036042Y01266D02*
X03606Y012707D01*X035899Y012286D02*X035917Y012333D01*X036333Y012441D02*
X036351Y012488D01*X036462Y012499D02*X036416Y012516D01*
X036897Y011957D02*X03685Y011975D01*X037144Y012183D02*X037162Y01223D01*
X037019Y011856D02*X037037Y011903D01*X037507Y012151D02*X03746Y012169D01*
X037489Y012104D02*X037507Y012151D01*X037475Y011788D02*
X037428Y011806D01*X037385Y011555D02*X037339Y011573D01*
X037604Y011846D02*X037558Y011864D01*D12*X02394Y016611D02*
X029142Y011927D01*X027804Y010441D01*X022602Y015125D01*X02394Y016611D01*
X023438Y016054D02*X023624Y015887D01*X02329Y015515D01*X023104Y015682D01*
X026825Y005202D02*X026682Y004997D01*X025453Y005858D01*
X025597Y006062D02*X02488Y005038D01*X024799Y004891D01*X024754Y004729D01*
X024745Y004562D01*X024775Y004396D01*X02484Y004241D01*X024938Y004105D01*
X025064Y003994D01*X025211Y003914D01*X025373Y003868D01*X025541Y00386D01*
X025706Y003889D01*X025861Y003954D01*X025997Y004052D01*
X026108Y004178D01*X027542Y006226D01*X027623Y006373D01*
X027668Y006535D01*X027676Y006703D01*X027647Y006868D01*
X027582Y007023D01*X027484Y007159D01*X027358Y00727D01*X027211Y007351D01*
X027049Y007396D01*X026881Y007405D01*X026716Y007375D01*X026561Y00731D01*
X026425Y007212D01*X026314Y007086D01*X025597Y006062D01*
X026969Y005407D02*X02574Y006267D01*X026395Y004588D02*X025166Y005448D01*
X027255Y005816D02*X026027Y006677D01*X005487Y004677D02*
X005601Y004454D01*X004264Y003773D01*X004151Y003996D02*
X004718Y002882D01*X004811Y002742D01*X004932Y002626D01*X005076Y00254D01*
X005236Y002488D01*X005403Y002473D01*X00557Y002495D01*X005727Y002554D01*
X005867Y002647D01*X005983Y002768D01*X006069Y002913D01*
X006121Y003072D01*X006136Y00324D01*X006114Y003406D01*X006055Y003563D01*
X00492Y005791D01*X004827Y005931D01*X004706Y006047D01*X004562Y006133D01*
X004402Y006185D01*X004235Y0062D01*X004068Y006178D01*X003911Y006119D01*
X003771Y006026D01*X003655Y005905D01*X003569Y00576D01*X003517Y005601D01*
X003502Y005433D01*X003524Y005267D01*X003583Y00511D01*X004151Y003996D01*
X005374Y0049D02*X004037Y004219D01*X005828Y004009D02*X004491Y003328D01*
X005147Y005345D02*X00381Y004664D01*X01111Y018654D02*X008437Y017293D01*
X007983Y018184D01*X008202Y018856D01*X008874Y018638D01*X009093Y01931D01*
X009765Y019092D01*X009984Y019764D01*X010656Y019545D01*X01111Y018654D01*
X007052Y021655D02*X009725Y023017D01*X010179Y022126D01*
X009961Y021454D01*X009288Y021672D01*X00907Y021D01*X008397Y021218D01*
X008179Y020546D01*X007506Y020764D01*X007052Y021655D01*
X032299Y013694D02*X035018Y012427D01*X034595Y01152D01*X033931Y011278D01*
X033689Y011943D01*X033024Y011701D01*X032783Y012365D01*
X032118Y012124D01*X031876Y012788D01*X032299Y013694D01*
X015044Y006731D02*X012371Y005369D01*X011917Y00626D01*X012136Y006932D01*
X012808Y006714D01*X013027Y007386D01*X013699Y007168D01*X013918Y00784D01*
X01459Y007622D01*X015044Y006731D01*D18*X038752Y01605D02*
X038641Y016471D01*D16*X038384Y016775D01*D13*X038109Y016839D01*D18*
X038503Y015863D02*X038404Y015632D01*D16*X038134Y015422D01*D13*
X037508Y015251D01*D18*X03875Y015995D02*X039024Y016023D01*
X038557Y015935D02*X038739Y015995D01*X038477Y015922D02*
X037838Y015842D01*D17*X037827Y015842D02*X037346Y015856D01*D15*
X037209Y015877D02*X037312Y015856D01*X037197Y015899D02*X037158Y01615D01*
D14*X037146Y016207D02*X03691Y016603D01*X036876Y01658D02*
X036463Y016653D01*X036452Y01663D02*X036157Y016522D01*D12*
X036134Y01651D02*X035874Y016334D01*X035875Y016311D02*X03582Y016161D01*
D15*X037198Y015854D02*X03702Y015553D01*D14*X03702Y01553D02*
X036726Y015365D01*X036726Y015331D02*X036303Y015324D01*D12*
X036292Y015323D02*X036096Y015423D01*X011939Y021289D02*Y020789D01*
X012939Y019289D02*Y019789D01*X012439Y020789D02*X012939Y021289D01*
Y020789D02*X013439D01*X012939Y020289D02*X013439Y019789D01*X012439D02*
X011939Y019289D01*Y019789D02*X011439D01*X011939Y020289D02*
X011439Y020789D01*X011265Y013316D02*X011611Y013729D01*
X011702Y014244D01*X011518Y01475D01*X011105Y015096D01*X01059Y015187D01*
X010084Y015003D01*X009738Y01459D01*X009547Y014322D01*X010442Y013045D01*
X010759Y013132D01*X011265Y013316D01*X010953Y014599D02*
X011182Y014271D01*X010904Y01432D02*X011231Y01455D01*X017304Y028614D02*
X017804D01*Y028114D01*X018304D01*Y028614D01*X018804D01*Y028114D01*
X019304D01*Y028614D01*X019804D01*X019554Y027114D01*Y026614D01*
X017554D01*Y027114D01*X019554D01*X017554D02*X017304Y028614D01*
X007456Y013628D02*X007005Y013334D01*X006767Y012868D01*X006795Y01233D01*
X007089Y011879D01*X007555Y011641D01*X008093Y011669D01*
X008544Y011963D01*X008805Y012163D01*X008323Y013647D01*
X007994Y013656D01*X007456Y013628D01*X00738Y01231D02*X007256Y01269D01*
X007508Y012562D02*X007128Y012438D01*X012605Y010121D02*
X012181Y009789D01*X011985Y009304D01*X012059Y008771D01*
X012391Y008347D01*X012876Y008151D01*X01341Y008225D01*X013834Y008557D01*
X014076Y00878D01*X013467Y010216D01*X013138Y010196D01*X012605Y010121D01*
X012644Y008802D02*X012487Y00917D01*X01275Y009064D02*X012381Y008908D01*
X005892Y011677D02*X005441Y011384D01*X005203Y010917D01*X005231Y01038D01*
X005524Y009928D01*X005991Y009691D01*X006528Y009718D01*X00698Y010012D01*
X007241Y010213D01*X006758Y011696D01*X00643Y011705D01*X005892Y011677D01*
X005783Y010296D02*X005629Y010772D01*X010709Y008694D02*
X010285Y008362D01*X010089Y007877D01*X010163Y007343D01*
X010495Y006919D01*X010981Y006723D01*X011514Y006798D01*X011938Y00713D01*
X01218Y007352D01*X011571Y008788D01*X011242Y008768D01*X010709Y008694D01*
X010721Y007309D02*X010526Y007769D01*X010275Y002789D02*
X009823Y002495D01*X009586Y002029D01*X009613Y001491D01*
X009907Y001039D01*X010373Y000802D01*X010911Y000829D01*
X011362Y001123D01*X011623Y001324D01*X011141Y002807D01*
X010812Y002816D01*X010275Y002789D01*X010166Y001407D02*
X010012Y001883D01*X004188Y016551D02*X003854Y016923D01*
X003754Y017008D01*X003637Y017064D01*X003508Y017088D01*
X003378Y017078D01*X003255Y017034D01*X003147Y01696D01*X003063Y016861D01*
X003007Y016743D01*X002983Y016615D01*X002993Y016484D01*
X003037Y016361D01*X00311Y016254D01*X004114Y015139D01*X004213Y015054D01*
X004331Y014998D01*X00446Y014974D01*X00459Y014985D01*X004713Y015028D01*
X00482Y015102D01*X004905Y015201D01*X004961Y015319D01*X004985Y015448D01*
X004975Y015578D01*X004931Y015701D01*X004857Y015808D01*
X003854Y016923D01*X004188Y016551D02*X003445Y015882D01*X00378Y015511D02*
X004523Y01618D01*X006515Y008344D02*X006143Y00801D01*X006059Y007911D01*
X006002Y007793D01*X005979Y007664D01*X005989Y007534D01*
X006032Y007411D01*X006106Y007304D01*X006206Y007219D01*
X006323Y007163D01*X006452Y007139D01*X006582Y007149D01*
X006705Y007193D01*X006812Y007267D01*X007927Y00827D01*X008012Y00837D01*
X008068Y008487D01*X008092Y008616D01*X008082Y008746D01*
X008038Y008869D01*X007964Y008977D01*X007865Y009061D01*
X007747Y009117D01*X007619Y009141D01*X007489Y009131D01*
X007366Y009087D01*X007258Y009014D01*X006143Y00801D01*X006515Y008344D02*
X007184Y007601D01*X007556Y007936D02*X006886Y008679D01*
X014966Y012555D02*X015462Y012494D01*X015593Y012495D01*X015719Y01253D01*
X015831Y012596D01*X015922Y01269D01*X015987Y012803D01*X016019Y012929D01*
X016018Y01306D01*X015983Y013186D01*X015917Y013298D01*X015824Y01339D01*
X01571Y013454D01*X015584Y013487D01*X014095Y01367D01*X013965Y013668D01*
X013839Y013633D01*X013726Y013567D01*X013635Y013474D01*
X013571Y013361D01*X013538Y013234D01*X013539Y013104D01*
X013574Y012978D01*X01364Y012865D01*X013733Y012774D01*X013847Y01271D01*
X013973Y012677D01*X015462Y012494D01*X014966Y012555D02*
X015088Y013548D01*X014592Y013609D02*X01447Y012616D01*X015728Y016469D02*
X016204Y016623D01*X016322Y016679D01*X016421Y016764D01*
X016495Y016872D01*X016538Y016995D01*X016549Y017125D01*
X016525Y017253D01*X016469Y017371D01*X016384Y01747D01*X016276Y017544D01*
X016153Y017588D01*X016023Y017598D01*X015895Y017574D01*
X014468Y017111D01*X01435Y017055D01*X014251Y01697D01*X014177Y016862D01*
X014134Y016739D01*X014123Y016609D01*X014147Y016481D01*
X014203Y016363D01*X014288Y016264D01*X014396Y01619D01*X014519Y016146D01*
X014649Y016136D01*X014777Y01616D01*X016204Y016623D01*X015728Y016469D02*
X015419Y01742D01*X014944Y017265D02*X015253Y016314D01*X014729Y01042D02*
X015228Y010385D01*X015358Y010393D01*X015482Y010435D01*
X015591Y010507D01*X015677Y010605D01*X015736Y010721D01*
X015762Y010849D01*X015754Y01098D01*X015712Y011103D01*X01564Y011212D01*
X015543Y011299D01*X015426Y011357D01*X015298Y011383D01*
X013801Y011488D01*X013671Y01148D01*X013547Y011438D01*X013439Y011366D01*
X013352Y011268D01*X013294Y011152D01*X013268Y011024D01*
X013276Y010893D01*X013317Y01077D01*X013389Y010661D01*X013487Y010574D01*
X013604Y010516D01*X013732Y01049D01*X015228Y010385D01*X014729Y01042D02*
X014799Y011418D01*X0143Y011453D02*X01423Y010455D01*X00365Y007584D02*
X00406Y007297D01*X002422Y008444D02*X002831Y008157D01*X003773Y006887D02*
X003364Y007174D01*X004347Y007707D02*X003937Y007993D01*
X003364Y007174D01*X002708Y008854D02*X003937Y007993D01*
X002135Y008035D02*X003364Y007174D01*X003118Y008567D02*
X002544Y007748D01*X026728Y025549D02*X032765Y020301D01*
X031453Y018792D01*X025415Y02404D01*X026728Y025549D01*X026236Y024983D02*
X026424Y024819D01*X026096Y024442D01*X025908Y024606D01*X03569Y007827D02*
Y008327D01*X03619Y007827D01*X03669Y008327D01*Y007827D01*X03719D01*
X03669Y007327D01*X03719Y006827D01*X03669D01*Y006327D01*
X03619Y006827D01*X03569Y006327D01*Y006827D01*X03519D01*
X03569Y007327D01*X03519Y007827D01*X03569D01*X03068Y013608D02*
X029871Y01302D01*X030165Y012615D01*X030254Y012521D01*X030366Y012453D01*
X030491Y012416D01*X030621Y012412D01*X030748Y012443D01*
X030863Y012505D01*X030958Y012595D01*X031026Y012706D01*
X031063Y012831D01*X031066Y012962D01*X031036Y013089D01*
X030974Y013203D01*X030092Y014417D01*X030002Y014511D01*X029891Y01458D01*
X029766Y014617D01*X029635Y01462D01*X029508Y01459D01*X029394Y014527D01*
X029299Y014438D01*X029231Y014326D01*X029194Y014201D01*X02919Y014071D01*
X029221Y013944D01*X029283Y013829D01*X030165Y012615D01*
X030386Y014012D02*X029577Y013424D01*X029724Y013222D02*
X029926Y013369D01*X030331Y013663D02*X030533Y01381D01*X026294Y01772D02*
X025651Y016954D01*X026034Y016633D01*X026144Y016563D01*
X026269Y016523D01*X026399Y016518D01*X026526Y016546D01*
X026642Y016606D01*X026739Y016694D01*X026809Y016804D01*
X026848Y016929D01*X026854Y017059D01*X026825Y017187D01*
X026765Y017302D01*X026677Y017399D01*X025528Y018363D01*
X025418Y018433D01*X025293Y018472D01*X025163Y018478D01*X025035Y01845D01*
X02492Y018389D01*X024823Y018301D01*X024753Y018191D01*X024714Y018067D01*
X024708Y017936D01*X024737Y017809D01*X024797Y017693D01*
X024885Y017597D01*X026034Y016633D01*X025911Y018041D02*
X025268Y017275D01*X02546Y017115D02*X02562Y017306D01*X025942Y017689D02*
X026102Y017881D01*D17*X0052Y019391D02*X005941Y01758D01*D12*
X005708Y017491D01*X004991Y019358D01*X005708Y017491D02*
X004541Y017043D01*D17*X003872Y018962D01*D12*X003299Y020676D01*
X003584Y021527D01*D17*X005941Y01758D02*X006031Y017347D01*D19*
X00463Y016809D01*D17*X004541Y017043D01*D12*X005176Y019429D02*
X00441Y021117D01*X003605Y021547D01*X004744Y017135D02*X004089Y018988D01*
X018373Y019005D02*X017873D01*Y018005D01*X018373D01*Y017505D01*
X019373D01*Y018005D01*X019873D01*Y019005D01*X019373D01*Y019505D01*
X018373D01*Y019005D01*X018123Y019255D02*X017623D01*Y017755D01*
X018123D01*Y017255D01*X019623D01*Y017755D01*X020123D01*Y019255D01*
X019623D01*Y019755D01*X018873D01*X018123D01*Y019255D01*
X012278Y025992D02*X0113Y0262D01*X010885Y024244D01*X011863Y024036D01*
X012278Y025992D01*X008837Y025955D02*X007843Y02585D01*X008052Y023861D01*
X009046Y023966D01*X008837Y025955D01*X00705Y027899D02*X00606Y02776D01*
X006338Y02578D01*X007329Y025919D01*X00705Y027899D01*X009272Y01967D02*
X008834Y020568D01*X007036Y019692D01*X007475Y018793D01*X009272Y01967D01*
X011241Y016988D02*X010486Y016332D01*X011798Y014823D01*
X012553Y015479D01*X011241Y016988D01*X010331Y012228D02*
X010876Y011389D01*X012553Y012478D01*X012008Y013317D01*
X010331Y012228D01*X021322Y013505D02*X020493Y012946D01*
X021611Y011288D01*X02244Y011847D01*X021322Y013505D01*X014648Y018957D02*
X015562Y019364D01*X014749Y021191D01*X013835Y020784D01*
X014648Y018957D01*X032835Y024549D02*X033504Y025292D01*
X032018Y026631D01*X031349Y025887D01*X032835Y024549D01*
X016253Y019327D02*X017167Y019734D01*X016354Y021561D01*X01544Y021155D01*
X016253Y019327D01*X015375Y0156D02*X0156Y014625D01*X017548Y015075D01*
X017323Y01605D01*X015375Y0156D01*X019147Y01426D02*X018559Y015069D01*
X016941Y013893D01*X017529Y013084D01*X019147Y01426D01*X019882Y013263D02*
X019073Y012675D01*X020249Y011057D01*X021058Y011645D01*
X019882Y013263D01*X016667Y010488D02*X016976Y009536D01*
X018879Y010154D01*X01857Y011106D01*X016667Y010488D01*X0103Y010204D02*
X010982Y009473D01*X012444Y010837D01*X011762Y011568D01*X0103Y010204D01*
X00533Y014853D02*X006178Y014323D01*X007237Y016019D01*X006389Y016549D01*
X00533Y014853D01*X008779Y008131D02*X009753Y008356D01*X009303Y010304D01*
X008329Y010079D01*X008779Y008131D01*X008703Y00417D02*X009664Y004446D01*
X009113Y006368D01*X008151Y006092D01*X008703Y00417D01*X003754Y01448D02*
X002976Y01385D01*X004235Y012296D01*X005012Y012925D01*X003754Y01448D01*
X008571Y013558D02*X009485Y013965D01*X008671Y015792D01*
X007758Y015385D01*X008571Y013558D01*X013257Y017767D02*
X012317Y017425D01*X013001Y015546D01*X013941Y015888D01*
X013257Y017767D01*X033323Y022144D02*X033746Y02305D01*X031933Y023896D01*
X03151Y022989D01*X033323Y022144D01*X027989Y019061D02*X028645Y019816D01*
X027136Y021128D01*X02648Y020373D01*X027989Y019061D01*X027609Y017476D02*
X028265Y018231D01*X026756Y019543D01*X0261Y018788D01*X027609Y017476D01*
X023412Y021475D02*X023187Y0205D01*X025136Y02005D01*X025361Y021025D01*
X023412Y021475D01*X030216Y016906D02*X03097Y01625D01*X032282Y01776D01*
X031528Y018416D01*X030216Y016906D01*X025257Y026012D02*
X026012Y025356D01*X027324Y026865D01*X026569Y027521D01*
X025257Y026012D01*X024414Y027605D02*X024605Y028586D01*
X022641Y028968D01*X022451Y027986D01*X024414Y027605D01*
X023969Y022418D02*X024311Y023358D01*X022432Y024042D01*X02209Y023102D01*
X023969Y022418D01*X024262Y02608D02*X023593Y026824D01*X022106Y025485D01*
X022776Y024742D01*X024262Y02608D01*X015509Y025718D02*X014524Y025892D01*
X014177Y023922D01*X015162Y023748D01*X015509Y025718D01*
X017683Y021874D02*X017492Y020892D01*X019456Y020511D01*
X019646Y021492D01*X017683Y021874D01*X020791Y026376D02*
X019851Y026718D01*X019167Y024839D01*X020107Y024497D01*
X020791Y026376D01*X017182Y027396D02*X016198Y02757D01*X01585Y0256D01*
X016835Y025427D01*X017182Y027396D01*X033037Y009877D02*
X033693Y010632D01*X032184Y011944D01*X031528Y011189D01*
X033037Y009877D01*X028154Y006012D02*X028396Y005042D01*
X030336Y005526D01*X030094Y006496D01*X028154Y006012D01*X021313Y00759D02*
X022152Y008135D01*X021063Y009812D01*X020224Y009268D01*X021313Y00759D01*
X024086Y003339D02*X023257Y003898D01*X022139Y00224D01*X022968Y001681D01*
X024086Y003339D01*X017678Y008522D02*X016745Y008163D01*
X017462Y006296D01*X018395Y006654D01*X017678Y008522D01*
X021053Y003702D02*X021612Y004531D01*X019954Y005649D01*X019395Y00482D01*
X021053Y003702D01*X0186Y001528D02*X019354Y000872D01*X020667Y002381D01*
X019912Y003037D01*X0186Y001528D01*X034417Y002717D02*X033829Y003526D01*
X032211Y002351D01*X032799Y001542D01*X034417Y002717D01*X02865Y004569D02*
X028909Y003603D01*X030841Y00412D01*X030582Y005086D01*X02865Y004569D01*
X027277Y008126D02*X027933Y008881D01*X026423Y010193D01*
X025767Y009438D01*X027277Y008126D01*X025529Y008037D02*
X026185Y008792D01*X024676Y010104D01*X02402Y009349D01*X025529Y008037D01*
X023781Y011391D02*X024437Y012146D01*X022927Y013458D01*
X022271Y012703D01*X023781Y011391D01*X020864Y014534D02*X02152Y015289D01*
X02001Y016601D01*X019354Y015846D01*X020864Y014534D01*X023299Y017376D02*
X023177Y018369D01*X021192Y018125D01*X021314Y017132D01*
X023299Y017376D01*X031199Y009953D02*X030777Y010859D01*
X028964Y010014D01*X029387Y009108D01*X031199Y009953D01*
X033256Y014095D02*X033413Y015083D01*X031437Y015396D01*
X031281Y014408D01*X033256Y014095D01*X013741Y027419D02*X013202Y0274D01*
X012759Y027122D01*X012505Y026647D01*X012525Y026109D01*
X012802Y025665D01*X013277Y025412D01*X013815Y025431D01*
X014142Y025469D01*X014493Y026989D01*X014216Y027166D01*
X013741Y027419D01*X012996Y026329D02*X013086Y026718D01*
X013236Y026479D02*X012846Y026569D01*X017038Y02335D02*X017526Y023123D01*
X018047Y023169D01*X018489Y023477D01*X018716Y023965D01*X01867Y024487D01*
X018362Y024928D01*X017874Y025155D01*X017565Y02527D01*X016563Y024075D01*
X01673Y023792D01*X017038Y02335D01*X018196Y023984D02*X017939Y023677D01*
X017914Y023959D02*X018221Y023702D01*X019547Y021946D02*
X019999Y021654D01*X020522Y021626D01*X021002Y02187D01*X021294Y022322D01*
X021322Y022845D01*X021078Y023325D01*X020626Y023618D01*
X020337Y023774D01*X019177Y02273D01*X019303Y022426D01*X019547Y021946D01*
X020782Y022413D02*X020485Y022145D01*X0205Y022427D02*X020767Y02213D01*
X032593Y004045D02*X033045Y003752D01*X033567Y003724D01*
X034047Y003968D01*X03434Y00442D01*X034367Y004943D01*X034124Y005423D01*
X033672Y005716D01*X033382Y005873D01*X032223Y004829D01*
X032349Y004525D01*X032593Y004045D01*X033828Y004511D02*
X033531Y004243D01*X033545Y004526D02*X033813Y004228D01*
X015917Y008711D02*X015961Y008588D01*X015971Y008457D01*
X015947Y008329D01*X015891Y008211D01*X015806Y008112D01*
X015699Y008038D01*X015576Y007995D01*X015446Y007984D01*
X015317Y008008D01*X0152Y008064D01*X0151Y008149D01*X015026Y008257D01*
X014983Y00838D01*X014973Y00851D01*X014996Y008638D01*X015053Y008756D01*
X015137Y008855D01*X015245Y008929D01*X015368Y008973D01*
X015498Y008983D01*X015626Y008959D01*X015744Y008903D01*
X015844Y008818D01*X015917Y008711D01*X016153Y007147D02*X01597Y007076D01*
X015777Y007041D01*X015581Y007045D01*X01539Y007087D01*X01521Y007166D01*
X015049Y007278D01*X014914Y007419D01*X014808Y007584D01*
X014736Y007767D01*X014702Y00796D01*X014706Y008156D01*X014748Y008347D01*
X014826Y008527D01*X014939Y008688D01*X01508Y008823D01*X015245Y008929D01*
X015427Y009001D01*X01562Y009035D01*X015816Y009031D01*X016008Y008989D01*
X016188Y008911D01*X016348Y008798D01*X016484Y008657D01*X01659Y008492D01*
X016661Y00831D01*X016696Y008117D01*X016692Y007921D01*X01665Y007729D01*
X016571Y007549D01*X016459Y007389D01*X016318Y007253D01*
X016153Y007147D01*X027571Y016153D02*X027697Y016116D01*
X027808Y016048D01*X027898Y015953D01*X02796Y015839D01*X027991Y015712D01*
X027987Y015581D01*X02795Y015456D01*X027882Y015345D01*X027787Y015255D01*
X027672Y015193D01*X027546Y015162D01*X027415Y015166D01*X02729Y015203D01*
X027179Y015271D01*X027089Y015366D01*X027026Y01548D01*X026996Y015607D01*
X026999Y015738D01*X027036Y015863D01*X027105Y015974D01*
X027199Y016064D01*X027314Y016126D01*X027441Y016157D01*
X027571Y016153D01*X028975Y015425D02*X028925Y015235D01*X02884Y015059D01*
X028721Y014903D01*X028575Y014772D01*X028406Y014673D01*
X028221Y014609D01*X028026Y014582D01*X027831Y014594D01*
X027641Y014643D01*X027465Y014729D01*X027308Y014847D01*
X027178Y014994D01*X027079Y015163D01*X027015Y015348D01*
X026988Y015542D01*X026999Y015738D01*X027049Y015927D01*
X027134Y016104D01*X027253Y01626D01*X027399Y01639D01*X027568Y01649D01*
X027754Y016554D01*X027948Y016581D01*X028144Y016569D01*X028333Y01652D01*
X02851Y016434D01*X028666Y016316D01*X028796Y016169D01*X028895Y016D01*
X028959Y015815D01*X028986Y015621D01*X028975Y015425D01*
X022673Y009154D02*X022438Y00867D01*X022474Y008148D01*X022775Y007701D01*
X023259Y007466D01*X023781Y007502D01*X024228Y007803D01*
X024463Y008287D01*X024584Y008593D01*X023406Y009617D01*X02312Y009455D01*
X022673Y009154D01*X023287Y007985D02*X022985Y008248D01*
X023267Y008267D02*X023004Y007965D01*X019882Y007615D02*
X019489Y007247D01*X019336Y006747D01*X019456Y006222D01*
X019824Y005829D01*X020324Y005676D01*X020849Y005796D01*
X021243Y006164D01*X021465Y006407D01*X020732Y007784D01*
X020407Y007736D01*X019882Y007615D01*X020036Y006304D02*
X019848Y006657D01*X020119Y006574D02*X019765Y006387D01*
X015752Y005618D02*X015459Y005166D01*X015432Y004644D01*
X015676Y004164D01*X016128Y003871D01*X016651Y003843D01*
X017131Y004087D01*X017423Y004539D01*X01758Y004829D01*X016536Y005988D01*
X016232Y005862D01*X015752Y005618D01*X016219Y004383D02*X015951Y00468D01*
X016233Y004665D02*X015936Y004398D01*X012183Y00471D02*X011748Y004393D01*
X011535Y003915D01*X011591Y003379D01*X011908Y002944D01*
X012386Y002731D01*X012921Y002787D01*X013357Y003104D01*
X013607Y003318D01*X013048Y004774D01*X012719Y004766D01*X012183Y00471D01*
X012176Y00339D02*X012032Y003763D01*X012291Y003648D02*X011917Y003505D01*
X009808Y025605D02*X010331Y025736D01*X010707Y026099D01*
X010856Y026617D01*X010725Y027139D01*X010362Y027515D01*
X009844Y027665D01*X009322Y027534D01*X00901Y027429D01*X008983Y025869D01*
X009291Y025754D01*X009808Y025605D01*X01036Y026875D02*X010352Y026375D01*
X007424Y004174D02*X006541Y003705D01*X006658Y003484D01*
X007541Y003953D01*X006602Y005719D01*X005719Y00525D01*X006658Y003484D01*
X032099Y007932D02*X032216Y007711D01*X030892Y007007D01*
X030774Y007228D02*X031361Y006124D01*X031456Y005985D01*X03158Y005872D01*
X031725Y005788D01*X031886Y005739D01*X032053Y005727D01*
X032219Y005752D01*X032376Y005814D01*X032514Y005909D01*
X032628Y006032D01*X032712Y006178D01*X032761Y006338D01*
X032773Y006506D01*X032748Y006672D01*X032686Y006828D01*
X031512Y009036D01*X031417Y009174D01*X031294Y009288D01*
X031148Y009372D01*X030987Y009421D01*X03082Y009433D01*X030654Y009407D01*
X030498Y009346D01*X030359Y009251D01*X030245Y009127D01*
X030162Y008982D01*X030113Y008821D01*X0301Y008654D01*X030126Y008488D01*
X030188Y008331D01*X030774Y007228D01*X031982Y008153D02*
X030657Y007448D01*X032451Y00727D02*X031127Y006565D01*X031747Y008594D02*
X030422Y00789D01*X017895Y001893D02*X017696Y001743D01*X016793Y002941D01*
X016993Y003091D02*X015994Y002339D01*X015872Y002224D01*
X015779Y002084D01*X015719Y001927D01*X015696Y001761D01*X01571Y001593D01*
X015761Y001433D01*X015847Y001289D01*X015962Y001167D01*
X016102Y001074D01*X016259Y001014D01*X016425Y00099D01*X016592Y001005D01*
X016752Y001056D01*X016897Y001141D01*X018894Y002646D01*
X019016Y002761D01*X019109Y002901D01*X019169Y003058D01*
X019192Y003224D01*X019178Y003391D01*X019127Y003551D01*
X019041Y003696D01*X018926Y003818D01*X018786Y003911D01*
X018629Y003971D01*X018463Y003994D01*X018296Y00398D01*X018136Y003929D01*
X017991Y003844D01*X016993Y003091D01*X018095Y002044D02*
X017192Y003242D01*X017296Y001442D02*X016394Y00264D01*X018494Y002345D02*
X017592Y003543D01*X033972Y017866D02*X034193Y017984D01*
X034897Y016659D01*X034677Y016542D02*X03578Y017129D01*X035919Y017224D01*
X036033Y017347D01*X036116Y017493D01*X036165Y017653D01*
X036178Y017821D01*X036152Y017987D01*X03609Y018143D01*X035995Y018282D01*
X035872Y018396D01*X035726Y018479D01*X035566Y018528D01*X035398Y01854D01*
X035232Y018515D01*X035076Y018453D01*X032869Y01728D01*X03273Y017185D01*
X032616Y017061D01*X032533Y016916D01*X032483Y016755D01*
X032471Y016587D01*X032497Y016421D01*X032559Y016265D01*
X032653Y016127D01*X032777Y016013D01*X032923Y015929D01*X033083Y01588D01*
X033251Y015868D01*X033417Y015893D01*X033573Y015955D01*
X034677Y016542D01*X033752Y017749D02*X034456Y016425D01*
X034635Y018219D02*X035339Y016894D01*X03331Y017514D02*X034014Y01619D01*
X003422Y027898D02*X004415Y02802D01*X004384Y028268D01*X003392Y028146D01*
X003636Y026161D01*X004628Y026283D01*X004384Y028268D01*
X030017Y029153D02*X03022Y02961D01*X031134Y029203D01*X03093Y028747D01*
X031387Y028543D01*X03098Y02763D01*X030524Y027833D01*X03032Y027376D01*
X029407Y027783D01*X02961Y02824D01*X029153Y028443D01*X02956Y029357D01*
X030017Y029153D01*X036051Y02568D02*X036638Y025694D01*X036822Y025716D01*
X036998Y025771D01*X037162Y025857D01*X037306Y025972D01*
X037427Y026112D01*X03752Y026272D01*X037583Y026446D01*X037612Y026628D01*
X037607Y026813D01*X037587Y02698D01*X037545Y027169D01*X037468Y027346D01*
X037359Y027505D01*X03722Y02764D01*X037059Y027746D01*X03688Y027819D01*
X03669Y027856D01*X035737Y027948D01*X035545Y027948D01*X035355Y027911D01*
X035177Y027839D01*X035015Y027733D01*X034877Y027599D01*X034768Y02744D01*
X03469Y027263D01*X034608Y02701D01*X034568Y026835D01*X034559Y026655D01*
X034584Y026476D01*X034639Y026305D01*X034725Y026147D01*
X034838Y026006D01*X034974Y025888D01*X035129Y025797D01*
X035297Y025734D01*X035804Y025598D01*X036051Y025433D02*
X036638Y025447D01*X036822Y025469D01*X036998Y025524D01*X037162Y02561D01*
X037306Y025725D01*X037427Y025865D01*X03752Y026025D01*X037583Y026199D01*
X037612Y026381D01*X037607Y026566D01*X037587Y026733D01*
X037545Y026922D01*X037468Y027099D01*X037359Y027258D01*X03722Y027393D01*
X037059Y027499D01*X03688Y027572D01*X03669Y027609D01*X035737Y027701D01*
X035545Y027701D01*X035355Y027664D01*X035177Y027592D01*
X035015Y027486D01*X034877Y027352D01*X034768Y027193D01*X03469Y027016D01*
X034608Y026763D01*X034568Y026588D01*X034559Y026408D01*
X034584Y026229D01*X034639Y026058D01*X034725Y0259D01*X034838Y025759D01*
X034974Y025641D01*X035129Y02555D01*X035297Y025487D01*X035804Y025351D01*
X035886Y027655D02*X03568Y023293D01*X036297Y027614D02*X035762Y023087D01*
X036339Y027984D02*X036462Y02889D01*X036503D02*X035804Y028931D01*
Y02889D02*X035845Y028026D01*D11*X014751Y00451D02*X014843Y004469D01*
X014443Y004316D01*X014469Y004249D01*X014443Y004316D02*
X014418Y004382D01*X014594Y003924D02*X014777Y003994D01*
X014884Y003964D01*X014825Y003869D01*X014642Y003799D01*
X014729Y004119D02*X014836Y004089D01*X014777Y003994D01*
X014846Y004164D02*X014546Y004049D01*X02398Y015374D02*X023974Y015475D01*
X023868Y015571D01*X023767Y015565D01*X023576Y015353D01*
X023582Y015252D01*X023688Y015157D01*X023789Y015162D01*X02398Y015374D01*
X023826Y015417D02*X02373Y015311D01*X024298Y015087D02*X024293Y015188D01*
X024187Y015284D01*X024086Y015279D01*X023895Y015066D01*X0239Y014965D01*
X024006Y01487D01*X024107Y014875D01*X024179Y014955D01*X024173Y015056D01*
X024067Y015151D01*X023966Y015146D01*X024325Y014583D02*
X024611Y014902D01*X024285Y014859D01*X024497Y014668D01*
X026627Y024454D02*X026728Y024461D01*X026447Y024137D01*
X026501Y024091D01*X026447Y024137D02*X026393Y024184D01*X026897Y02422D02*
X026997Y024227D01*X027105Y024133D01*X027112Y024032D01*
X027065Y023978D01*X026965Y023971D01*X026972Y02387D01*X026925Y023816D01*
X026824Y023809D01*X026716Y023903D01*X026709Y024004D01*
X026965Y023971D02*X026911Y024018D01*X027267Y023992D02*
X027482Y023805D01*X02704Y023622D01*X027759Y02347D02*X027752Y023571D01*
X027644Y023664D01*X027543Y023657D01*X027356Y023442D01*
X027363Y023341D01*X027471Y023247D01*X027572Y023254D01*X027759Y02347D01*
X027604Y02351D02*X027511Y023402D01*X028083Y023189D02*X028075Y023289D01*
X027968Y023383D01*X027867Y023376D01*X027679Y02316D01*X027686Y02306D01*
X027794Y022966D01*X027895Y022973D01*X028083Y023189D01*
X027928Y023228D02*X027834Y023121D01*X011815Y025782D02*X01187Y025697D01*
X01184Y025557D01*X011755Y025502D01*X011685Y025517D01*X01163Y025602D01*
X011535Y025841D01*X011465Y025856D01*X011406Y025577D01*
X011354Y025332D02*X011346Y025297D01*X011381Y02529D01*X011389Y025325D01*
X011354Y025332D01*X011636Y024943D02*X011691Y024859D01*
X011662Y024719D01*X011577Y024664D01*X011507Y024679D01*
X011452Y024764D01*X011357Y025003D01*X011287Y025018D01*
X011228Y024738D01*X01117Y024467D02*X011362Y024427D01*X011435Y024343D01*
X011334Y024296D01*X011142Y024336D01*X01139Y024558D02*X011463Y024474D01*
X011362Y024427D01*X011512Y024532D02*X011198Y024598D01*
X008461Y025612D02*X008539Y025548D01*X008554Y025406D01*
X008491Y025327D01*X00842Y02532D01*X008341Y025384D01*X008177Y025582D01*
X008106Y025574D01*X008136Y02529D01*X008506Y025185D02*X008584Y025122D01*
X008599Y02498D01*X008536Y024901D01*X008465Y024894D01*X008386Y024957D01*
X008222Y025155D01*X008151Y025148D01*X00818Y024864D01*X00858Y024475D02*
X008644Y024553D01*X008629Y024696D01*X00855Y024759D01*X008266Y024729D01*
X008203Y024651D01*X008218Y024509D01*X008296Y024445D01*X00858Y024475D01*
X008494Y02461D02*X008352Y024595D01*X00867Y024305D02*X008244Y02426D01*
X00835Y024271D02*X008586Y024081D01*X008266Y024047D02*X008409Y024224D01*
X006363Y027281D02*X006787Y027341D01*X00651Y027518D01*X006549Y027235D01*
X006407Y026963D02*X006412Y026928D01*X006448Y026933D01*
X006443Y026968D01*X006407Y026963D01*X006876Y026704D02*
X006916Y026421D01*X006462Y026574D01*X006941Y026244D02*
X006517Y026185D01*X006623Y0262D02*X006865Y026017D01*X006546Y025973D02*
X006683Y026154D01*X008564Y01978D02*X00866Y019747D01*X008788Y01981D01*
X008821Y019906D01*X008696Y020162D01*X0086Y020195D01*X008472Y020133D01*
X008439Y020037D01*X008564Y01978D01*X008661Y019907D02*X008599Y020036D01*
X011001Y016095D02*X011324Y016376D01*X010995Y016374D01*
X011182Y016158D01*X011465Y016215D02*X011652Y015999D01*X011188Y01588D01*
X011879Y015629D02*X011886Y015729D01*X011793Y015837D01*
X011692Y015844D01*X011476Y015657D01*X011469Y015556D01*
X011563Y015448D01*X011664Y015441D01*X011879Y015629D01*X011732Y01569D02*
X011624Y015596D01*X01205Y015541D02*X011727Y01526D01*X011808Y01533D02*
X01211Y015309D01*X011868Y015098D02*X011883Y015325D01*X011182Y011865D02*
X010948Y012225D01*X010905Y011899D01*X011144Y012054D01*
X011128Y012342D02*X011368Y012497D01*X011421Y012021D01*
X011518Y012594D02*X011751Y012235D01*X011693Y012325D02*
X011756Y012621D01*X011931Y012352D02*X011708Y012399D01*
X021158Y013028D02*X021257Y013008D01*X021337Y01289D01*X021318Y012791D01*
X021258Y012751D01*X021159Y01277D01*X020921Y012868D01*X020862Y012828D01*
X021022Y012591D01*X021161Y012384D02*X021181Y012354D01*
X021211Y012374D01*X021191Y012404D01*X021161Y012384D01*
X021637Y012317D02*X021736Y012298D01*X021816Y012179D01*X021797Y01208D01*
X021738Y01204D01*X021639Y012059D01*X0214Y012157D01*X021341Y012117D01*
X021501Y01188D01*X021656Y011651D02*X021819Y011761D01*X021929Y011755D01*
X021893Y01165D01*X021731Y01154D01*X021744Y011872D02*X021855Y011866D01*
X021818Y011761D01*X021847Y011942D02*X021581Y011762D01*
X014893Y019399D02*X014798Y019435D01*X01474Y019565D01*X014776Y01966D01*
X014842Y019689D01*X014936Y019653D01*X015154Y019515D01*
X015219Y019544D01*X015103Y019805D01*X014718Y01979D02*X014624Y019826D01*
X014566Y019957D01*X014602Y020051D01*X014667Y02008D01*X014762Y020044D01*
X014979Y019906D01*X015045Y019935D01*X014928Y020197D01*
X014464Y020185D02*X014856Y02036D01*X014758Y020316D02*X014475Y020425D01*
X014769Y020555D02*X014687Y020343D01*X032825Y0251D02*X032725Y025094D01*
X033011Y025413D01*X032958Y025461D01*X033011Y025413D02*
X033064Y025365D01*X032348Y02553D02*X032353Y025429D01*X032459Y025333D01*
X03256Y025339D01*X032751Y025551D01*X032746Y025652D01*X03264Y025748D01*
X032539Y025742D01*X032348Y02553D01*X032502Y025487D02*X032597Y025594D01*
X032167Y025596D02*X032454Y025915D01*X032382Y025835D02*X03208Y025819D01*
X032295Y026058D02*X032307Y025831D01*X016469Y019834D02*
X016374Y019871D01*X016766Y020045D01*X016737Y02011D01*X016766Y020045D02*
X016795Y01998D01*X016207Y020422D02*X016171Y020327D01*X016229Y020197D01*
X016323Y020161D01*X016584Y020277D01*X01662Y020371D01*X016562Y020502D01*
X016468Y020538D01*X016207Y020422D01*X01633Y02032D02*X016461Y020378D01*
X016069Y020556D02*X016461Y02073D01*X016363Y020686D02*X01608Y020795D01*
X016374Y020926D02*X016292Y020714D01*X015762Y015276D02*
X015815Y015361D01*X015954Y015394D01*X01604Y01534D01*X016056Y01527D01*
X016003Y015185D01*X015826Y014997D01*X015842Y014928D01*X01612Y014992D01*
X016179Y015372D02*X016233Y015458D01*X016372Y01549D01*X016458Y015436D01*
X016474Y015367D01*X01642Y015281D01*X016243Y015094D01*X01626Y015024D01*
X016538Y015088D01*X016616Y015546D02*X016712Y015129D01*
X016688Y015233D02*X016848Y01549D01*X016921Y015177D02*X016728Y015297D01*
X018606Y014365D02*X01859Y014265D01*X018339Y014612D01*X018281Y01457D01*
X018339Y014612D02*X018396Y014654D01*X018086Y013987D02*
X018186Y013971D01*X018302Y014055D01*X018317Y014155D01*
X018149Y014386D01*X01805Y014402D01*X017934Y014318D01*X017918Y014218D01*
X018086Y013987D01*X01816Y014129D02*X018076Y014244D01*X017739Y013735D02*
X017839Y013719D01*X017955Y013803D01*X017971Y013903D01*
X017803Y014134D01*X017703Y01415D01*X017587Y014066D01*X017572Y013966D01*
X017739Y013735D01*X017813Y013877D02*X017729Y013992D01*
X017637Y013572D02*X017385Y013919D01*X017448Y013832D02*
X017401Y013533D01*X017212Y013793D02*X017436Y013757D01*
X019777Y012723D02*X019877Y012707D01*X01953Y012455D01*X019572Y012397D01*
X01953Y012455D02*X019488Y012513D01*X020155Y012203D02*X020171Y012302D01*
X020087Y012418D01*X019987Y012434D01*X019756Y012266D01*X01974Y012166D01*
X019824Y012051D01*X019924Y012035D01*X020155Y012203D01*
X020013Y012276D02*X019898Y012192D01*X020407Y011856D02*
X020423Y011956D01*X020339Y012071D01*X020239Y012087D01*
X020008Y011919D01*X019992Y011819D01*X020076Y011704D01*
X020176Y011688D01*X020407Y011856D01*X020265Y01193D02*X02015Y011846D01*
X02057Y011753D02*X020223Y011502D01*X02031Y011565D02*X020609Y011517D01*
X020349Y011328D02*X020384Y011553D01*X017395Y009925D02*
X017263Y010333D01*X017136Y010029D01*X017408Y010117D01*
X017701Y010024D02*X017735Y010035D01*X017724Y010069D01*X01769Y010058D01*
X017701Y010024D01*X017874Y010531D02*X018146Y01062D01*X018075Y010146D01*
X018316Y010675D02*X018448Y010267D01*X018415Y010369D02*
X018553Y010639D01*X018652Y010333D02*X01845Y010437D01*X010853Y010159D02*
X010856Y01026D01*X011148Y009946D01*X011201Y009995D01*X011148Y009946D02*
X011096Y009898D01*X011323Y010597D02*X011222Y010601D01*
X011117Y010503D01*X011114Y010402D01*X011309Y010193D01*X01141Y01019D01*
X011514Y010287D01*X011518Y010388D01*X011323Y010597D01*
X011267Y010448D02*X011364Y010343D01*X011636Y01089D02*X011535Y010893D01*
X011431Y010796D01*X011427Y010695D01*X011622Y010486D01*
X011723Y010482D01*X011828Y01058D01*X011831Y010681D01*X011636Y01089D01*
X01158Y01074D02*X011678Y010635D01*X011718Y011064D02*X01201Y01075D01*
X011937Y010829D02*X011948Y011131D01*X012167Y010896D02*X01194Y010904D01*
X005837Y014892D02*X005815Y014991D01*X00589Y015112D01*X005989Y015134D01*
X006049Y015097D01*X006072Y014998D01*X00608Y014741D01*X00614Y014703D01*
X006292Y014945D01*X006065Y015256D02*X006042Y015354D01*
X006117Y015475D01*X006216Y015498D01*X006276Y01546D01*X006299Y015362D01*
X006307Y015104D01*X006367Y015066D01*X006519Y015309D01*
X006443Y015861D02*X006345Y015839D01*X006269Y015718D01*
X006292Y015619D01*X006534Y015468D01*X006632Y01549D01*X006708Y015612D01*
X006685Y01571D01*X006443Y015861D01*X006428Y015702D02*X006549Y015627D01*
X006477Y016051D02*X006841Y015824D01*X00675Y01588D02*X006681Y016176D01*
X006954Y016005D02*X006733Y015954D01*X009094Y008587D02*X009009Y00864D01*
X009426Y008737D01*X00941Y008806D01*X009426Y008737D02*X009442Y008667D01*
X00895Y009213D02*X008896Y009128D01*X008928Y008988D01*X009014Y008935D01*
X009292Y008999D01*X009346Y009085D01*X009314Y009224D01*
X009228Y009278D01*X00895Y009213D01*X009051Y00909D02*X009191Y009122D01*
X00884Y009371D02*X009258Y009468D01*X009153Y009443D02*X008896Y009604D01*
X009209Y009676D02*X009089Y009484D01*X009298Y004878D02*X008886Y00476D01*
X009185Y004623D01*X009106Y004897D01*X009209Y005187D02*
X009199Y005221D01*X009165Y005211D01*X009175Y005177D01*
X009209Y005187D01*X008708Y005378D02*X00863Y005652D01*X009101Y005564D01*
X00858Y005824D02*X008992Y005942D01*X008889Y005913D02*X008624Y00606D01*
X008933Y006148D02*X008823Y005949D01*X003482Y013596D02*
X003815Y013865D01*X003486Y013875D01*X003666Y013652D01*
X003685Y013346D02*X003707Y013318D01*X003735Y013341D01*
X003712Y013368D01*X003685Y013346D01*X00422Y013366D02*X0044Y013144D01*
X003932Y013041D01*X004512Y013005D02*X004179Y012735D01*
X004262Y012803D02*X004564Y012771D01*X004314Y012569D02*
X004338Y012795D01*X008794Y014066D02*X008699Y014102D01*
X009091Y014276D01*X009062Y014342D01*X009091Y014276D02*X00912Y014211D01*
X008532Y014653D02*X008496Y014559D01*X008554Y014428D01*
X008648Y014392D01*X008909Y014508D01*X008946Y014603D01*
X008888Y014733D01*X008793Y014769D01*X008532Y014653D01*
X008656Y014552D02*X008786Y01461D01*X008394Y014787D02*X008786Y014962D01*
X008688Y014918D02*X008405Y015027D01*X008699Y015157D02*
X008617Y014945D01*X012713Y017019D02*X013115Y017166D01*
X012807Y017282D01*X012905Y017013D01*X013189Y016965D02*
X013286Y016696D01*X01281Y016751D01*X013366Y016269D02*X013408Y016361D01*
X01336Y016495D01*X013268Y016538D01*X013Y01644D01*X012957Y016348D01*
X013006Y016214D01*X013097Y016171D01*X013366Y016269D01*X01325Y016379D02*
X013116Y01633D01*X013494Y016126D02*X013091Y015979D01*X013192Y016016D02*
X013467Y015888D01*X013164Y015778D02*X013261Y015984D01*
X033198Y022636D02*X033103Y022602D01*X032973Y022662D01*
X032939Y022757D01*X032969Y022822D01*X033064Y022856D01*
X033319Y022895D01*X033349Y02296D01*X03309Y02308D01*X032809Y022817D02*
X032714Y022783D01*X032585Y022843D01*X03255Y022938D01*X032581Y023003D01*
X032676Y023037D01*X03293Y023076D01*X03296Y023141D01*X032701Y023262D01*
X032162Y023119D02*X032197Y023024D01*X032326Y022964D01*
X032421Y022998D01*X032542Y023257D01*X032507Y023352D01*
X032378Y023413D01*X032283Y023378D01*X032162Y023119D01*
X032322Y023123D02*X032382Y023253D01*X03197Y02313D02*X032151Y023518D01*
X032106Y023421D02*X031821Y023317D01*X031957Y023609D02*
X032035Y023395D01*X028004Y019569D02*X027903Y019562D01*
X027796Y019655D01*X027788Y019756D01*X027835Y01981D01*X027936Y019817D01*
X028192Y019784D01*X028238Y019838D01*X028023Y020026D01*X027681Y01985D02*
X02758Y019843D01*X027472Y019937D01*X027465Y020037D01*X027512Y020091D01*
X027613Y020098D01*X027868Y020065D01*X027915Y020119D01*
X027699Y020307D01*X027142Y020318D02*X027149Y020218D01*
X027256Y020124D01*X027357Y020131D01*X027545Y020347D01*
X027538Y020447D01*X02743Y020541D01*X027329Y020534D01*X027142Y020318D01*
X027296Y020279D02*X02739Y020386D01*X02696Y020382D02*X027241Y020705D01*
X027171Y020624D02*X026869Y020603D01*X027079Y020846D02*
X027095Y020619D01*X027624Y017984D02*X027524Y017977D01*X027416Y01807D01*
X027409Y018171D01*X027456Y018225D01*X027556Y018232D01*
X027812Y018199D01*X027859Y018253D01*X027643Y018441D01*
X027301Y018265D02*X0272Y018258D01*X027092Y018351D01*X027085Y018452D01*
X027132Y018506D01*X027233Y018513D01*X027488Y01848D01*X027535Y018534D01*
X02732Y018722D01*X026762Y018733D02*X026769Y018633D01*X026877Y018539D01*
X026978Y018546D01*X027165Y018762D01*X027158Y018862D01*X02705Y018956D01*
X026949Y018949D01*X026762Y018733D01*X026917Y018694D02*X02701Y018801D01*
X02658Y018797D02*X026861Y01912D01*X026791Y019039D02*X026489Y019018D01*
X0267Y019261D02*X026716Y019034D01*X023707Y021004D02*X023792Y021057D01*
X023696Y02064D01*X023766Y020623D01*X023696Y02064D02*X023626Y020656D01*
X024333Y020859D02*X02428Y020945D01*X02414Y020977D01*X024055Y020923D01*
X02399Y020645D01*X024044Y020559D01*X024183Y020527D01*X024269Y020581D01*
X024333Y020859D01*X024178Y020822D02*X024146Y020682D01*
X024523Y020888D02*X024427Y020471D01*X024451Y020575D02*
X024708Y020736D01*X024636Y020423D02*X024515Y020615D01*
X030723Y016891D02*X030716Y016992D01*X03081Y0171D01*X03091Y017107D01*
X030964Y01706D01*X030971Y016959D01*X030939Y016704D01*X030993Y016657D01*
X03118Y016872D01*X031004Y017214D02*X030997Y017315D01*X031091Y017423D01*
X031192Y01743D01*X031246Y017383D01*X031253Y017282D01*X03122Y017027D01*
X031274Y01698D01*X031461Y017196D01*X031473Y017754D02*X031372Y017747D01*
X031278Y017639D01*X031285Y017538D01*X031501Y01735D01*X031602Y017358D01*
X031695Y017465D01*X031688Y017566D01*X031473Y017754D01*
X031433Y017599D02*X031541Y017505D01*X031536Y017935D02*
X031859Y017654D01*X031779Y017724D02*X031757Y018027D01*X032Y017816D02*
X031773Y0178D01*X025812Y026051D02*X025805Y026152D01*X026128Y02587D01*
X026175Y025924D01*X026128Y02587D02*X026081Y025817D01*X026233Y026536D02*
X026133Y026529D01*X026039Y026421D01*X026046Y02632D01*X026262Y026133D01*
X026362Y02614D01*X026456Y026248D01*X026449Y026349D01*X026233Y026536D01*
X026194Y026381D02*X026301Y026288D01*X026297Y026718D02*X02662Y026436D01*
X026539Y026507D02*X026518Y026809D01*X026761Y026598D02*
X026534Y026582D01*X024187Y028122D02*X024134Y028132D01*
X024013Y028446D01*X023961Y028457D01*X023906Y028176D02*
X024241Y028402D01*X023801Y022897D02*X02371Y022854D01*X023576Y022903D01*
X023533Y022995D01*X023557Y023062D01*X023649Y023105D01*
X023899Y023166D01*X023923Y023233D01*X023655Y023331D01*
X023399Y023044D02*X023307Y023001D01*X023173Y02305D01*X02313Y023141D01*
X023155Y023209D01*X023246Y023251D01*X023496Y023312D01*
X023521Y023379D01*X023252Y023477D01*X022938Y023135D02*
X023084Y023538D01*X023048Y023437D02*X022773Y023309D01*
X022883Y023611D02*X022979Y023405D01*X023712Y02621D02*X023686Y026187D01*
X023402Y026315D01*X023513Y026031D02*X023489Y026058D01*
X023347Y026482D01*X023374Y026506D01*X015054Y025399D02*
X015112Y025316D01*X01469Y025391D01*X014677Y025321D01*X01469Y025391D02*
X014702Y025461D01*X014942Y024766D02*X015025Y024824D01*X01505Y024965D01*
X014992Y025048D01*X01471Y025097D01*X014628Y025039D01*X014603Y024898D01*
X014661Y024816D01*X014942Y024766D01*X014897Y024919D02*
X014756Y024944D01*X014982Y024578D02*X014559Y024652D01*
X014665Y024634D02*X014839Y024385D01*X014522Y024441D02*
X014708Y024572D01*X017994Y021413D02*X018078Y02147D01*X017996Y021049D01*
X018066Y021035D01*X017996Y021049D02*X017926Y021063D01*
X018625Y021291D02*X018568Y021374D01*X018428Y021402D01*
X018344Y021345D01*X01829Y021065D01*X018346Y020981D01*X018487Y020954D01*
X01857Y02101D01*X018625Y021291D01*X018471Y021248D02*X018444Y021107D01*
X018814Y021327D02*X018732Y020906D01*X018752Y021011D02*
X019004Y021181D01*X018942Y020865D02*X018815Y021053D01*
X020311Y026209D02*X020354Y026117D01*X020305Y025983D01*X020214Y02594D01*
X020147Y025965D01*X020104Y026056D01*X020043Y026307D01*
X019976Y026331D01*X019878Y026062D01*X020165Y025806D02*
X020208Y025715D01*X020159Y02558D01*X020067Y025538D01*X02Y025562D01*
X019957Y025654D01*X019896Y025904D01*X019829Y025928D01*X019732Y02566D01*
X019921Y025135D02*X020012Y025178D01*X020061Y025312D01*
X020018Y025403D01*X01975Y025501D01*X019658Y025458D01*X019609Y025324D01*
X019652Y025233D01*X019921Y025135D01*X019902Y025294D02*
X019768Y025342D01*X019927Y024943D02*X019524Y025089D01*
X019625Y025053D02*X019753Y024778D01*X019451Y024888D02*
X019657Y024984D01*X01674Y027148D02*X016798Y027065D01*X016773Y026925D01*
X01669Y026867D01*X01662Y026879D01*X016562Y026962D01*X016458Y027198D01*
X016388Y02721D01*X016338Y026929D01*X016665Y026726D02*X016723Y026643D01*
X016698Y026503D01*X016616Y026445D01*X016545Y026457D01*X016487Y02654D01*
X016384Y026776D01*X016314Y026788D01*X016264Y026507D01*
X016541Y026023D02*X016624Y02608D01*X016649Y026221D01*X016591Y026304D01*
X016309Y026354D01*X016227Y026296D01*X016202Y026155D01*X01626Y026072D01*
X016541Y026023D01*X016496Y026176D02*X016355Y0262D01*X016581Y025834D02*
X016158Y025909D01*X016264Y02589D02*X016438Y025642D01*X016121Y025698D02*
X016307Y025828D01*X033052Y010385D02*X032951Y010378D01*
X032844Y010471D01*X032837Y010572D01*X032883Y010626D01*
X032984Y010633D01*X03324Y0106D01*X033286Y010654D01*X033071Y010842D01*
X032729Y010666D02*X032628Y010659D01*X03252Y010753D01*X032513Y010853D01*
X03256Y010907D01*X032661Y010914D01*X032916Y010881D01*X032963Y010935D01*
X032747Y011123D01*X03219Y011134D02*X032197Y011034D01*X032305Y01094D01*
X032405Y010947D01*X032593Y011163D01*X032586Y011263D01*
X032478Y011357D01*X032377Y01135D01*X03219Y011134D01*X032344Y011095D02*
X032438Y011202D01*X032008Y011198D02*X032289Y011521D01*X032219Y01144D02*
X031917Y011419D01*X032127Y011662D02*X032143Y011435D01*
X028561Y005709D02*X028613Y005795D01*X028751Y00583D01*X028838Y005778D01*
X028855Y005709D01*X028803Y005622D01*X02863Y005432D01*X028647Y005362D01*
X028924Y005431D01*X028977Y005812D02*X029029Y005899D01*
X029167Y005934D01*X029254Y005882D01*X029271Y005812D01*
X029219Y005726D01*X029046Y005535D01*X029063Y005466D01*X02934Y005535D01*
X02967Y005985D02*X029583Y006037D01*X029444Y006003D01*X029392Y005916D01*
X029462Y005639D01*X029548Y005587D01*X029687Y005621D01*
X029739Y005708D01*X02967Y005985D01*X029548Y005881D02*X029583Y005743D01*
X029826Y006098D02*X029929Y005682D01*X029903Y005786D02*X03006Y006046D01*
X030137Y005734D02*X029942Y005851D01*X021421Y008277D02*
X021451Y008297D01*X02145Y008232D01*X02146Y008217D01*X021494Y008197D01*
X021568Y008181D01*X021662Y0082D01*X021692Y00822D01*X021728Y008264D01*
X021719Y008343D01*X02167Y008418D01*X021576Y008464D01*X021174Y008394D02*
X021534Y008628D01*X021354Y008511D02*X021246Y008547D01*
X021197Y008622D01*X021223Y008745D01*X021388Y008852D01*
X021145Y009227D02*X020905Y009071D01*X021222Y008937D02*
X021134Y008909D01*X021062Y008909D01*X021008Y008933D01*
X020979Y008957D01*X020964Y008981D01*X020936Y009023D01*
X020929Y009087D01*X021225Y008938D02*X021243Y00895D01*X021254Y008961D01*
X021263Y00898D01*X021261Y009008D01*X021252Y009062D01*X021209Y009128D01*
X021141Y009173D01*X021085Y009188D01*X020992Y009298D02*X020902Y00924D01*
X020779Y009266D01*X02073Y009341D01*X020756Y009464D01*X020846Y009523D01*
X02097Y009496D01*X021018Y009421D01*X020992Y009298D01*X023581Y003292D02*
X0236Y003193D01*X02352Y003075D01*X023421Y003055D01*X023362Y003095D01*
X023343Y003194D01*X023344Y003452D01*X023285Y003492D01*
X023125Y003255D01*X023341Y002937D02*X02336Y002838D01*X023281Y002719D01*
X023181Y0027D01*X023122Y00274D01*X023103Y002839D01*X023104Y003097D01*
X023045Y003137D01*X022885Y0029D01*X023141Y002512D02*X022785Y002752D01*
X022874Y002692D02*X022932Y002394D01*X022666Y002574D02*
X022889Y002617D01*X017434Y008068D02*X017526Y008026D01*
X017577Y007893D01*X017536Y007801D01*X017469Y007775D01*
X017377Y007816D01*X017167Y007965D01*X0171Y00794D01*X017203Y007673D01*
X017292Y007439D02*X017305Y007406D01*X017338Y007419D01*
X017325Y007452D01*X017292Y007439D01*X017741Y007267D02*
X017833Y007226D01*X017884Y007093D01*X017843Y007001D01*
X017776Y006975D01*X017684Y007016D01*X017474Y007165D01*
X017407Y007139D01*X01751Y006873D01*X017609Y006614D02*X017792Y006685D01*
X017899Y006654D01*X01784Y00656D01*X017657Y006489D01*X017744Y00681D02*
X017851Y006779D01*X017792Y006685D01*X017861Y006854D02*
X017561Y006739D01*X021006Y004208D02*X020907Y004188D01*
X020788Y004268D01*X020769Y004367D01*X020809Y004427D01*
X020908Y004446D01*X021166Y004444D01*X021206Y004504D01*
X020969Y004663D01*X020651Y004447D02*X020552Y004428D01*
X020433Y004508D01*X020414Y004607D01*X020454Y004666D01*
X020553Y004685D01*X020811Y004684D01*X02085Y004743D01*X020614Y004903D01*
X020059Y004847D02*X020078Y004747D01*X020196Y004668D01*
X020295Y004687D01*X020455Y004924D01*X020436Y005023D01*
X020318Y005103D01*X020218Y005083D01*X020059Y004847D01*
X020217Y004826D02*X020297Y004944D01*X019871Y004887D02*X02011Y005243D01*
X02005Y005154D02*X019753Y005096D01*X019933Y005362D02*X019976Y005139D01*
X019517Y00144D02*X019194Y001721D01*X019242Y001395D01*X019429Y001611D01*
X019334Y001883D02*X019522Y002098D01*X019705Y001656D01*
X019857Y002375D02*X019756Y002368D01*X019662Y00226D01*X019669Y002159D01*
X019885Y001972D01*X019986Y001979D01*X02008Y002087D01*X020073Y002188D01*
X019857Y002375D01*X019817Y00222D02*X019925Y002127D01*X033926Y002846D02*
X03391Y002746D01*X033795Y002663D01*X033695Y002678D01*X033653Y002736D01*
X033669Y002836D01*X033758Y003077D01*X033716Y003135D01*
X033485Y002967D01*X03358Y002594D02*X033564Y002495D01*X033448Y002411D01*
X033348Y002426D01*X033306Y002484D01*X033322Y002584D01*
X033412Y002825D01*X03337Y002883D01*X033138Y002715D01*X033246Y002264D02*
X032994Y00261D01*X033057Y002524D02*X03301Y002224D01*X032821Y002484D02*
X033045Y002449D01*X029131Y004291D02*X029182Y004378D01*
X029293Y003964D01*X029362Y003983D01*X029293Y003964D02*
X029224Y003946D01*X029752Y004457D02*X029665Y004508D01*
X029527Y004471D01*X029476Y004383D01*X02955Y004107D01*X029638Y004057D01*
X029776Y004094D01*X029826Y004181D01*X029752Y004457D01*
X029633Y004351D02*X02967Y004213D01*X029906Y004572D02*X030017Y004158D01*
X029989Y004262D02*X030141Y004524D01*X030224Y004214D02*
X030027Y004327D01*X027292Y008633D02*X027191Y008626D01*X027083Y00872D01*
X027076Y008821D01*X027123Y008875D01*X027224Y008882D01*
X027479Y008849D01*X027526Y008903D01*X02731Y00909D01*X026968Y008914D02*
X026867Y008907D01*X02676Y009001D01*X026753Y009102D01*X026799Y009156D01*
X0269Y009163D01*X027156Y00913D01*X027203Y009184D01*X026987Y009371D01*
X026429Y009383D02*X026436Y009282D01*X026544Y009189D01*
X026645Y009196D01*X026832Y009411D01*X026825Y009512D01*
X026717Y009606D01*X026617Y009599D01*X026429Y009383D01*
X026584Y009343D02*X026678Y009451D01*X026248Y009446D02*X026529Y00977D01*
X026458Y009689D02*X026156Y009668D01*X026367Y00991D02*X026383Y009684D01*
X025544Y008544D02*X025444Y008537D01*X025336Y008631D01*
X025329Y008732D01*X025376Y008786D01*X025476Y008793D01*X025732Y00876D01*
X025779Y008814D01*X025563Y009001D01*X025221Y008826D02*X02512Y008819D01*
X025012Y008912D01*X025005Y009013D01*X025052Y009067D01*
X025153Y009074D01*X025408Y009041D01*X025455Y009095D01*X02524Y009283D01*
X024682Y009294D02*X024689Y009193D01*X024797Y0091D01*X024897Y009107D01*
X025085Y009322D01*X025078Y009423D01*X02497Y009517D01*X024869Y00951D01*
X024682Y009294D01*X024836Y009254D02*X02493Y009362D01*X0245Y009357D02*
X024781Y009681D01*X024711Y0096D02*X024409Y009579D01*X02462Y009822D02*
X024635Y009595D01*X023742Y011945D02*X023641Y011938D01*
X023922Y012262D01*X023869Y012309D01*X023922Y012262D02*
X023976Y012215D01*X023257Y012367D02*X023264Y012266D01*
X023372Y012173D01*X023473Y01218D01*X02366Y012395D01*X023653Y012496D01*
X023545Y01259D01*X023444Y012583D01*X023257Y012367D01*X023412Y012327D02*
X023505Y012435D01*X022933Y012648D02*X022941Y012548D01*
X023048Y012454D01*X023149Y012461D01*X023337Y012677D01*
X023329Y012777D01*X023222Y012871D01*X023121Y012864D01*
X022933Y012648D01*X023088Y012609D02*X023182Y012716D01*
X022752Y012712D02*X023033Y013035D01*X022963Y012954D02*X02266Y012933D01*
X022871Y013176D02*X022887Y012949D01*X020825Y015088D02*
X020724Y015081D01*X021005Y015405D01*X020951Y015452D01*
X021005Y015405D02*X021059Y015358D01*X02034Y01551D02*X020347Y015409D01*
X020454Y015316D01*X020555Y015323D01*X020743Y015538D01*
X020736Y015639D01*X020628Y015733D01*X020527Y015726D01*X02034Y01551D01*
X020494Y01547D02*X020588Y015578D01*X020016Y015791D02*X020023Y015691D01*
X020131Y015597D01*X020232Y015604D01*X020419Y015819D01*X020412Y01592D01*
X020304Y016014D01*X020204Y016007D01*X020016Y015791D01*
X020171Y015751D02*X020265Y015859D01*X019835Y015855D02*
X020116Y016178D01*X020045Y016097D02*X019743Y016076D01*
X019954Y016319D02*X01997Y016092D01*X022861Y017718D02*X022799Y017639D01*
X022747Y018064D01*X022676Y018055D01*X022747Y018064D02*
X022817Y018073D01*X022223Y01764D02*X022302Y017578D01*X022444Y017595D01*
X022506Y017675D01*X022472Y017958D01*X022392Y01802D01*X02225Y018003D01*
X022188Y017923D01*X022223Y01764D01*X022356Y017728D02*X022339Y01787D01*
X022054Y017547D02*X022002Y017973D01*X022015Y017866D02*
X021829Y017627D01*X021789Y017946D02*X021969Y017807D01*
X030397Y010406D02*X030578Y010018D01*X030667Y010335D01*
X030408Y010214D01*X030384Y009928D02*X030125Y009807D01*
X030138Y010286D01*X029706Y00969D02*X029801Y009656D01*X029931Y009716D01*
X029965Y009811D01*X029845Y01007D01*X02975Y010105D01*X02962Y010044D01*
X029586Y009949D01*X029706Y00969D01*X029806Y009815D02*X029745Y009945D01*
X03293Y014544D02*X032848Y014485D01*X032915Y014908D01*X032844Y01492D01*
X032915Y014908D02*X032985Y014897D01*X032295Y014645D02*
X032354Y014563D01*X032495Y014541D01*X032577Y0146D01*X032622Y014883D01*
X032562Y014964D01*X032421Y014987D01*X032339Y014927D01*
X032295Y014645D01*X032447Y014693D02*X032469Y014834D01*
X031871Y014712D02*X031931Y01463D01*X032072Y014608D01*X032154Y014667D01*
X032198Y01495D01*X032139Y015031D01*X031998Y015054D01*X031916Y014994D01*
X031871Y014712D01*X032024Y01476D02*X032046Y014901D01*X031684Y014669D02*
X031751Y015093D01*X031734Y014987D02*X031489Y014809D01*
X031539Y015126D02*X031673Y014942D01*
M02*